Freq(kHz),Re(z),Im(z),|beta|,phase(beta)(deg)
0.000000e+00,1.324649e+01,0.000000e+00,8.596145e-01,0.000000e+00
1.010101e-01,5.373288e+00,-6.688496e+00,8.649800e-01,-1.043885e+01
2.020202e-01,1.631871e+00,-4.538521e+00,8.734139e-01,-2.218328e+01
3.030303e-01,7.091888e-01,-2.942113e+00,8.688923e-01,-3.579901e+01
4.040404e-01,4.531506e-01,-2.003917e+00,8.391528e-01,-5.121174e+01
5.050505e-01,3.776452e-01,-1.408386e+00,7.815505e-01,-6.820811e+01
6.060606e-01,3.585466e-01,-9.913092e-01,7.020850e-01,-8.678836e+01
7.070707e-01,3.596027e-01,-6.721713e-01,6.121232e-01,-1.073060e+02
8.080808e-01,3.694029e-01,-4.088169e-01,5.258614e-01,-1.304223e+02
9.090909e-01,3.846424e-01,-1.770128e-01,4.587049e-01,-1.566665e+02
1.010101e+00,4.052273e-01,3.882053e-02,4.239962e-01,1.746832e+02
1.111111e+00,4.329177e-01,2.501468e-01,4.261021e-01,1.462947e+02
1.212121e+00,4.713369e-01,4.668218e-01,4.568950e-01,1.209517e+02
1.313131e+00,5.269204e-01,6.987254e-01,5.025102e-01,9.951135e+01
1.414141e+00,6.111860e-01,9.569533e-01,5.512032e-01,8.140419e+01
1.515152e+00,7.456251e-01,1.254293e+00,5.954000e-01,6.576572e+01
1.616162e+00,9.722532e-01,1.602711e+00,6.307475e-01,5.189351e+01
1.717172e+00,1.375250e+00,1.997742e+00,6.549271e-01,3.929563e+01
1.818182e+00,2.110019e+00,2.350990e+00,6.668650e-01,2.763856e+01
1.919192e+00,3.319093e+00,2.284803e+00,6.662725e-01,1.669440e+01
2.020202e+00,4.475660e+00,1.120542e+00,6.533789e-01,6.303798e+00
2.121212e+00,4.307895e+00,-5.700414e-01,6.287730e-01,-3.647821e+00
2.222222e+00,3.289801e+00,-1.380308e+00,5.933021e-01,-1.324550e+01
2.323232e+00,2.428388e+00,-1.459034e+00,5.480042e-01,-2.255473e+01
2.424242e+00,1.876882e+00,-1.286619e+00,4.940595e-01,-3.162853e+01
2.525253e+00,1.535555e+00,-1.062314e+00,4.327514e-01,-4.051341e+01
2.626263e+00,1.319770e+00,-8.434388e-01,3.654357e-01,-4.925635e+01
2.727273e+00,1.180140e+00,-6.423115e-01,2.935133e-01,-5.791753e+01
2.828283e+00,1.089264e+00,-4.585648e-01,2.184071e-01,-6.660523e+01
2.929293e+00,1.031837e+00,-2.887399e-01,1.415469e-01,-7.561983e+01
3.030303e+00,9.993095e-01,-1.290416e-01,6.440998e-02,-8.661365e+01
3.131313e+00,9.871547e-01,2.393499e-02,1.366883e-02,1.175313e+02
3.232323e+00,9.935076e-01,1.730518e-01,8.654331e-02,8.718729e+01
3.333333e+00,1.018547e+00,3.205799e-01,1.571137e-01,7.766469e+01
3.434343e+00,1.064321e+00,4.680638e-01,2.232050e-01,6.940027e+01
3.535354e+00,1.134863e+00,6.159474e-01,2.837781e-01,6.155607e+01
3.636364e+00,1.236476e+00,7.627483e-01,3.379502e-01,5.394303e+01
3.737374e+00,1.377927e+00,9.034253e-01,3.849768e-01,4.649628e+01
3.838384e+00,1.569845e+00,1.026455e+00,4.242556e-01,3.918991e+01
3.939394e+00,1.821549e+00,1.109408e+00,4.553311e-01,3.201466e+01
4.040404e+00,2.131916e+00,1.114825e+00,4.778982e-01,2.497065e+01
4.141414e+00,2.471493e+00,9.943369e-01,4.918044e-01,1.806495e+01
4.242424e+00,2.765438e+00,7.161408e-01,4.970497e-01,1.131132e+01
4.343434e+00,2.912648e+00,3.137609e-01,4.937860e-01,4.731304e+00
4.444444e+00,2.859117e+00,-1.030710e-01,4.823146e-01,-1.643360e+00
4.545455e+00,2.646974e+00,-4.217283e-01,4.630844e-01,-7.766436e+00
4.646465e+00,2.368471e+00,-5.997215e-01,4.366916e-01,-1.356991e+01
4.747475e+00,2.096702e+00,-6.572510e-01,4.038837e-01,-1.895139e+01
4.848485e+00,1.865443e+00,-6.340930e-01,3.655754e-01,-2.375160e+01
4.949495e+00,1.681972e+00,-5.639003e-01,3.228884e-01,-2.771242e+01
5.050505e+00,1.542199e+00,-4.686948e-01,2.772476e-01,-3.039512e+01
5.151515e+00,1.439120e+00,-3.612526e-01,2.306099e-01,-3.101853e+01
5.252525e+00,1.366223e+00,-2.484891e-01,1.860125e-01,-2.816268e+01
5.353535e+00,1.318496e+00,-1.339588e-01,1.487799e-01,-1.950476e+01
5.454545e+00,1.292528e+00,-1.942080e-02,1.278768e-01,-3.312911e+00
5.555556e+00,1.286346e+00,9.421516e-02,1.317351e-01,1.585282e+01
5.656566e+00,1.299236e+00,2.062785e-01,1.574402e-01,2.945384e+01
5.757576e+00,1.331586e+00,3.158689e-01,1.946353e-01,3.589433e+01
5.858586e+00,1.384751e+00,4.213905e-01,2.356269e-01,3.758150e+01
5.959596e+00,1.460849e+00,5.199884e-01,2.762483e-01,3.651914e+01
6.060606e+00,1.562323e+00,6.068255e-01,3.141850e-01,3.385617e+01
6.161616e+00,1.691006e+00,6.742386e-01,3.480106e-01,3.023033e+01
6.262626e+00,1.846269e+00,7.110828e-01,3.767722e-01,2.601179e+01
6.363636e+00,2.021991e+00,7.031289e-01,3.998136e-01,2.142992e+01
6.464646e+00,2.202847e+00,6.360880e-01,4.166962e-01,1.663789e+01
6.565657e+00,2.362562e+00,5.026456e-01,4.271620e-01,1.174710e+01
6.666667e+00,2.468742e+00,3.117092e-01,4.311155e-01,6.847090e+00
6.767677e+00,2.496198e+00,9.232204e-02,4.286146e-01,2.018301e+00
6.868687e+00,2.440935e+00,-1.154061e-01,4.198675e-01,-2.658176e+00
6.969697e+00,2.321970e+00,-2.779748e-01,4.052339e-01,-7.091529e+00
7.070707e+00,2.169463e+00,-3.802574e-01,3.852310e-01,-1.117084e+01
7.171717e+00,2.010805e+00,-4.243723e-01,3.605496e-01,-1.475144e+01
7.272727e+00,1.863969e+00,-4.215536e-01,3.320844e-01,-1.763563e+01
7.373737e+00,1.737818e+00,-3.848580e-01,3.009909e-01,-1.954560e+01
7.474747e+00,1.635149e+00,-3.254474e-01,2.687865e-01,-2.008988e+01
7.575758e+00,1.555611e+00,-2.516108e-01,2.375138e-01,-1.874069e+01
7.676768e+00,1.497631e+00,-1.690752e-01,2.099467e-01,-1.489302e+01
7.777778e+00,1.459466e+00,-8.168758e-02,1.896402e-01,-8.178882e+00
7.878788e+00,1.439700e+00,7.918727e-03,1.802552e-01,8.457823e-01
7.979798e+00,1.437442e+00,9.777265e-02,1.837480e-01,1.030204e+01
8.080808e+00,1.452361e+00,1.861168e-01,1.988897e-01,1.802394e+01
8.181818e+00,1.484625e+00,2.710165e-01,2.221598e-01,2.299014e+01
8.282828e+00,1.534750e+00,3.499844e-01,2.497651e-01,2.534265e+01
8.383838e+00,1.603304e+00,4.196038e-01,2.786890e-01,2.566275e+01
8.484848e+00,1.690382e+00,4.751835e-01,3.067722e-01,2.452281e+01
8.585859e+00,1.794760e+00,5.105767e-01,3.324984e-01,2.236463e+01
8.686869e+00,1.912665e+00,5.184551e-01,3.547956e-01,1.950654e+01
8.787879e+00,2.036399e+00,4.914848e-01,3.729067e-01,1.617702e+01
8.888889e+00,2.153517e+00,4.247881e-01,3.863127e-01,1.254473e+01
8.989899e+00,2.247845e+00,3.193940e-01,3.946890e-01,8.740570e+00
9.090909e+00,2.303328e+00,1.849925e-01,3.978812e-01,4.873195e+00
9.191919e+00,2.309840e+00,3.938393e-02,3.958921e-01,1.040503e+00
9.292929e+00,2.267566e+00,-9.647139e-02,3.888761e-01,-2.661147e+00
9.393939e+00,2.186696e+00,-2.052835e-01,3.771398e-01,-6.128480e+00
9.494949e+00,2.082765e+00,-2.778658e-01,3.611487e-01,-9.242552e+00
9.595960e+00,1.971117e+00,-3.132353e-01,3.415418e-01,-1.185891e+01
9.696970e+00,1.863500e+00,-3.158415e-01,3.191576e-01,-1.379671e+01
9.797980e+00,1.767280e+00,-2.923847e-01,2.950754e-01,-1.482880e+01
9.898990e+00,1.686229e+00,-2.496237e-01,2.706723e-01,-1.468036e+01
1.000000e+01,1.621760e+00,-1.933402e-01,2.476823e-01,-1.305579e+01
