Freq(kHz),Re(z),Im(z),|beta|,phase(beta)(deg)
5.000000e-01,8.338768e-01,-1.390061e+00,6.083659e-01,-5.965320e+01
5.959596e-01,7.202801e-01,-1.033411e+00,5.334817e-01,-7.415151e+01
6.919192e-01,6.549907e-01,-7.367762e-01,4.490847e-01,-9.109434e+01
7.878788e-01,6.194205e-01,-4.775537e-01,3.616834e-01,-1.121222e+02
8.838384e-01,6.049029e-01,-2.407971e-01,2.851085e-01,-1.401063e+02
9.797980e-01,6.077414e-01,-1.579190e-02,2.441670e-01,-1.771318e+02
1.075758e+00,6.272791e-01,2.060208e-01,2.596344e-01,1.438529e+02
1.171717e+00,6.653892e-01,4.324400e-01,3.177814e-01,1.131756e+02
1.267677e+00,7.269677e-01,6.715796e-01,3.912452e-01,9.087436e+01
1.363636e+00,8.216245e-01,9.327640e-01,4.640330e-01,7.371140e+01
1.459596e+00,9.674783e-01,1.227056e+00,5.293727e-01,5.956767e+01
1.555556e+00,1.199339e+00,1.566154e+00,5.847394e-01,4.729168e+01
1.651515e+00,1.586301e+00,1.954057e+00,6.293761e-01,3.622595e+01
1.747475e+00,2.265380e+00,2.348070e+00,6.631906e-01,2.596051e+01
1.843434e+00,3.456822e+00,2.504820e+00,6.862774e-01,1.621743e+01
1.939394e+00,5.088436e+00,1.643512e+00,6.987246e-01,6.793286e+00
2.035354e+00,5.597429e+00,-6.645552e-01,7.005491e-01,-2.473126e+00
2.131313e+00,4.209351e+00,-2.268125e+00,6.916814e-01,-1.172170e+01
2.227273e+00,2.775608e+00,-2.446988e+00,6.719682e-01,-2.108679e+01
2.323232e+00,1.908216e+00,-2.122256e+00,6.411873e-01,-3.071167e+01
2.419192e+00,1.420175e+00,-1.733130e+00,5.990899e-01,-4.076518e+01
2.515152e+00,1.136757e+00,-1.381163e+00,5.455056e-01,-5.146731e+01
2.611111e+00,9.653081e-01,-1.076256e+00,4.805694e-01,-6.313993e+01
2.707071e+00,8.593608e-01,-8.095108e-01,4.051589e-01,-7.632894e+01
2.803030e+00,7.950880e-01,-5.702819e-01,3.217306e-01,-9.213968e+01
2.898990e+00,7.600238e-01,-3.494757e-01,2.362570e-01,-1.132457e+02
2.994949e+00,7.478358e-01,-1.396692e-01,1.644003e-01,-1.464499e+02
3.090909e+00,7.559423e-01,6.542392e-02,1.437971e-01,1.628599e+02
3.186869e+00,7.845948e-01,2.715348e-01,1.920071e-01,1.197731e+02
3.282828e+00,8.369108e-01,4.843197e-01,2.690138e-01,9.383991e+01
3.378788e+00,9.198036e-01,7.096304e-01,3.489163e-01,7.616155e+01
3.474747e+00,1.046153e+00,9.532744e-01,4.227991e-01,6.224802e+01
3.570707e+00,1.239059e+00,1.219281e+00,4.873458e-01,5.033645e+01
3.666667e+00,1.539512e+00,1.503540e+00,5.412680e-01,3.963258e+01
3.762626e+00,2.017196e+00,1.773252e+00,5.841323e-01,2.971659e+01
3.858586e+00,2.767111e+00,1.908208e+00,6.158786e-01,2.033430e+01
3.954545e+00,3.792975e+00,1.592970e+00,6.366008e-01,1.131373e+01
4.050505e+00,4.610457e+00,4.513962e-01,6.464439e-01,2.526515e+00
4.146465e+00,4.384714e+00,-1.036942e+00,6.455541e-01,-6.132888e+00
4.242424e+00,3.402106e+00,-1.838121e+00,6.340485e-01,-1.476045e+01
4.338384e+00,2.485330e+00,-1.935654e+00,6.119925e-01,-2.345250e+01
4.434343e+00,1.864051e+00,-1.738155e+00,5.793870e-01,-3.231464e+01
4.530303e+00,1.472160e+00,-1.467331e+00,5.361803e-01,-4.147187e+01
4.626263e+00,1.224487e+00,-1.197745e+00,4.823375e-01,-5.108486e+01
4.722222e+00,1.065749e+00,-9.477507e-01,4.180020e-01,-6.138622e+01
4.818182e+00,9.640845e-01,-7.180536e-01,3.437940e-01,-7.278141e+01
4.914141e+00,9.015441e-01,-5.045857e-01,2.613163e-01,-8.617968e+01
5.010101e+00,8.681633e-01,-3.024406e-01,1.743347e-01,-1.043569e+02
5.106061e+00,8.587893e-01,-1.068980e-01,9.512481e-02,-1.395825e+02
5.202020e+00,8.715504e-01,8.646583e-02,8.264578e-02,1.434084e+02
5.297980e+00,9.073434e-01,2.818974e-01,1.539030e-01,9.978792e+01
5.393939e+00,9.700914e-01,4.835219e-01,2.388128e-01,7.974996e+01
5.489899e+00,1.067792e+00,6.950696e-01,3.201338e-01,6.584980e+01
5.585859e+00,1.214615e+00,9.187246e-01,3.934983e-01,5.432048e+01
5.681818e+00,1.434426e+00,1.151675e+00,4.570520e-01,4.401508e+01
5.777778e+00,1.765334e+00,1.376701e+00,5.099044e-01,3.446341e+01
5.873737e+00,2.259558e+00,1.538697e+00,5.516699e-01,2.542669e+01
5.969697e+00,2.950935e+00,1.499399e+00,5.822588e-01,1.676223e+01
6.065657e+00,3.721146e+00,1.022355e+00,6.017635e-01,8.372946e+00
6.161616e+00,4.133164e+00,2.593049e-02,6.103899e-01,1.847461e-01
6.257576e+00,3.822015e+00,-1.010501e+00,6.084081e-01,-7.865693e+00
6.353535e+00,3.093448e+00,-1.561418e+00,5.961054e-01,-1.583875e+01
6.449495e+00,2.402149e+00,-1.658002e+00,5.737392e-01,-2.379746e+01
6.545455e+00,1.895340e+00,-1.530860e+00,5.414922e-01,-3.181146e+01
6.641414e+00,1.551383e+00,-1.326055e+00,4.994494e-01,-3.995944e+01
6.737374e+00,1.321314e+00,-1.105041e+00,4.476254e-01,-4.833071e+01
6.833333e+00,1.167518e+00,-8.887976e-01,3.860753e-01,-5.703004e+01
6.929293e+00,1.065952e+00,-6.824019e-01,3.151031e-01,-6.620081e+01
7.025253e+00,1.002118e+00,-4.852278e-01,2.355408e-01,-7.612656e+01
7.121212e+00,9.676068e-01,-2.947744e-01,1.490522e-01,-8.775082e+01
7.217172e+00,9.580044e-01,-1.079916e-01,5.908771e-02,-1.080931e+02
7.313131e+00,9.718417e-01,7.832412e-02,4.217700e-02,1.074994e+02
7.409091e+00,1.010321e+00,2.674035e-01,1.319521e-01,8.021286e+01
7.505051e+00,1.077684e+00,4.623099e-01,2.202452e-01,6.791678e+01
7.601010e+00,1.182257e+00,6.653399e-01,3.023767e-01,5.772497e+01
7.696970e+00,1.338335e+00,8.763681e-01,3.761907e-01,4.834505e+01
7.792929e+00,1.568890e+00,1.088613e+00,4.402450e-01,3.944355e+01
7.888889e+00,1.907642e+00,1.278419e+00,4.936140e-01,3.089239e+01
7.984848e+00,2.392544e+00,1.383525e+00,5.357778e-01,2.262756e+01
8.080808e+00,3.024266e+00,1.272936e+00,5.665378e-01,1.461031e+01
8.176768e+00,3.653970e+00,7.736356e-01,5.859531e-01,6.813419e+00
8.272727e+00,3.926950e+00,-9.888949e-02,5.942887e-01,-7.852133e-01
8.368687e+00,3.636677e+00,-9.461630e-01,5.919623e-01,-8.206898e+00
8.464646e+00,3.034877e+00,-1.413029e+00,5.794824e-01,-1.547587e+01
8.560606e+00,2.447153e+00,-1.522201e+00,5.573681e-01,-2.262240e+01
8.656566e+00,1.994149e+00,-1.436548e+00,5.260564e-01,-2.968422e+01
8.752525e+00,1.671643e+00,-1.270652e+00,4.858140e-01,-3.670382e+01
8.848485e+00,1.446582e+00,-1.078908e+00,4.366937e-01,-4.371754e+01
8.944444e+00,1.290067e+00,-8.827293e-01,3.785862e-01,-5.072969e+01
9.040404e+00,1.182348e+00,-6.889381e-01,3.114085e-01,-5.765468e+01
9.136364e+00,1.111005e+00,-4.984398e-01,2.354259e-01,-6.415981e+01
9.232323e+00,1.068587e+00,-3.098070e-01,1.517018e-01,-6.899914e+01
9.328283e+00,1.051008e+00,-1.205758e-01,6.372255e-02,-6.370536e+01
9.424242e+00,1.056742e+00,7.241814e-02,4.470321e-02,4.990381e+01
9.520202e+00,1.086708e+00,2.730664e-01,1.361380e-01,6.492812e+01
9.616162e+00,1.144822e+00,4.861066e-01,2.306369e-01,6.064017e+01
9.712121e+00,1.239379e+00,7.171416e-01,3.215262e-01,5.378400e+01
9.808081e+00,1.385888e+00,9.721565e-01,4.059797e-01,4.618090e+01
9.904040e+00,1.612563e+00,1.255248e+00,4.818884e-01,3.832484e+01
1.000000e+01,1.970478e+00,1.560312e+00,5.476340e-01,3.040761e+01
