Freq(kHz),Re(z),Im(z),|beta|,phase(beta)(deg)
5.000000e-01,5.856607e-01,-1.251297e+00,6.525580e-01,-7.004300e+01
5.959596e-01,5.441117e-01,-9.042216e-01,5.659182e-01,-8.640326e+01
6.919192e-01,5.248718e-01,-6.226803e-01,4.755293e-01,-1.051324e+02
7.878788e-01,5.200431e-01,-3.798830e-01,3.906722e-01,-1.276069e+02
8.838384e-01,5.265243e-01,-1.594518e-01,3.255111e-01,-1.554249e+02
9.797980e-01,5.437416e-01,4.985094e-02,2.971576e-01,1.719150e+02
1.075758e+00,5.729477e-01,2.567783e-01,3.126588e-01,1.397108e+02
1.171717e+00,6.173065e-01,4.691552e-01,3.595310e-01,1.130278e+02
1.267677e+00,6.826724e-01,6.949669e-01,4.196485e-01,9.210053e+01
1.363636e+00,7.794148e-01,9.432060e-01,4.809758e-01,7.523653e+01
1.459596e+00,9.262808e-01,1.224295e+00,5.373730e-01,6.100682e+01
1.555556e+00,1.158625e+00,1.548704e+00,5.859889e-01,4.849438e+01
1.651515e+00,1.545915e+00,1.917723e+00,6.255660e-01,3.712096e+01
1.747475e+00,2.223811e+00,2.281594e+00,6.555470e-01,2.650334e+01
1.843434e+00,3.396987e+00,2.380288e+00,6.756228e-01,1.637104e+01
1.939394e+00,4.918512e+00,1.444857e+00,6.855191e-01,6.521240e+00
2.035354e+00,5.234468e+00,-7.555761e-01,6.849190e-01,-3.206913e+00
2.131313e+00,3.878916e+00,-2.142429e+00,6.734649e-01,-1.294862e+01
2.227273e+00,2.574976e+00,-2.255581e+00,6.508142e-01,-2.282574e+01
2.323232e+00,1.793946e+00,-1.942783e+00,6.167321e-01,-3.295892e+01
2.419192e+00,1.354535e+00,-1.580637e+00,5.712183e-01,-4.348377e+01
2.515152e+00,1.099985e+00,-1.255150e+00,5.146653e-01,-5.457889e+01
2.611111e+00,9.472416e-01,-9.741260e-01,4.480549e-01,-6.652315e+01
2.707071e+00,8.543142e-01,-7.292665e-01,3.732257e-01,-7.982851e+01
2.803030e+00,7.994791e-01,-5.108229e-01,2.933692e-01,-9.558444e+01
2.898990e+00,7.712957e-01,-3.104757e-01,2.144344e-01,-1.164344e+02
2.994949e+00,7.639587e-01,-1.214771e-01,1.501389e-01,-1.488282e+02
3.090909e+00,7.751512e-01,6.173955e-02,1.312734e-01,1.626540e+02
3.186869e+00,8.051629e-01,2.439555e-01,1.713964e-01,1.209164e+02
3.282828e+00,8.567751e-01,4.294240e-01,2.375289e-01,9.542290e+01
3.378788e+00,9.357929e-01,6.218808e-01,3.074842e-01,7.808490e+01
3.474747e+00,1.052335e+00,8.240361e-01,3.733502e-01,6.448994e+01
3.570707e+00,1.223163e+00,1.035819e+00,4.320211e-01,5.285988e+01
3.666667e+00,1.475180e+00,1.249468e+00,4.821259e-01,4.239331e+01
3.762626e+00,1.848448e+00,1.436904e+00,5.230454e-01,3.267071e+01
3.858586e+00,2.388140e+00,1.521260e+00,5.545002e-01,2.343988e+01
3.954545e+00,3.086738e+00,1.336699e+00,5.763427e-01,1.453035e+01
4.050505e+00,3.726349e+00,6.797947e-01,5.884460e-01,5.816017e+00
4.146465e+00,3.853380e+00,-3.418398e-01,5.906568e-01,-2.802693e+00
4.242424e+00,3.350505e+00,-1.169743e+00,5.827912e-01,-1.140802e+01
4.338384e+00,2.639124e+00,-1.501598e+00,5.646669e-01,-2.007040e+01
4.434343e+00,2.045966e+00,-1.485846e+00,5.361626e-01,-2.885276e+01
4.530303e+00,1.630668e+00,-1.321126e+00,4.973004e-01,-3.781564e+01
4.626263e+00,1.354739e+00,-1.112419e+00,4.483433e-01,-4.702621e+01
4.722222e+00,1.173665e+00,-9.008120e-01,3.898966e-01,-5.657786e+01
4.818182e+00,1.055989e+00,-6.992009e-01,3.230013e-01,-6.663960e+01
4.914141e+00,9.819858e-01,-5.097021e-01,2.492188e-01,-7.760205e+01
5.010101e+00,9.398492e-01,-3.306659e-01,1.707934e-01,-9.063621e+01
5.106061e+00,9.228961e-01,-1.593299e-01,9.173726e-02,-1.110869e+02
5.202020e+00,9.279107e-01,7.203470e-03,3.757841e-02,1.740796e+02
5.297980e+00,9.543056e-01,1.715870e-01,9.051127e-02,9.989438e+01
5.393939e+00,1.003850e+00,3.359841e-01,1.653718e-01,7.982524e+01
5.489899e+00,1.080840e+00,5.016863e-01,2.374054e-01,6.729101e+01
5.585859e+00,1.192649e+00,6.682876e-01,3.034169e-01,5.696875e+01
5.681818e+00,1.350537e+00,8.318805e-01,3.620432e-01,4.766102e+01
5.777778e+00,1.570181e+00,9.812943e-01,4.125275e-01,3.894443e+01
5.873737e+00,1.869846e+00,1.090903e+00,4.544477e-01,3.061933e+01
5.969697e+00,2.260248e+00,1.109697e+00,4.875775e-01,2.256803e+01
6.065657e+00,2.714576e+00,9.558400e-01,5.117886e-01,1.470837e+01
6.161616e+00,3.119384e+00,5.528785e-01,5.269833e-01,6.976556e+00
6.257576e+00,3.282034e+00,-5.795593e-02,5.330553e-01,-6.793734e-01
6.353535e+00,3.098546e+00,-6.591856e-01,5.298786e-01,-8.301443e+00
6.449495e+00,2.685971e+00,-1.040903e+00,5.173219e-01,-1.592134e+01
6.545455e+00,2.237475e+00,-1.173801e+00,4.952886e-01,-2.355838e+01
6.641414e+00,1.860756e+00,-1.139612e+00,4.637775e-01,-3.121564e+01
6.737374e+00,1.578090e+00,-1.020337e+00,4.229593e-01,-3.887321e+01
6.833333e+00,1.376602e+00,-8.657548e-01,3.732608e-01,-4.647525e+01
6.929293e+00,1.237287e+00,-7.004093e-01,3.154431e-01,-5.390111e+01
7.025253e+00,1.144392e+00,-5.348433e-01,2.506652e-01,-6.088729e+01
7.121212e+00,1.086852e+00,-3.727648e-01,1.805520e-01,-6.675668e+01
7.217172e+00,1.057607e+00,-2.147729e-01,1.074855e-01,-6.902631e+01
7.313131e+00,1.052701e+00,-6.018080e-02,3.895362e-02,-4.711172e+01
7.409091e+00,1.070644e+00,9.205868e-02,5.598553e-02,4.995231e+01
7.505051e+00,1.112096e+00,2.427784e-01,1.257794e-01,5.865912e+01
7.601010e+00,1.179806e+00,3.920407e-01,1.947405e-01,5.516617e+01
7.696970e+00,1.278749e+00,5.383230e-01,2.589021e-01,4.933274e+01
7.792929e+00,1.416244e+00,6.771062e-01,3.167448e-01,4.276482e+01
7.888889e+00,1.601547e+00,7.984188e-01,3.673474e-01,3.594348e+01
7.984848e+00,1.843620e+00,8.829732e-01,4.101366e-01,2.905556e+01
8.080808e+00,2.144272e+00,8.977076e-01,4.447781e-01,2.218066e+01
8.176768e+00,2.483028e+00,7.959628e-01,4.710930e-01,1.535058e+01
8.272727e+00,2.796756e+00,5.358906e-01,4.889880e-01,8.573540e+00
8.368687e+00,2.981119e+00,1.273878e-01,4.984013e-01,1.846383e+00
8.464646e+00,2.952275e+00,-3.311514e-01,4.992686e-01,-4.837584e+00
8.560606e+00,2.725817e+00,-7.032857e-01,4.915095e-01,-1.148195e+01
8.656566e+00,2.401087e+00,-9.142817e-01,4.750390e-01,-1.807997e+01
8.752525e+00,2.075126e+00,-9.744103e-01,4.498058e-01,-2.460494e+01
8.848485e+00,1.798034e+00,-9.311229e-01,4.158557e-01,-3.099494e+01
8.944444e+00,1.581991e+00,-8.286537e-01,3.734222e-01,-3.712504e+01
9.040404e+00,1.421857e+00,-6.962205e-01,3.230452e-01,-4.274874e+01
9.136364e+00,1.307966e+00,-5.501859e-01,2.657437e-01,-4.735390e+01
9.232323e+00,1.231389e+00,-3.987095e-01,2.033715e-01,-4.974061e+01
9.328283e+00,1.185465e+00,-2.452937e-01,1.398317e-01,-4.650337e+01
9.424242e+00,1.165953e+00,-9.095354e-02,8.729498e-02,-2.632110e+01
9.520202e+00,1.170881e+00,6.453095e-02,8.410380e-02,1.898568e+01
9.616162e+00,1.200434e+00,2.218373e-01,1.351854e-01,4.214472e+01
9.712121e+00,1.257049e+00,3.814666e-01,2.009517e-01,4.643319e+01
9.808081e+00,1.345723e+00,5.429505e-01,2.673365e-01,4.448068e+01
9.904040e+00,1.474479e+00,7.035161e-01,3.298551e-01,4.013179e+01
1.000000e+01,1.654644e+00,8.556295e-01,3.862639e-01,3.471545e+01
