$MeshFormat
2.2 0 8
$EndMeshFormat
$PhysicalNames
5
1 1 "bottom wall"
1 2 "right wall"
1 3 "top wall"
1 4 "left wall"
2 5 "air"
$EndPhysicalNames
$Nodes
168
1 0 0 0
2 0.82 0 0
3 0.82 0.051 0
4 0 0.051 0
5 0.0186363946361132 0 0
6 0.03727273632836695 0 0
7 0.05590907176981272 0 0
8 0.07454545866819792 0 0
9 0.09318184649838995 0 0
10 0.1118181786510989 0 0
11 0.1304545231377688 0 0
12 0.149090902854571 0 0
13 0.1677272964560733 0 0
14 0.1863636368518783 0 0
15 0.2049999724056351 0 0
16 0.2236363627404498 0 0
17 0.2422727482332224 0 0
18 0.2609090805202046 0 0
19 0.2795454266918909 0 0
20 0.2981818080937141 0 0
21 0.316818201829784 0 0
22 0.3354545398880374 0 0
23 0.3540908788782798 0 0
24 0.3727272693254005 0 0
25 0.3913636535215503 0 0
26 0.4099999999989076 0 0
27 0.4286363464763439 0 0
28 0.4472727306726065 0 0
29 0.4659091211198444 0 0
30 0.4845454601101682 0 0
31 0.503181798168532 0 0
32 0.5218181919047166 0 0
33 0.540454573306645 0 0
34 0.5590909194784118 0 0
35 0.5777272517655082 0 0
36 0.5963636372583854 0 0
37 0.6150000275932935 0 0
38 0.6336363631471638 0 0
39 0.652272703543071 0 0
40 0.6709090971446867 0 0
41 0.6895454768615821 0 0
42 0.7081818213483648 0 0
43 0.7268181535011763 0 0
44 0.7454545413314509 0 0
45 0.7640909282299051 0 0
46 0.7827272636714472 0 0
47 0.8013636053637943 0 0
48 0.82 0.03399999997385661 0
49 0.82 0.01700000002622512 0
50 0.8013636053638826 0.051 0
51 0.7827272636716189 0.051 0
52 0.7640909282301867 0.051 0
53 0.745454541331811 0.051 0
54 0.72681815350162 0.051 0
55 0.7081818213489213 0.051 0
56 0.6895454768622368 0.051 0
57 0.6709090971454281 0.051 0
58 0.6522727035439311 0.051 0
59 0.6336363631481127 0.051 0
60 0.6150000275943578 0.051 0
61 0.5963636372595441 0.051 0
62 0.5777272517667827 0.051 0
63 0.5590909194797999 0.051 0
64 0.5404545733081201 0.051 0
65 0.5218181919062901 0.051 0
66 0.5031817981702239 0.051 0
67 0.4845454601119703 0.051 0
68 0.4659091211217276 0.051 0
69 0.4472727306746066 0.051 0
70 0.4286363464784565 0.051 0
71 0.4100000000010989 0.051 0
72 0.3913636535236623 0.051 0
73 0.3727272693273994 0.051 0
74 0.3540908788801612 0.051 0
75 0.3354545398898371 0.051 0
76 0.3168182018314729 0.051 0
77 0.2981818080952882 0.051 0
78 0.2795454266933594 0.051 0
79 0.2609090805215923 0.051 0
80 0.2422727482344957 0.051 0
81 0.2236363627416181 0.051 0
82 0.2049999724067098 0.051 0
83 0.1863636368528392 0.051 0
84 0.1677272964569316 0.051 0
85 0.1490909028553156 0.051 0
86 0.1304545231384199 0.051 0
87 0.1118181786516368 0.051 0
88 0.09318184649882499 0.051 0
89 0.07454545866855 0.051 0
90 0.05590907177009585 0.051 0
91 0.03727273632855332 0.051 0
92 0.01863639463620603 0.051 0
93 0 0.03399999997385661 0
94 0 0.01700000002622512 0
95 0.7894293999200288 0.02519092025083004 0
96 0.03057060007995748 0.02580907974920154 0
97 0.7174999874252688 0.02550000000008088 0
98 0.1025000125747444 0.02549999999992052 0
99 0.2515909143767136 0.02549999999976734 0
100 0.5684090856232906 0.02550000000023274 0
101 0.621472882978147 0.02521152854459968 0
102 0.1985271170218508 0.02578847145540006 0
103 0.3261363708589105 0.02549999999969142 0
104 0.4938636291410969 0.02550000000030914 0
105 0.400681826760229 0.02549999999961431 0
106 0.7547727347809986 0.02550000000005093 0
107 0.06522726521900532 0.02549999999994826 0
108 0.1555637882712187 0.02578847145532564 0
109 0.6644362117287831 0.02521152854467388 0
110 0.3634090741018403 0.0254999999996563 0
111 0.4537456138317978 0.02578847154618269 0
112 0.2888636173928025 0.02549999999973173 0
113 0.5311363826072061 0.02550000000026955 0
114 0.1354763832107437 0.02555769429107702 0
115 0.684523616789261 0.02544230570892269 0
116 0.4336582074920419 0.02555769430927529 0
117 0.6013854873712094 0.02544230570894163 0
118 0.2186145126287901 0.02555769429105823 0
119 0.7728858845107016 0.0335904426518733 0
120 0.04711411548929342 0.01740955734813324 0
121 0.307500004961749 0.01785755570542552 0
122 0.5124999950382569 0.03314244429457446 0
123 0.7361363474167151 0.03314244753156274 0
124 0.08386365258329395 0.01785755246843902 0
125 0.3820454614234752 0.01785755703887146 0
126 0.5497727463925274 0.01785754490723865 0
127 0.2702272536074762 0.03314245509276211 0
128 0.6429545333460229 0.03314245495547688 0
129 0.1770454666539757 0.01785754504451965 0
130 0.4752272906150062 0.01785754570437687 0
131 0.3447727093849993 0.03314245429562487 0
132 0.5497727414821888 0.03417150898154819 0
133 0.2702272585178175 0.01682849101845224 0
134 0.1770454610513632 0.03428689759104907 0
135 0.6429545389486375 0.01671310240895009 0
136 0.3447727146224134 0.01682849085899452 0
137 0.4746582229643198 0.03422920345017374 0
138 0.7727812422226162 0.01685627258055085 0
139 0.04721875777738108 0.03414372741945661 0
140 0.736136352891122 0.01682848950633891 0
141 0.08386364710888375 0.03417151049366156 0
142 0.5124999993719616 0.01682848885903063 0
143 0.3075000006280446 0.03417151114096974 0
144 0.3820454570273212 0.03417151140762841 0
145 0.6971564995699865 0.0351357263901026 0
146 0.1228435004300232 0.01586427360989686 0
147 0.6961891148329329 0.01634640870866893 0
148 0.1238108851670726 0.03465359129133128 0
149 0.4210253224181046 0.01586427371904038 0
150 0.4219927069544105 0.03465359146797589 0
151 0.2312474040730898 0.03514946360641048 0
152 0.5887525959269129 0.01585053639358882 0
153 0.2302800182708846 0.01636793036185153 0
154 0.5897199817291151 0.03463206963814822 0
155 0.01687033744545036 0.01322714467386793 0
156 0.8031296625544999 0.01312411809080186 0
157 0.8052357045014327 0.03461643404881622 0
158 0.01476429549859531 0.03471946063187874 0
159 0.6052260012838506 0.038212639528275 0
160 0.2147739987161443 0.01278736047172459 0
161 0.6051272884461205 0.01266391909795018 0
162 0.2148727115538822 0.03833608090205151 0
163 0.6806831117318666 0.01271451629553277 0
164 0.1393168882681363 0.03828548370446752 0
165 0.1392181755393818 0.01273596490706793 0
166 0.6807818244606219 0.03826403509293225 0
167 0.4374987133263947 0.03828548419051793 0
168 0.4374000006171813 0.01273596447220033 0
$EndNodes
$Elements
334
1 1 2 1 1 1 5
2 1 2 1 1 5 6
3 1 2 1 1 6 7
4 1 2 1 1 7 8
5 1 2 1 1 8 9
6 1 2 1 1 9 10
7 1 2 1 1 10 11
8 1 2 1 1 11 12
9 1 2 1 1 12 13
10 1 2 1 1 13 14
11 1 2 1 1 14 15
12 1 2 1 1 15 16
13 1 2 1 1 16 17
14 1 2 1 1 17 18
15 1 2 1 1 18 19
16 1 2 1 1 19 20
17 1 2 1 1 20 21
18 1 2 1 1 21 22
19 1 2 1 1 22 23
20 1 2 1 1 23 24
21 1 2 1 1 24 25
22 1 2 1 1 25 26
23 1 2 1 1 26 27
24 1 2 1 1 27 28
25 1 2 1 1 28 29
26 1 2 1 1 29 30
27 1 2 1 1 30 31
28 1 2 1 1 31 32
29 1 2 1 1 32 33
30 1 2 1 1 33 34
31 1 2 1 1 34 35
32 1 2 1 1 35 36
33 1 2 1 1 36 37
34 1 2 1 1 37 38
35 1 2 1 1 38 39
36 1 2 1 1 39 40
37 1 2 1 1 40 41
38 1 2 1 1 41 42
39 1 2 1 1 42 43
40 1 2 1 1 43 44
41 1 2 1 1 44 45
42 1 2 1 1 45 46
43 1 2 1 1 46 47
44 1 2 1 1 47 2
45 1 2 2 2 3 48
46 1 2 2 2 48 49
47 1 2 2 2 49 2
48 1 2 3 3 3 50
49 1 2 3 3 50 51
50 1 2 3 3 51 52
51 1 2 3 3 52 53
52 1 2 3 3 53 54
53 1 2 3 3 54 55
54 1 2 3 3 55 56
55 1 2 3 3 56 57
56 1 2 3 3 57 58
57 1 2 3 3 58 59
58 1 2 3 3 59 60
59 1 2 3 3 60 61
60 1 2 3 3 61 62
61 1 2 3 3 62 63
62 1 2 3 3 63 64
63 1 2 3 3 64 65
64 1 2 3 3 65 66
65 1 2 3 3 66 67
66 1 2 3 3 67 68
67 1 2 3 3 68 69
68 1 2 3 3 69 70
69 1 2 3 3 70 71
70 1 2 3 3 71 72
71 1 2 3 3 72 73
72 1 2 3 3 73 74
73 1 2 3 3 74 75
74 1 2 3 3 75 76
75 1 2 3 3 76 77
76 1 2 3 3 77 78
77 1 2 3 3 78 79
78 1 2 3 3 79 80
79 1 2 3 3 80 81
80 1 2 3 3 81 82
81 1 2 3 3 82 83
82 1 2 3 3 83 84
83 1 2 3 3 84 85
84 1 2 3 3 85 86
85 1 2 3 3 86 87
86 1 2 3 3 87 88
87 1 2 3 3 88 89
88 1 2 3 3 89 90
89 1 2 3 3 90 91
90 1 2 3 3 91 92
91 1 2 3 3 92 4
92 1 2 4 4 4 93
93 1 2 4 4 93 94
94 1 2 4 4 94 1
95 2 2 5 6 91 92 158
96 2 2 5 6 46 47 156
97 2 2 5 6 50 51 157
98 2 2 5 6 5 6 155
99 2 2 5 6 42 43 97
100 2 2 5 6 87 88 98
101 2 2 5 6 54 55 97
102 2 2 5 6 9 10 98
103 2 2 5 6 34 35 100
104 2 2 5 6 79 80 99
105 2 2 5 6 17 18 99
106 2 2 5 6 62 63 100
107 2 2 5 6 82 83 102
108 2 2 5 6 37 38 101
109 2 2 5 6 59 60 101
110 2 2 5 6 14 15 102
111 2 2 5 6 12 13 108
112 2 2 5 6 57 58 109
113 2 2 5 6 39 40 109
114 2 2 5 6 84 85 108
115 2 2 5 6 30 31 104
116 2 2 5 6 75 76 103
117 2 2 5 6 21 22 103
118 2 2 5 6 66 67 104
119 2 2 5 6 28 29 111
120 2 2 5 6 73 74 110
121 2 2 5 6 23 24 110
122 2 2 5 6 68 69 111
123 2 2 5 6 89 90 107
124 2 2 5 6 44 45 106
125 2 2 5 6 52 53 106
126 2 2 5 6 7 8 107
127 2 2 5 6 71 72 105
128 2 2 5 6 25 26 105
129 2 2 5 6 32 33 113
130 2 2 5 6 77 78 112
131 2 2 5 6 64 65 113
132 2 2 5 6 19 20 112
133 2 2 5 6 93 94 158
134 2 2 5 6 48 157 49
135 2 2 5 6 46 156 95
136 2 2 5 6 91 158 96
137 2 2 5 6 6 96 155
138 2 2 5 6 51 95 157
139 2 2 5 6 46 95 138
140 2 2 5 6 91 96 139
141 2 2 5 6 6 120 96
142 2 2 5 6 51 119 95
143 2 2 5 6 82 102 162
144 2 2 5 6 37 101 161
145 2 2 5 6 60 159 101
146 2 2 5 6 15 160 102
147 2 2 5 6 12 108 165
148 2 2 5 6 57 109 166
149 2 2 5 6 40 163 109
150 2 2 5 6 85 164 108
151 2 2 5 6 28 111 168
152 2 2 5 6 69 167 111
153 2 2 5 6 17 99 153
154 2 2 5 6 62 100 154
155 2 2 5 6 35 152 100
156 2 2 5 6 80 151 99
157 2 2 5 6 42 97 147
158 2 2 5 6 87 98 148
159 2 2 5 6 55 145 97
160 2 2 5 6 10 146 98
161 2 2 5 6 71 105 150
162 2 2 5 6 26 149 105
163 2 2 5 6 90 139 107
164 2 2 5 6 45 138 106
165 2 2 5 6 39 109 135
166 2 2 5 6 84 108 134
167 2 2 5 6 23 110 136
168 2 2 5 6 68 111 137
169 2 2 5 6 64 113 132
170 2 2 5 6 19 112 133
171 2 2 5 6 88 141 98
172 2 2 5 6 43 140 97
173 2 2 5 6 76 143 103
174 2 2 5 6 31 142 104
175 2 2 5 6 18 133 99
176 2 2 5 6 63 132 100
177 2 2 5 6 72 144 105
178 2 2 5 6 38 135 101
179 2 2 5 6 83 134 102
180 2 2 5 6 22 136 103
181 2 2 5 6 67 137 104
182 2 2 5 6 73 110 144
183 2 2 5 6 32 113 142
184 2 2 5 6 77 112 143
185 2 2 5 6 44 106 140
186 2 2 5 6 89 107 141
187 2 2 5 6 13 129 108
188 2 2 5 6 58 128 109
189 2 2 5 6 74 131 110
190 2 2 5 6 29 130 111
191 2 2 5 6 52 106 119
192 2 2 5 6 7 107 120
193 2 2 5 6 78 127 112
194 2 2 5 6 33 126 113
195 2 2 5 6 54 97 123
196 2 2 5 6 9 98 124
197 2 2 5 6 21 103 121
198 2 2 5 6 66 104 122
199 2 2 5 6 34 100 126
200 2 2 5 6 79 99 127
201 2 2 5 6 25 105 125
202 2 2 5 6 59 101 128
203 2 2 5 6 14 102 129
204 2 2 5 6 30 104 130
205 2 2 5 6 75 103 131
206 2 2 5 6 20 121 112
207 2 2 5 6 65 122 113
208 2 2 5 6 24 125 110
209 2 2 5 6 53 123 106
210 2 2 5 6 8 124 107
211 2 2 5 6 94 155 158
212 2 2 5 6 49 157 156
213 2 2 5 6 20 21 121
214 2 2 5 6 65 66 122
215 2 2 5 6 53 54 123
216 2 2 5 6 8 9 124
217 2 2 5 6 51 52 119
218 2 2 5 6 6 7 120
219 2 2 5 6 24 25 125
220 2 2 5 6 33 34 126
221 2 2 5 6 78 79 127
222 2 2 5 6 58 59 128
223 2 2 5 6 13 14 129
224 2 2 5 6 29 30 130
225 2 2 5 6 74 75 131
226 2 2 5 6 2 49 156
227 2 2 5 6 1 155 94
228 2 2 5 6 3 157 48
229 2 2 5 6 4 93 158
230 2 2 5 6 3 50 157
231 2 2 5 6 2 156 47
232 2 2 5 6 4 158 92
233 2 2 5 6 1 5 155
234 2 2 5 6 100 152 154
235 2 2 5 6 99 151 153
236 2 2 5 6 105 149 150
237 2 2 5 6 97 145 147
238 2 2 5 6 98 146 148
239 2 2 5 6 31 32 142
240 2 2 5 6 76 77 143
241 2 2 5 6 43 44 140
242 2 2 5 6 88 89 141
243 2 2 5 6 18 19 133
244 2 2 5 6 63 64 132
245 2 2 5 6 72 73 144
246 2 2 5 6 83 84 134
247 2 2 5 6 38 39 135
248 2 2 5 6 22 23 136
249 2 2 5 6 67 68 137
250 2 2 5 6 45 46 138
251 2 2 5 6 90 91 139
252 2 2 5 6 96 120 139
253 2 2 5 6 95 119 138
254 2 2 5 6 111 116 168
255 2 2 5 6 111 167 116
256 2 2 5 6 109 115 166
257 2 2 5 6 108 114 165
258 2 2 5 6 109 163 115
259 2 2 5 6 108 164 114
260 2 2 5 6 102 118 162
261 2 2 5 6 101 117 161
262 2 2 5 6 102 160 118
263 2 2 5 6 101 159 117
264 2 2 5 6 80 81 151
265 2 2 5 6 35 36 152
266 2 2 5 6 16 17 153
267 2 2 5 6 61 62 154
268 2 2 5 6 55 56 145
269 2 2 5 6 10 11 146
270 2 2 5 6 41 42 147
271 2 2 5 6 86 87 148
272 2 2 5 6 26 27 149
273 2 2 5 6 70 71 150
274 2 2 5 6 117 154 152
275 2 2 5 6 118 153 151
276 2 2 5 6 114 148 146
277 2 2 5 6 115 147 145
278 2 2 5 6 116 150 149
279 2 2 5 6 60 61 159
280 2 2 5 6 15 16 160
281 2 2 5 6 36 37 161
282 2 2 5 6 81 82 162
283 2 2 5 6 69 70 167
284 2 2 5 6 27 28 168
285 2 2 5 6 40 41 163
286 2 2 5 6 85 86 164
287 2 2 5 6 11 12 165
288 2 2 5 6 56 57 166
289 2 2 5 6 113 122 142
290 2 2 5 6 112 121 143
291 2 2 5 6 107 124 141
292 2 2 5 6 106 123 140
293 2 2 5 6 110 125 144
294 2 2 5 6 103 143 121
295 2 2 5 6 104 142 122
296 2 2 5 6 105 144 125
297 2 2 5 6 109 128 135
298 2 2 5 6 108 129 134
299 2 2 5 6 112 127 133
300 2 2 5 6 113 126 132
301 2 2 5 6 110 131 136
302 2 2 5 6 111 130 137
303 2 2 5 6 98 141 124
304 2 2 5 6 97 140 123
305 2 2 5 6 107 139 120
306 2 2 5 6 106 138 119
307 2 2 5 6 99 133 127
308 2 2 5 6 100 132 126
309 2 2 5 6 104 137 130
310 2 2 5 6 103 136 131
311 2 2 5 6 101 135 128
312 2 2 5 6 102 134 129
313 2 2 5 6 36 161 152
314 2 2 5 6 81 162 151
315 2 2 5 6 16 153 160
316 2 2 5 6 61 154 159
317 2 2 5 6 27 168 149
318 2 2 5 6 70 150 167
319 2 2 5 6 56 166 145
320 2 2 5 6 11 165 146
321 2 2 5 6 41 147 163
322 2 2 5 6 86 148 164
323 2 2 5 6 96 158 155
324 2 2 5 6 95 156 157
325 2 2 5 6 118 151 162
326 2 2 5 6 117 152 161
327 2 2 5 6 118 160 153
328 2 2 5 6 117 159 154
329 2 2 5 6 116 149 168
330 2 2 5 6 116 167 150
331 2 2 5 6 114 164 148
332 2 2 5 6 115 163 147
333 2 2 5 6 115 145 166
334 2 2 5 6 114 146 165
$EndElements
