x(m),SPL1,SPL2,SPL3,SPL4,SPL5,SPL6
0.000000e+00,1.300400e+02,1.299480e+02,1.302670e+02,1.299290e+02,1.303380e+02,1.302590e+02
5.616441e-03,1.304630e+02,1.298579e+02,1.298538e+02,1.299629e+02,1.302770e+02,1.298862e+02
1.123288e-02,1.308545e+02,1.298233e+02,1.291751e+02,1.299134e+02,1.299298e+02,1.295693e+02
1.684933e-02,1.311264e+02,1.301181e+02,1.285387e+02,1.301696e+02,1.298783e+02,1.299838e+02
2.246578e-02,1.313683e+02,1.309101e+02,1.281257e+02,1.305591e+02,1.296604e+02,1.303244e+02
2.808220e-02,1.316549e+02,1.319929e+02,1.274487e+02,1.304043e+02,1.290152e+02,1.305257e+02
3.369861e-02,1.318641e+02,1.332987e+02,1.264749e+02,1.304272e+02,1.290123e+02,1.308016e+02
3.931508e-02,1.321568e+02,1.344555e+02,1.265756e+02,1.305105e+02,1.288674e+02,1.306381e+02
4.299193e-02,1.323682e+02,1.350505e+02,1.269020e+02,1.303897e+02,1.288563e+02,1.304976e+02
5.054795e-02,1.328094e+02,1.360890e+02,1.274754e+02,1.299109e+02,1.294713e+02,1.299572e+02
5.422475e-02,1.329740e+02,1.364981e+02,1.276904e+02,1.297736e+02,1.297388e+02,1.294516e+02
6.178083e-02,1.331672e+02,1.371219e+02,1.284448e+02,1.296168e+02,1.300067e+02,1.287958e+02
6.545768e-02,1.331353e+02,1.372992e+02,1.289921e+02,1.294505e+02,1.301121e+02,1.286598e+02
6.933691e-02,1.330521e+02,1.374439e+02,1.293737e+02,1.293703e+02,1.301229e+02,1.286769e+02
7.669050e-02,1.330306e+02,1.375622e+02,1.295717e+02,1.297390e+02,1.299590e+02,1.294221e+02
8.056973e-02,1.330876e+02,1.375187e+02,1.298272e+02,1.299432e+02,1.297633e+02,1.298723e+02
8.792342e-02,1.332464e+02,1.376363e+02,1.302469e+02,1.302190e+02,1.292335e+02,1.304763e+02
9.180265e-02,1.333432e+02,1.378723e+02,1.302468e+02,1.304075e+02,1.290405e+02,1.308097e+02
9.915627e-02,1.334002e+02,1.387976e+02,1.299852e+02,1.305544e+02,1.288360e+02,1.310641e+02
1.030355e-01,1.332648e+02,1.395340e+02,1.298252e+02,1.304104e+02,1.288497e+02,1.311688e+02
1.103891e-01,1.329353e+02,1.410495e+02,1.294048e+02,1.303434e+02,1.294938e+02,1.314410e+02
1.142684e-01,1.326681e+02,1.417761e+02,1.290425e+02,1.303782e+02,1.297693e+02,1.314608e+02
1.216220e-01,1.324096e+02,1.432157e+02,1.279222e+02,1.299456e+02,1.299648e+02,1.314590e+02
1.255013e-01,1.324507e+02,1.439505e+02,1.273822e+02,1.298107e+02,1.299754e+02,1.313345e+02
1.328549e-01,1.322477e+02,1.449435e+02,1.268305e+02,1.297235e+02,1.297241e+02,1.311515e+02
1.367341e-01,1.320033e+02,1.453116e+02,1.266309e+02,1.296109e+02,1.294448e+02,1.307474e+02
1.404110e-01,1.317484e+02,1.456340e+02,1.266511e+02,1.295403e+02,1.291715e+02,1.302062e+02
1.479670e-01,1.311018e+02,1.460819e+02,1.269773e+02,1.297274e+02,1.285899e+02,1.286709e+02
1.516438e-01,1.307479e+02,1.462069e+02,1.273377e+02,1.298419e+02,1.283981e+02,1.276355e+02
1.591999e-01,1.300459e+02,1.465189e+02,1.282969e+02,1.299607e+02,1.285385e+02,1.257536e+02
1.628767e-01,1.297189e+02,1.467927e+02,1.286493e+02,1.301146e+02,1.288915e+02,1.257357e+02
1.684932e-01,1.293076e+02,1.472980e+02,1.291398e+02,1.305424e+02,1.296973e+02,1.270113e+02
1.741096e-01,1.289335e+02,1.481504e+02,1.296735e+02,1.307667e+02,1.304577e+02,1.286522e+02
1.797260e-01,1.285730e+02,1.493987e+02,1.301186e+02,1.307845e+02,1.310593e+02,1.301922e+02
1.853425e-01,1.282231e+02,1.508960e+02,1.303463e+02,1.308514e+02,1.315347e+02,1.314233e+02
1.909589e-01,1.273157e+02,1.525421e+02,1.304433e+02,1.305692e+02,1.316702e+02,1.322021e+02
1.965753e-01,1.263336e+02,1.540345e+02,1.305899e+02,1.303150e+02,1.318762e+02,1.329469e+02
2.021917e-01,1.255541e+02,1.554770e+02,1.307052e+02,1.303262e+02,1.318814e+02,1.332663e+02
2.078082e-01,1.250574e+02,1.569091e+02,1.306112e+02,1.299426e+02,1.314935e+02,1.333576e+02
2.134247e-01,1.254755e+02,1.582344e+02,1.304194e+02,1.296292e+02,1.310345e+02,1.332101e+02
2.190411e-01,1.255333e+02,1.594210e+02,1.302656e+02,1.295489e+02,1.304066e+02,1.331463e+02
2.246575e-01,1.253462e+02,1.604885e+02,1.301246e+02,1.293183e+02,1.297673e+02,1.330325e+02
2.302740e-01,1.248348e+02,1.614928e+02,1.298771e+02,1.290934e+02,1.288834e+02,1.326576e+02
2.339508e-01,1.243427e+02,1.621184e+02,1.296408e+02,1.290252e+02,1.282569e+02,1.324738e+02
2.415068e-01,1.235753e+02,1.632958e+02,1.293482e+02,1.288983e+02,1.268475e+02,1.320287e+02
2.451837e-01,1.233804e+02,1.638004e+02,1.293379e+02,1.289637e+02,1.261272e+02,1.319023e+02
2.527397e-01,1.234725e+02,1.648248e+02,1.291664e+02,1.290953e+02,1.245588e+02,1.314377e+02
2.564165e-01,1.238346e+02,1.653144e+02,1.290399e+02,1.290975e+02,1.237781e+02,1.312136e+02
2.602958e-01,1.244014e+02,1.658218e+02,1.289961e+02,1.291459e+02,1.231523e+02,1.310009e+02
2.676494e-01,1.249102e+02,1.668406e+02,1.289142e+02,1.290958e+02,1.223411e+02,1.304305e+02
2.715287e-01,1.248948e+02,1.674299e+02,1.287497e+02,1.289985e+02,1.222231e+02,1.301852e+02
2.788823e-01,1.237982e+02,1.686947e+02,1.285283e+02,1.289749e+02,1.225946e+02,1.296450e+02
2.827615e-01,1.229052e+02,1.694588e+02,1.285976e+02,1.289367e+02,1.229032e+02,1.293131e+02
2.901152e-01,1.207211e+02,1.711073e+02,1.284476e+02,1.288641e+02,1.235492e+02,1.285893e+02
2.939944e-01,1.202009e+02,1.720338e+02,1.283570e+02,1.288509e+02,1.238607e+02,1.282296e+02
3.013480e-01,1.191226e+02,1.738347e+02,1.285124e+02,1.287546e+02,1.245393e+02,1.277830e+02
3.052273e-01,1.194491e+02,1.748123e+02,1.284437e+02,1.287404e+02,1.248450e+02,1.274676e+02
3.125809e-01,1.191014e+02,1.766620e+02,1.280993e+02,1.286716e+02,1.253697e+02,1.269864e+02
3.164602e-01,1.183394e+02,1.776283e+02,1.280200e+02,1.286921e+02,1.256137e+02,1.266863e+02
3.201370e-01,1.175328e+02,1.785415e+02,1.279367e+02,1.286944e+02,1.257641e+02,1.263430e+02
3.276930e-01,1.110928e+02,1.803286e+02,1.275933e+02,1.287225e+02,1.259611e+02,1.256867e+02
3.313698e-01,1.139079e+02,1.811594e+02,1.274629e+02,1.287747e+02,1.260249e+02,1.254003e+02
3.389259e-01,1.187761e+02,1.827222e+02,1.272622e+02,1.288244e+02,1.261222e+02,1.246855e+02
3.426027e-01,1.206944e+02,1.834276e+02,1.271682e+02,1.287168e+02,1.260764e+02,1.242565e+02
3.501588e-01,1.220078e+02,1.847500e+02,1.270010e+02,1.285671e+02,1.259272e+02,1.235578e+02
3.538356e-01,1.220807e+02,1.853621e+02,1.269549e+02,1.284738e+02,1.257505e+02,1.232170e+02
3.594520e-01,1.229498e+02,1.862483e+02,1.268192e+02,1.281796e+02,1.252847e+02,1.227942e+02
3.650685e-01,1.244410e+02,1.870745e+02,1.265003e+02,1.282387e+02,1.249709e+02,1.227305e+02
3.706849e-01,1.254526e+02,1.878460e+02,1.263836e+02,1.283674e+02,1.246654e+02,1.224814e+02
3.763014e-01,1.251674e+02,1.885827e+02,1.265583e+02,1.282587e+02,1.240859e+02,1.220073e+02
3.819178e-01,1.255928e+02,1.893277e+02,1.264327e+02,1.282636e+02,1.235895e+02,1.213924e+02
3.875342e-01,1.260021e+02,1.900186e+02,1.260996e+02,1.282915e+02,1.231747e+02,1.206741e+02
3.931507e-01,1.267844e+02,1.907055e+02,1.261684e+02,1.283081e+02,1.229002e+02,1.200357e+02
3.987671e-01,1.268763e+02,1.915490e+02,1.264805e+02,1.283284e+02,1.228705e+02,1.195851e+02
4.043835e-01,1.268914e+02,1.925644e+02,1.265998e+02,1.283666e+02,1.229233e+02,1.190687e+02
4.100000e-01,1.259132e+02,1.937348e+02,1.264093e+02,1.283472e+02,1.229563e+02,1.188071e+02
4.156165e-01,1.268740e+02,1.950605e+02,1.263925e+02,1.282069e+02,1.229391e+02,1.185364e+02
4.212329e-01,1.263823e+02,1.964057e+02,1.263212e+02,1.280196e+02,1.228571e+02,1.183407e+02
4.249097e-01,1.261663e+02,1.972690e+02,1.262196e+02,1.279617e+02,1.228271e+02,1.183826e+02
4.324658e-01,1.254093e+02,1.991127e+02,1.259213e+02,1.278742e+02,1.225650e+02,1.179470e+02
4.361426e-01,1.254340e+02,2.000349e+02,1.257788e+02,1.277584e+02,1.223367e+02,1.174964e+02
4.436986e-01,1.254047e+02,2.019714e+02,1.255331e+02,1.276547e+02,1.218578e+02,1.164436e+02
4.473755e-01,1.261695e+02,2.029101e+02,1.253704e+02,1.276742e+02,1.216002e+02,1.157315e+02
4.512547e-01,1.287099e+02,2.038873e+02,1.251244e+02,1.276089e+02,1.213058e+02,1.150477e+02
4.586083e-01,1.292821e+02,2.055829e+02,1.247939e+02,1.277661e+02,1.213700e+02,1.148569e+02
4.624876e-01,1.284815e+02,2.063641e+02,1.247343e+02,1.279659e+02,1.216994e+02,1.146260e+02
4.698412e-01,1.285061e+02,2.077521e+02,1.243961e+02,1.279519e+02,1.220725e+02,1.148784e+02
4.737205e-01,1.304561e+02,2.084011e+02,1.240242e+02,1.279027e+02,1.224330e+02,1.148866e+02
4.810741e-01,1.303429e+02,2.094892e+02,1.236103e+02,1.279203e+02,1.230783e+02,1.147803e+02
4.849533e-01,1.314236e+02,2.100734e+02,1.236644e+02,1.278328e+02,1.232196e+02,1.146078e+02
4.923070e-01,1.310157e+02,2.113000e+02,1.237835e+02,1.276133e+02,1.233420e+02,1.136230e+02
4.961862e-01,1.296993e+02,2.118706e+02,1.237860e+02,1.275070e+02,1.232174e+02,1.129281e+02
5.035398e-01,1.285868e+02,2.129378e+02,1.238291e+02,1.272526e+02,1.224951e+02,1.111864e+02
5.074191e-01,1.305674e+02,2.134550e+02,1.239673e+02,1.270750e+02,1.218971e+02,1.103495e+02
5.110959e-01,1.311889e+02,2.138435e+02,1.240882e+02,1.269892e+02,1.212614e+02,1.100937e+02
5.186520e-01,1.328108e+02,2.146232e+02,1.243395e+02,1.271783e+02,1.196897e+02,1.107460e+02
5.223288e-01,1.336253e+02,2.150988e+02,1.244093e+02,1.272628e+02,1.188853e+02,1.111839e+02
5.298848e-01,1.346381e+02,2.164819e+02,1.245326e+02,1.274271e+02,1.183430e+02,1.119640e+02
5.335617e-01,1.367893e+02,2.174019e+02,1.245562e+02,1.275405e+02,1.187286e+02,1.119235e+02
5.411177e-01,1.425080e+02,2.193682e+02,1.243534e+02,1.275171e+02,1.202742e+02,1.112480e+02
5.447945e-01,1.432763e+02,2.201981e+02,1.242519e+02,1.275610e+02,1.212405e+02,1.107294e+02
5.504109e-01,1.439964e+02,2.214044e+02,1.242491e+02,1.277193e+02,1.224803e+02,1.091815e+02
5.560274e-01,1.438917e+02,2.226226e+02,1.240683e+02,1.274998e+02,1.230733e+02,1.069848e+02
5.616439e-01,1.431416e+02,2.238373e+02,1.235725e+02,1.272606e+02,1.233469e+02,1.049297e+02
5.672603e-01,1.414484e+02,2.253281e+02,1.232071e+02,1.269979e+02,1.229532e+02,1.049423e+02
5.728767e-01,1.392813e+02,2.269900e+02,1.228517e+02,1.265925e+02,1.222406e+02,1.070024e+02
5.784932e-01,1.361180e+02,2.286189e+02,1.221682e+02,1.262568e+02,1.208692e+02,1.086361e+02
5.841096e-01,1.344798e+02,2.300479e+02,1.214618e+02,1.261098e+02,1.188514e+02,1.098062e+02
5.897260e-01,1.350762e+02,2.311140e+02,1.210471e+02,1.260189e+02,1.161012e+02,1.101913e+02
5.953425e-01,1.368404e+02,2.317789e+02,1.205942e+02,1.261396e+02,1.131851e+02,1.101009e+02
6.009589e-01,1.399599e+02,2.319493e+02,1.201370e+02,1.263886e+02,1.132362e+02,1.093583e+02
6.065753e-01,1.433531e+02,2.318219e+02,1.201024e+02,1.266003e+02,1.157814e+02,1.080777e+02
6.121918e-01,1.460113e+02,2.316060e+02,1.200927e+02,1.268605e+02,1.181744e+02,1.058465e+02
6.158686e-01,1.470861e+02,2.314893e+02,1.200965e+02,1.270506e+02,1.194375e+02,1.038359e+02
6.234247e-01,1.479969e+02,2.311866e+02,1.203559e+02,1.272686e+02,1.211271e+02,9.837186e+01
6.271015e-01,1.480734e+02,2.311398e+02,1.205126e+02,1.273652e+02,1.216470e+02,9.667153e+01
6.346575e-01,1.462553e+02,2.309432e+02,1.206568e+02,1.274693e+02,1.222389e+02,1.006943e+02
6.383344e-01,1.450975e+02,2.307657e+02,1.207668e+02,1.274704e+02,1.223752e+02,1.030667e+02
6.422136e-01,1.458236e+02,2.304959e+02,1.209876e+02,1.274655e+02,1.224519e+02,1.050019e+02
6.495672e-01,1.449656e+02,2.295100e+02,1.211719e+02,1.274491e+02,1.225059e+02,1.073726e+02
6.534464e-01,1.454381e+02,2.291936e+02,1.212534e+02,1.274000e+02,1.224097e+02,1.082803e+02
6.608001e-01,1.451372e+02,2.279834e+02,1.212741e+02,1.273696e+02,1.221545e+02,1.092056e+02
6.646794e-01,1.459214e+02,2.273857e+02,1.213167e+02,1.273716e+02,1.219907e+02,1.095473e+02
6.720330e-01,1.455817e+02,2.264841e+02,1.212590e+02,1.273169e+02,1.216083e+02,1.096746e+02
6.759122e-01,1.475597e+02,2.259273e+02,1.213652e+02,1.272985e+02,1.214300e+02,1.095269e+02
6.832659e-01,1.468723e+02,2.256700e+02,1.213424e+02,1.273450e+02,1.212555e+02,1.088902e+02
6.871451e-01,1.464699e+02,2.251722e+02,1.213095e+02,1.274125e+02,1.211104e+02,1.082776e+02
6.944987e-01,1.458990e+02,2.243253e+02,1.211536e+02,1.273620e+02,1.209850e+02,1.070078e+02
6.983780e-01,1.447178e+02,2.239419e+02,1.210514e+02,1.273851e+02,1.209911e+02,1.060149e+02
7.020548e-01,1.436191e+02,2.235913e+02,1.209791e+02,1.273829e+02,1.209321e+02,1.048690e+02
7.096109e-01,1.439280e+02,2.226979e+02,1.209102e+02,1.272287e+02,1.208693e+02,1.018344e+02
7.132877e-01,1.440565e+02,2.221927e+02,1.208319e+02,1.272816e+02,1.209708e+02,1.001336e+02
7.208437e-01,1.430326e+02,2.214396e+02,1.208438e+02,1.274575e+02,1.212121e+02,9.796093e+01
7.245205e-01,1.422603e+02,2.211599e+02,1.208541e+02,1.273658e+02,1.211938e+02,9.816782e+01
7.301370e-01,1.434290e+02,2.207459e+02,1.207271e+02,1.272287e+02,1.211494e+02,9.966077e+01
7.357534e-01,1.453159e+02,2.203498e+02,1.205810e+02,1.272750e+02,1.211387e+02,1.016817e+02
7.413699e-01,1.469517e+02,2.201093e+02,1.206441e+02,1.272649e+02,1.211619e+02,1.031971e+02
7.469863e-01,1.483168e+02,2.199543e+02,1.207253e+02,1.272456e+02,1.212005e+02,1.043585e+02
7.526027e-01,1.490809e+02,2.198627e+02,1.207203e+02,1.273569e+02,1.212304e+02,1.052396e+02
7.582192e-01,1.489130e+02,2.197666e+02,1.207554e+02,1.273947e+02,1.212471e+02,1.056675e+02
7.638357e-01,1.485681e+02,2.197054e+02,1.208317e+02,1.273690e+02,1.212263e+02,1.059150e+02
7.694520e-01,1.474578e+02,2.196885e+02,1.208618e+02,1.273910e+02,1.212010e+02,1.059015e+02
7.750684e-01,1.492715e+02,2.195568e+02,1.207034e+02,1.272648e+02,1.211239e+02,1.057241e+02
7.806849e-01,1.482016e+02,2.194986e+02,1.207215e+02,1.272740e+02,1.212205e+02,1.055565e+02
7.863014e-01,1.470180e+02,2.195744e+02,1.208328e+02,1.273713e+02,1.213298e+02,1.051645e+02
7.919178e-01,1.454683e+02,2.196517e+02,1.209070e+02,1.273510e+02,1.212890e+02,1.047435e+02
7.955946e-01,1.435276e+02,2.195955e+02,1.208521e+02,1.272664e+02,1.212337e+02,1.044875e+02
8.031507e-01,1.340531e+02,2.193679e+02,1.209246e+02,1.272213e+02,1.210811e+02,1.039125e+02
8.068275e-01,1.364113e+02,2.192970e+02,1.210659e+02,1.272190e+02,1.210423e+02,1.037871e+02
8.125449e-01,1.518764e+02,2.192301e+02,1.213354e+02,1.271774e+02,1.209993e+02,1.036769e+02
