x(m),SPL1,SPL2,SPL3,SPL4,SPL5,SPL6
0.000000e+00,1.299720e+02,1.301950e+02,1.300940e+02,1.300850e+02,1.299970e+02,1.299940e+02
5.616441e-03,1.301286e+02,1.299213e+02,1.297512e+02,1.300785e+02,1.295930e+02,1.301638e+02
1.123288e-02,1.302400e+02,1.295234e+02,1.294460e+02,1.300839e+02,1.293625e+02,1.304586e+02
1.684933e-02,1.303343e+02,1.291303e+02,1.293796e+02,1.301443e+02,1.293718e+02,1.307117e+02
2.246578e-02,1.304747e+02,1.286205e+02,1.293149e+02,1.301018e+02,1.295378e+02,1.307838e+02
2.808220e-02,1.306115e+02,1.279311e+02,1.294324e+02,1.300601e+02,1.298441e+02,1.307145e+02
3.369861e-02,1.306243e+02,1.272833e+02,1.295799e+02,1.299364e+02,1.301807e+02,1.304574e+02
3.931508e-02,1.307036e+02,1.263955e+02,1.298611e+02,1.299051e+02,1.304750e+02,1.301438e+02
4.299193e-02,1.307705e+02,1.257087e+02,1.300910e+02,1.298357e+02,1.305970e+02,1.299575e+02
5.054795e-02,1.308691e+02,1.242989e+02,1.304543e+02,1.297203e+02,1.306518e+02,1.297513e+02
5.422475e-02,1.308739e+02,1.235636e+02,1.306337e+02,1.296987e+02,1.305805e+02,1.298031e+02
6.178083e-02,1.308303e+02,1.220519e+02,1.309751e+02,1.296888e+02,1.302528e+02,1.301309e+02
6.545768e-02,1.308290e+02,1.215370e+02,1.310821e+02,1.297214e+02,1.300448e+02,1.303566e+02
6.933691e-02,1.308334e+02,1.212620e+02,1.311824e+02,1.297572e+02,1.298020e+02,1.305696e+02
7.669050e-02,1.307560e+02,1.216312e+02,1.312606e+02,1.298914e+02,1.294528e+02,1.308306e+02
8.056973e-02,1.307007e+02,1.221747e+02,1.312349e+02,1.299353e+02,1.293651e+02,1.308548e+02
8.792342e-02,1.305986e+02,1.235410e+02,1.311162e+02,1.300500e+02,1.294911e+02,1.307041e+02
9.180265e-02,1.305557e+02,1.243250e+02,1.309936e+02,1.301006e+02,1.296620e+02,1.305437e+02
9.915627e-02,1.304214e+02,1.256702e+02,1.306908e+02,1.301462e+02,1.300869e+02,1.302311e+02
1.030355e-01,1.303021e+02,1.263018e+02,1.304932e+02,1.301261e+02,1.302899e+02,1.301030e+02
1.103891e-01,1.301273e+02,1.274811e+02,1.301110e+02,1.300860e+02,1.305666e+02,1.300941e+02
1.142684e-01,1.300559e+02,1.279972e+02,1.299199e+02,1.300155e+02,1.306145e+02,1.301940e+02
1.216220e-01,1.297885e+02,1.288025e+02,1.295329e+02,1.299041e+02,1.305016e+02,1.304602e+02
1.255013e-01,1.295854e+02,1.291486e+02,1.294037e+02,1.298337e+02,1.303343e+02,1.305621e+02
1.328549e-01,1.293009e+02,1.296596e+02,1.293416e+02,1.297497e+02,1.299018e+02,1.305670e+02
1.367341e-01,1.291821e+02,1.298870e+02,1.293460e+02,1.296829e+02,1.296518e+02,1.304329e+02
1.404110e-01,1.290682e+02,1.300739e+02,1.294055e+02,1.296741e+02,1.294708e+02,1.302252e+02
1.479670e-01,1.287347e+02,1.303029e+02,1.297037e+02,1.297086e+02,1.293109e+02,1.295732e+02
1.516438e-01,1.285198e+02,1.303623e+02,1.298729e+02,1.297424e+02,1.293728e+02,1.292230e+02
1.591999e-01,1.281308e+02,1.303795e+02,1.302944e+02,1.298615e+02,1.298150e+02,1.287741e+02
1.628767e-01,1.279671e+02,1.303290e+02,1.305138e+02,1.299447e+02,1.301260e+02,1.288085e+02
1.684932e-01,1.277291e+02,1.302106e+02,1.308104e+02,1.300747e+02,1.305941e+02,1.292388e+02
1.741096e-01,1.274414e+02,1.300233e+02,1.310392e+02,1.301487e+02,1.310151e+02,1.299806e+02
1.797260e-01,1.271275e+02,1.297507e+02,1.312411e+02,1.302456e+02,1.313361e+02,1.308221e+02
1.853425e-01,1.268708e+02,1.294252e+02,1.313888e+02,1.302805e+02,1.314895e+02,1.315740e+02
1.909589e-01,1.266260e+02,1.290113e+02,1.314912e+02,1.302753e+02,1.314720e+02,1.321596e+02
1.965753e-01,1.263283e+02,1.286152e+02,1.315619e+02,1.302947e+02,1.313723e+02,1.325911e+02
2.021917e-01,1.261509e+02,1.281425e+02,1.315624e+02,1.302201e+02,1.310900e+02,1.328417e+02
2.078082e-01,1.260686e+02,1.275743e+02,1.315171e+02,1.301476e+02,1.307141e+02,1.329399e+02
2.134247e-01,1.258742e+02,1.270152e+02,1.314687e+02,1.300395e+02,1.302128e+02,1.328991e+02
2.190411e-01,1.256518e+02,1.264357e+02,1.314405e+02,1.299451e+02,1.296663e+02,1.328097e+02
2.246575e-01,1.255422e+02,1.258697e+02,1.313681e+02,1.298063e+02,1.290479e+02,1.326327e+02
2.302740e-01,1.255272e+02,1.252739e+02,1.312877e+02,1.296730e+02,1.284175e+02,1.324283e+02
2.339508e-01,1.254257e+02,1.248678e+02,1.312422e+02,1.296031e+02,1.280085e+02,1.322870e+02
2.415068e-01,1.250557e+02,1.240518e+02,1.311870e+02,1.294490e+02,1.271732e+02,1.319739e+02
2.451837e-01,1.249621e+02,1.236890e+02,1.311509e+02,1.293736e+02,1.267891e+02,1.318223e+02
2.527397e-01,1.249611e+02,1.228653e+02,1.310262e+02,1.292440e+02,1.261025e+02,1.315060e+02
2.564165e-01,1.248942e+02,1.224774e+02,1.309744e+02,1.292121e+02,1.258289e+02,1.313477e+02
2.602958e-01,1.247062e+02,1.221035e+02,1.309152e+02,1.291732e+02,1.255727e+02,1.311629e+02
2.676494e-01,1.245265e+02,1.213156e+02,1.308322e+02,1.291151e+02,1.251968e+02,1.308036e+02
2.715287e-01,1.245521e+02,1.209284e+02,1.307619e+02,1.290841e+02,1.250372e+02,1.305981e+02
2.788823e-01,1.244086e+02,1.201962e+02,1.306100e+02,1.290625e+02,1.248243e+02,1.301828e+02
2.827615e-01,1.242375e+02,1.198018e+02,1.305057e+02,1.290393e+02,1.247485e+02,1.299520e+02
2.901152e-01,1.240898e+02,1.190606e+02,1.303411e+02,1.289899e+02,1.246365e+02,1.295376e+02
2.939944e-01,1.240481e+02,1.186614e+02,1.302345e+02,1.289556e+02,1.245760e+02,1.293325e+02
3.013480e-01,1.238474e+02,1.179995e+02,1.300230e+02,1.288698e+02,1.244589e+02,1.289849e+02
3.052273e-01,1.237659e+02,1.176089e+02,1.299095e+02,1.288028e+02,1.243952e+02,1.288198e+02
3.125809e-01,1.237266e+02,1.168813e+02,1.296873e+02,1.286857e+02,1.242470e+02,1.285405e+02
3.164602e-01,1.237279e+02,1.165217e+02,1.295754e+02,1.286164e+02,1.241497e+02,1.283955e+02
3.201370e-01,1.237030e+02,1.161491e+02,1.294633e+02,1.285481e+02,1.240572e+02,1.282619e+02
3.276930e-01,1.236365e+02,1.154119e+02,1.292566e+02,1.284093e+02,1.238281e+02,1.279331e+02
3.313698e-01,1.236236e+02,1.150774e+02,1.291627e+02,1.283609e+02,1.237148e+02,1.277562e+02
3.389259e-01,1.236952e+02,1.143029e+02,1.290146e+02,1.282617e+02,1.234641e+02,1.273226e+02
3.426027e-01,1.237140e+02,1.139660e+02,1.289504e+02,1.282276e+02,1.233286e+02,1.270932e+02
3.501588e-01,1.237020e+02,1.132908e+02,1.288703e+02,1.281940e+02,1.230618e+02,1.266169e+02
3.538356e-01,1.236803e+02,1.129007e+02,1.288211e+02,1.281738e+02,1.229306e+02,1.263979e+02
3.594520e-01,1.236625e+02,1.123240e+02,1.287524e+02,1.281345e+02,1.227074e+02,1.260733e+02
3.650685e-01,1.237022e+02,1.118097e+02,1.287863e+02,1.281595e+02,1.225215e+02,1.258590e+02
3.706849e-01,1.238038e+02,1.113481e+02,1.287682e+02,1.281176e+02,1.222957e+02,1.256674e+02
3.763014e-01,1.238820e+02,1.107694e+02,1.287348e+02,1.280723e+02,1.220631e+02,1.255157e+02
3.819178e-01,1.238579e+02,1.102065e+02,1.287217e+02,1.280120e+02,1.218145e+02,1.253512e+02
3.875342e-01,1.238549e+02,1.096790e+02,1.287097e+02,1.279478e+02,1.215958e+02,1.251813e+02
3.931507e-01,1.238976e+02,1.091202e+02,1.286914e+02,1.278343e+02,1.213518e+02,1.249295e+02
3.987671e-01,1.239541e+02,1.086074e+02,1.285989e+02,1.277086e+02,1.211398e+02,1.246189e+02
4.043835e-01,1.239452e+02,1.080830e+02,1.285116e+02,1.276160e+02,1.209475e+02,1.242285e+02
4.100000e-01,1.238560e+02,1.075540e+02,1.283902e+02,1.274815e+02,1.207463e+02,1.237926e+02
4.156165e-01,1.237843e+02,1.070257e+02,1.282418e+02,1.273859e+02,1.205566e+02,1.233682e+02
4.212329e-01,1.237069e+02,1.064399e+02,1.281045e+02,1.273161e+02,1.204243e+02,1.230312e+02
4.249097e-01,1.236504e+02,1.061133e+02,1.279769e+02,1.272977e+02,1.203096e+02,1.228524e+02
4.324658e-01,1.234864e+02,1.054653e+02,1.276728e+02,1.272379e+02,1.200375e+02,1.226161e+02
4.361426e-01,1.233864e+02,1.050974e+02,1.275216e+02,1.272432e+02,1.199021e+02,1.225680e+02
4.436986e-01,1.231710e+02,1.044161e+02,1.272144e+02,1.272428e+02,1.195707e+02,1.224949e+02
4.473755e-01,1.230672e+02,1.040784e+02,1.270757e+02,1.272578e+02,1.194128e+02,1.224515e+02
4.512547e-01,1.229309e+02,1.036614e+02,1.269209e+02,1.272448e+02,1.192283e+02,1.223432e+02
4.586083e-01,1.226213e+02,1.030436e+02,1.266528e+02,1.272225e+02,1.189441e+02,1.220083e+02
4.624876e-01,1.224527e+02,1.026849e+02,1.265370e+02,1.271776e+02,1.188094e+02,1.217503e+02
4.698412e-01,1.221100e+02,1.019634e+02,1.263309e+02,1.270753e+02,1.186226e+02,1.211142e+02
4.737205e-01,1.218610e+02,1.016058e+02,1.262849e+02,1.269986e+02,1.185386e+02,1.207226e+02
4.810741e-01,1.213621e+02,1.009144e+02,1.262776e+02,1.268450e+02,1.183931e+02,1.200213e+02
4.849533e-01,1.211397e+02,1.005657e+02,1.262629e+02,1.267243e+02,1.182852e+02,1.197322e+02
4.923070e-01,1.207906e+02,9.986905e+01,1.262897e+02,1.265675e+02,1.180430e+02,1.194585e+02
4.961862e-01,1.206095e+02,9.951331e+01,1.263479e+02,1.264785e+02,1.178458e+02,1.194523e+02
5.035398e-01,1.201435e+02,9.872505e+01,1.264397e+02,1.263576e+02,1.173740e+02,1.195944e+02
5.074191e-01,1.198985e+02,9.828613e+01,1.265042e+02,1.263058e+02,1.170859e+02,1.196557e+02
5.110959e-01,1.197375e+02,9.792738e+01,1.265541e+02,1.262990e+02,1.168340e+02,1.196809e+02
5.186520e-01,1.196054e+02,9.713595e+01,1.266131e+02,1.263040e+02,1.163814e+02,1.195267e+02
5.223288e-01,1.195699e+02,9.671139e+01,1.266027e+02,1.263086e+02,1.162549e+02,1.193215e+02
5.298848e-01,1.194900e+02,9.585176e+01,1.265806e+02,1.263642e+02,1.162600e+02,1.186065e+02
5.335617e-01,1.194869e+02,9.536746e+01,1.265363e+02,1.263691e+02,1.163534e+02,1.181325e+02
5.411177e-01,1.196593e+02,9.424419e+01,1.263915e+02,1.263685e+02,1.166353e+02,1.170390e+02
5.447945e-01,1.197528e+02,9.382116e+01,1.262949e+02,1.263599e+02,1.167580e+02,1.165396e+02
5.504109e-01,1.199846e+02,9.314715e+01,1.260829e+02,1.262662e+02,1.168173e+02,1.160393e+02
5.560274e-01,1.203198e+02,9.222194e+01,1.258103e+02,1.261605e+02,1.167230e+02,1.159617e+02
5.616439e-01,1.206713e+02,9.150559e+01,1.255236e+02,1.260125e+02,1.163801e+02,1.162541e+02
5.672603e-01,1.209622e+02,9.061126e+01,1.252177e+02,1.258543e+02,1.157803e+02,1.167645e+02
5.728767e-01,1.212658e+02,8.982426e+01,1.248554e+02,1.256538e+02,1.149108e+02,1.171913e+02
5.784932e-01,1.216090e+02,8.916699e+01,1.244595e+02,1.254755e+02,1.138234e+02,1.174316e+02
5.841096e-01,1.218958e+02,8.859880e+01,1.241223e+02,1.253244e+02,1.126080e+02,1.174088e+02
5.897260e-01,1.220888e+02,8.819269e+01,1.237653e+02,1.251967e+02,1.115528e+02,1.170839e+02
5.953425e-01,1.222590e+02,8.795619e+01,1.234783e+02,1.251278e+02,1.110516e+02,1.164415e+02
6.009589e-01,1.224524e+02,8.788358e+01,1.231835e+02,1.250943e+02,1.112943e+02,1.154708e+02
6.065753e-01,1.225923e+02,8.796792e+01,1.230095e+02,1.250997e+02,1.120595e+02,1.141429e+02
6.121918e-01,1.227017e+02,8.817252e+01,1.228960e+02,1.251301e+02,1.129729e+02,1.124555e+02
6.158686e-01,1.227845e+02,8.834768e+01,1.228453e+02,1.251578e+02,1.135188e+02,1.111647e+02
6.234247e-01,1.229345e+02,8.865563e+01,1.227713e+02,1.252318e+02,1.144356e+02,1.082952e+02
6.271015e-01,1.229776e+02,8.880755e+01,1.227703e+02,1.252680e+02,1.147717e+02,1.071241e+02
6.346575e-01,1.230046e+02,8.897291e+01,1.227935e+02,1.253207e+02,1.152520e+02,1.065226e+02
6.383344e-01,1.230170e+02,8.904544e+01,1.228128e+02,1.253471e+02,1.154046e+02,1.071488e+02
6.422136e-01,1.230227e+02,8.912473e+01,1.228192e+02,1.253664e+02,1.155120e+02,1.080610e+02
6.495672e-01,1.229923e+02,8.922426e+01,1.228609e+02,1.253991e+02,1.156041e+02,1.097626e+02
6.534464e-01,1.229898e+02,8.919980e+01,1.228639e+02,1.254066e+02,1.156097e+02,1.104962e+02
6.608001e-01,1.230127e+02,8.933602e+01,1.229004e+02,1.254327e+02,1.155634e+02,1.115256e+02
6.646794e-01,1.230252e+02,8.934725e+01,1.229110e+02,1.254339e+02,1.155199e+02,1.119027e+02
6.720330e-01,1.230464e+02,8.934401e+01,1.229273e+02,1.254440e+02,1.154411e+02,1.123638e+02
6.759122e-01,1.230572e+02,8.936703e+01,1.229279e+02,1.254352e+02,1.153852e+02,1.124832e+02
6.832659e-01,1.230601e+02,8.937873e+01,1.229368e+02,1.254508e+02,1.153210e+02,1.125563e+02
6.871451e-01,1.230611e+02,8.942518e+01,1.229411e+02,1.254452e+02,1.152784e+02,1.125083e+02
6.944987e-01,1.230409e+02,8.941039e+01,1.229330e+02,1.254406e+02,1.152282e+02,1.123353e+02
6.983780e-01,1.230413e+02,8.938184e+01,1.229459e+02,1.254410e+02,1.152133e+02,1.122111e+02
7.020548e-01,1.230241e+02,8.939649e+01,1.229307e+02,1.254308e+02,1.151998e+02,1.120838e+02
7.096109e-01,1.229499e+02,8.942050e+01,1.229303e+02,1.254266e+02,1.151903e+02,1.118122e+02
7.132877e-01,1.229457e+02,8.940133e+01,1.229599e+02,1.254340e+02,1.151948e+02,1.116975e+02
7.208437e-01,1.230418e+02,8.936648e+01,1.229498e+02,1.254238e+02,1.151883e+02,1.114947e+02
7.245205e-01,1.230769e+02,8.946611e+01,1.229310e+02,1.254146e+02,1.151842e+02,1.114134e+02
7.301370e-01,1.230507e+02,8.945905e+01,1.229473e+02,1.254299e+02,1.151900e+02,1.113500e+02
7.357534e-01,1.229988e+02,8.936187e+01,1.229519e+02,1.254309e+02,1.151956e+02,1.113209e+02
7.413699e-01,1.230153e+02,8.937289e+01,1.229795e+02,1.254298e+02,1.151937e+02,1.113212e+02
7.469863e-01,1.230506e+02,8.933842e+01,1.229473e+02,1.254193e+02,1.151970e+02,1.113532e+02
7.526027e-01,1.230354e+02,8.936470e+01,1.229566e+02,1.254281e+02,1.152100e+02,1.113991e+02
7.582192e-01,1.229866e+02,8.946485e+01,1.229488e+02,1.254305e+02,1.152052e+02,1.114492e+02
7.638357e-01,1.229909e+02,8.944896e+01,1.229716e+02,1.254406e+02,1.152151e+02,1.115031e+02
7.694520e-01,1.230293e+02,8.941599e+01,1.229597e+02,1.254271e+02,1.152142e+02,1.115490e+02
7.750684e-01,1.229756e+02,8.945876e+01,1.229323e+02,1.254107e+02,1.152075e+02,1.115618e+02
7.806849e-01,1.230131e+02,8.942846e+01,1.229479e+02,1.254329e+02,1.152239e+02,1.116077e+02
7.863014e-01,1.230599e+02,8.949038e+01,1.229663e+02,1.254182e+02,1.152235e+02,1.116043e+02
7.919178e-01,1.230667e+02,8.956989e+01,1.229354e+02,1.254132e+02,1.152054e+02,1.116079e+02
7.955946e-01,1.230278e+02,8.965138e+01,1.229278e+02,1.254139e+02,1.152065e+02,1.116070e+02
8.031507e-01,1.229604e+02,8.961670e+01,1.229200e+02,1.254151e+02,1.151946e+02,1.115662e+02
8.068275e-01,1.229667e+02,8.955814e+01,1.229292e+02,1.254024e+02,1.151785e+02,1.115361e+02
8.125449e-01,1.229965e+02,8.954147e+01,1.229140e+02,1.253594e+02,1.151378e+02,1.114897e+02
