x(m),SPL1,SPL2,SPL3,SPL4,SPL5,SPL6
0.000000e+00,1.299670e+02,1.300390e+02,1.299670e+02,1.300380e+02,1.299140e+02,1.297760e+02
0.000000e+00,1.299670e+02,1.300390e+02,1.299670e+02,1.300380e+02,1.299140e+02,1.297760e+02
1.743403e-02,1.304756e+02,1.283208e+02,1.299621e+02,1.301149e+02,1.304833e+02,1.297206e+02
1.743403e-02,1.304756e+02,1.283208e+02,1.299621e+02,1.301149e+02,1.304833e+02,1.297206e+02
1.743403e-02,1.304756e+02,1.283208e+02,1.299621e+02,1.301149e+02,1.304833e+02,1.297206e+02
3.153846e-02,1.307496e+02,1.262651e+02,1.304310e+02,1.297685e+02,1.307531e+02,1.288797e+02
3.153846e-02,1.307496e+02,1.262651e+02,1.304310e+02,1.297685e+02,1.307531e+02,1.288797e+02
4.564289e-02,1.308992e+02,1.239898e+02,1.310369e+02,1.295369e+02,1.306526e+02,1.291639e+02
4.564289e-02,1.308992e+02,1.239898e+02,1.310369e+02,1.295369e+02,1.306526e+02,1.291639e+02
4.564289e-02,1.308992e+02,1.239898e+02,1.310369e+02,1.295369e+02,1.306526e+02,1.291639e+02
5.435990e-02,1.309272e+02,1.231451e+02,1.313099e+02,1.295250e+02,1.303224e+02,1.295972e+02
6.307692e-02,1.309057e+02,1.233454e+02,1.314339e+02,1.296055e+02,1.299467e+02,1.298227e+02
6.307692e-02,1.309057e+02,1.233454e+02,1.314339e+02,1.296055e+02,1.299467e+02,1.298227e+02
7.179394e-02,1.308378e+02,1.244463e+02,1.314444e+02,1.298298e+02,1.299851e+02,1.298755e+02
8.051095e-02,1.307209e+02,1.258930e+02,1.313152e+02,1.300771e+02,1.302674e+02,1.295658e+02
8.051095e-02,1.307209e+02,1.258930e+02,1.313152e+02,1.300771e+02,1.302674e+02,1.295658e+02
8.051095e-02,1.307209e+02,1.258930e+02,1.313152e+02,1.300771e+02,1.302674e+02,1.295658e+02
9.461538e-02,1.304300e+02,1.280236e+02,1.307997e+02,1.301469e+02,1.306266e+02,1.289311e+02
9.461538e-02,1.304300e+02,1.280236e+02,1.307997e+02,1.301469e+02,1.306266e+02,1.289311e+02
1.087198e-01,1.300181e+02,1.295909e+02,1.302010e+02,1.299865e+02,1.307421e+02,1.293868e+02
1.087198e-01,1.300181e+02,1.295909e+02,1.302010e+02,1.299865e+02,1.307421e+02,1.293868e+02
1.087198e-01,1.300181e+02,1.295909e+02,1.302010e+02,1.299865e+02,1.307421e+02,1.293868e+02
1.261538e-01,1.293562e+02,1.307269e+02,1.298275e+02,1.295188e+02,1.301297e+02,1.295220e+02
1.261538e-01,1.293562e+02,1.307269e+02,1.298275e+02,1.295188e+02,1.301297e+02,1.295220e+02
1.261538e-01,1.293562e+02,1.307269e+02,1.298275e+02,1.295188e+02,1.301297e+02,1.295220e+02
1.435879e-01,1.285729e+02,1.311257e+02,1.303525e+02,1.296092e+02,1.301735e+02,1.284994e+02
1.435879e-01,1.285729e+02,1.311257e+02,1.303525e+02,1.296092e+02,1.301735e+02,1.284994e+02
1.435879e-01,1.285729e+02,1.311257e+02,1.303525e+02,1.296092e+02,1.301735e+02,1.284994e+02
1.435879e-01,1.285729e+02,1.311257e+02,1.303525e+02,1.296092e+02,1.301735e+02,1.284994e+02
1.576923e-01,1.279037e+02,1.309026e+02,1.309824e+02,1.298811e+02,1.306682e+02,1.288233e+02
1.717967e-01,1.272765e+02,1.302634e+02,1.315396e+02,1.302514e+02,1.312755e+02,1.305745e+02
1.717967e-01,1.272765e+02,1.302634e+02,1.315396e+02,1.302514e+02,1.312755e+02,1.305745e+02
1.717967e-01,1.272765e+02,1.302634e+02,1.315396e+02,1.302514e+02,1.312755e+02,1.305745e+02
1.805137e-01,1.269528e+02,1.296138e+02,1.317160e+02,1.303317e+02,1.312427e+02,1.312086e+02
1.892308e-01,1.266725e+02,1.288636e+02,1.318161e+02,1.302938e+02,1.310017e+02,1.316698e+02
1.892308e-01,1.266725e+02,1.288636e+02,1.318161e+02,1.302938e+02,1.310017e+02,1.316698e+02
1.979478e-01,1.264688e+02,1.279402e+02,1.318208e+02,1.302303e+02,1.307261e+02,1.317228e+02
2.066648e-01,1.262952e+02,1.269624e+02,1.318074e+02,1.301274e+02,1.302749e+02,1.316930e+02
2.066648e-01,1.262952e+02,1.269624e+02,1.318074e+02,1.301274e+02,1.302749e+02,1.316930e+02
2.066648e-01,1.262952e+02,1.269624e+02,1.318074e+02,1.301274e+02,1.302749e+02,1.316930e+02
2.207692e-01,1.261339e+02,1.250580e+02,1.315433e+02,1.297241e+02,1.291912e+02,1.306049e+02
2.207692e-01,1.261339e+02,1.250580e+02,1.315433e+02,1.297241e+02,1.291912e+02,1.306049e+02
2.348736e-01,1.258969e+02,1.232254e+02,1.313596e+02,1.294751e+02,1.282927e+02,1.299899e+02
2.348736e-01,1.258969e+02,1.232254e+02,1.313596e+02,1.294751e+02,1.282927e+02,1.299899e+02
2.348736e-01,1.258969e+02,1.232254e+02,1.313596e+02,1.294751e+02,1.282927e+02,1.299899e+02
2.523077e-01,1.255668e+02,1.207573e+02,1.309383e+02,1.291466e+02,1.273521e+02,1.287396e+02
2.523077e-01,1.255668e+02,1.207573e+02,1.309383e+02,1.291466e+02,1.273521e+02,1.287396e+02
2.523077e-01,1.255668e+02,1.207573e+02,1.309383e+02,1.291466e+02,1.273521e+02,1.287396e+02
2.610247e-01,1.253940e+02,1.194023e+02,1.306626e+02,1.290600e+02,1.269990e+02,1.276231e+02
2.697417e-01,1.251084e+02,1.182090e+02,1.304602e+02,1.289848e+02,1.266269e+02,1.268137e+02
2.697417e-01,1.251084e+02,1.182090e+02,1.304602e+02,1.289848e+02,1.266269e+02,1.268137e+02
2.697417e-01,1.251084e+02,1.182090e+02,1.304602e+02,1.289848e+02,1.266269e+02,1.268137e+02
2.838461e-01,1.246816e+02,1.160223e+02,1.299279e+02,1.286610e+02,1.261048e+02,1.251046e+02
2.979506e-01,1.240853e+02,1.140754e+02,1.295476e+02,1.283678e+02,1.255551e+02,1.239542e+02
2.979506e-01,1.240853e+02,1.140754e+02,1.295476e+02,1.283678e+02,1.255551e+02,1.239542e+02
2.979506e-01,1.240853e+02,1.140754e+02,1.295476e+02,1.283678e+02,1.255551e+02,1.239542e+02
3.066676e-01,1.237780e+02,1.127153e+02,1.292286e+02,1.281108e+02,1.251464e+02,1.227336e+02
3.153846e-01,1.234109e+02,1.115297e+02,1.290302e+02,1.278883e+02,1.246624e+02,1.216831e+02
3.153846e-01,1.234109e+02,1.115297e+02,1.290302e+02,1.278883e+02,1.246624e+02,1.216831e+02
3.153846e-01,1.234109e+02,1.115297e+02,1.290302e+02,1.278883e+02,1.246624e+02,1.216831e+02
3.328186e-01,1.228985e+02,1.089403e+02,1.286837e+02,1.277281e+02,1.243675e+02,1.202208e+02
3.328186e-01,1.228985e+02,1.089403e+02,1.286837e+02,1.277281e+02,1.243675e+02,1.202208e+02
3.328186e-01,1.228985e+02,1.089403e+02,1.286837e+02,1.277281e+02,1.243675e+02,1.202208e+02
3.469231e-01,1.227314e+02,1.067429e+02,1.283919e+02,1.275335e+02,1.238545e+02,1.185170e+02
3.469231e-01,1.227314e+02,1.067429e+02,1.283919e+02,1.275335e+02,1.238545e+02,1.185170e+02
3.610275e-01,1.226496e+02,1.047927e+02,1.282783e+02,1.273974e+02,1.232585e+02,1.173351e+02
3.610275e-01,1.226496e+02,1.047927e+02,1.282783e+02,1.273974e+02,1.232585e+02,1.173351e+02
3.610275e-01,1.226496e+02,1.047927e+02,1.282783e+02,1.273974e+02,1.232585e+02,1.173351e+02
3.697445e-01,1.227415e+02,1.034321e+02,1.280889e+02,1.271871e+02,1.227782e+02,1.161583e+02
3.784615e-01,1.227859e+02,1.022396e+02,1.279627e+02,1.269685e+02,1.225107e+02,1.158777e+02
3.784615e-01,1.227859e+02,1.022396e+02,1.279627e+02,1.269685e+02,1.225107e+02,1.158777e+02
3.871785e-01,1.229192e+02,1.008613e+02,1.277208e+02,1.267579e+02,1.222259e+02,1.146928e+02
3.958956e-01,1.229598e+02,9.965840e+01,1.275259e+02,1.265724e+02,1.219496e+02,1.137163e+02
3.958956e-01,1.229598e+02,9.965840e+01,1.275259e+02,1.265724e+02,1.219496e+02,1.137163e+02
3.958956e-01,1.229598e+02,9.965840e+01,1.275259e+02,1.265724e+02,1.219496e+02,1.137163e+02
4.100000e-01,1.230540e+02,9.746339e+01,1.269452e+02,1.262185e+02,1.215076e+02,1.120870e+02
4.241044e-01,1.228892e+02,9.551810e+01,1.264402e+02,1.261114e+02,1.209078e+02,1.110357e+02
4.241044e-01,1.228892e+02,9.551810e+01,1.264402e+02,1.261114e+02,1.209078e+02,1.110357e+02
4.241044e-01,1.228892e+02,9.551810e+01,1.264402e+02,1.261114e+02,1.209078e+02,1.110357e+02
4.241044e-01,1.228892e+02,9.551810e+01,1.264402e+02,1.261114e+02,1.209078e+02,1.110357e+02
4.415385e-01,1.224832e+02,9.298137e+01,1.257273e+02,1.259227e+02,1.197581e+02,1.089317e+02
4.415385e-01,1.224832e+02,9.298137e+01,1.257273e+02,1.259227e+02,1.197581e+02,1.089317e+02
4.415385e-01,1.224832e+02,9.298137e+01,1.257273e+02,1.259227e+02,1.197581e+02,1.089317e+02
4.589725e-01,1.217715e+02,9.039818e+01,1.252751e+02,1.257279e+02,1.194926e+02,1.074031e+02
4.589725e-01,1.217715e+02,9.039818e+01,1.252751e+02,1.257279e+02,1.194926e+02,1.074031e+02
4.589725e-01,1.217715e+02,9.039818e+01,1.252751e+02,1.257279e+02,1.194926e+02,1.074031e+02
4.730769e-01,1.210288e+02,8.820030e+01,1.250382e+02,1.252598e+02,1.191824e+02,1.057578e+02
4.730769e-01,1.210288e+02,8.820030e+01,1.250382e+02,1.252598e+02,1.191824e+02,1.057578e+02
4.871814e-01,1.200623e+02,8.623039e+01,1.250914e+02,1.248698e+02,1.186103e+02,1.050829e+02
4.871814e-01,1.200623e+02,8.623039e+01,1.250914e+02,1.248698e+02,1.186103e+02,1.050829e+02
4.871814e-01,1.200623e+02,8.623039e+01,1.250914e+02,1.248698e+02,1.186103e+02,1.050829e+02
4.958984e-01,1.195405e+02,8.482794e+01,1.250342e+02,1.246549e+02,1.180712e+02,1.043718e+02
5.046154e-01,1.190112e+02,8.360176e+01,1.250328e+02,1.245151e+02,1.175618e+02,1.040113e+02
5.046154e-01,1.190112e+02,8.360176e+01,1.250328e+02,1.245151e+02,1.175618e+02,1.040113e+02
5.133324e-01,1.186964e+02,8.215279e+01,1.249012e+02,1.245150e+02,1.171879e+02,1.025006e+02
5.220494e-01,1.184921e+02,8.084664e+01,1.247839e+02,1.245643e+02,1.170448e+02,1.008239e+02
5.220494e-01,1.184921e+02,8.084664e+01,1.247839e+02,1.245643e+02,1.170448e+02,1.008239e+02
5.220494e-01,1.184921e+02,8.084664e+01,1.247839e+02,1.245643e+02,1.170448e+02,1.008239e+02
5.361539e-01,1.186921e+02,7.841403e+01,1.242246e+02,1.244162e+02,1.170168e+02,9.872043e+01
5.361539e-01,1.186921e+02,7.841403e+01,1.242246e+02,1.244162e+02,1.170168e+02,9.872043e+01
5.502583e-01,1.191564e+02,7.615676e+01,1.235800e+02,1.241405e+02,1.165742e+02,9.929872e+01
5.502583e-01,1.191564e+02,7.615676e+01,1.235800e+02,1.241405e+02,1.165742e+02,9.929872e+01
5.502583e-01,1.191564e+02,7.615676e+01,1.235800e+02,1.241405e+02,1.165742e+02,9.929872e+01
5.676923e-01,1.199256e+02,7.332587e+01,1.224468e+02,1.233787e+02,1.144944e+02,9.897560e+01
5.676923e-01,1.199256e+02,7.332587e+01,1.224468e+02,1.233787e+02,1.144944e+02,9.897560e+01
5.676923e-01,1.199256e+02,7.332587e+01,1.224468e+02,1.233787e+02,1.144944e+02,9.897560e+01
5.851264e-01,1.205507e+02,7.109256e+01,1.214259e+02,1.228534e+02,1.131253e+02,9.610783e+01
5.851264e-01,1.205507e+02,7.109256e+01,1.214259e+02,1.228534e+02,1.131253e+02,9.610783e+01
5.851264e-01,1.205507e+02,7.109256e+01,1.214259e+02,1.228534e+02,1.131253e+02,9.610783e+01
5.851264e-01,1.205507e+02,7.109256e+01,1.214259e+02,1.228534e+02,1.131253e+02,9.610783e+01
5.992308e-01,1.208954e+02,7.013010e+01,1.208391e+02,1.225893e+02,1.135027e+02,8.959917e+01
6.133352e-01,1.210424e+02,6.983107e+01,1.206159e+02,1.225733e+02,1.142995e+02,8.321719e+01
6.133352e-01,1.210424e+02,6.983107e+01,1.206159e+02,1.225733e+02,1.142995e+02,8.321719e+01
6.133352e-01,1.210424e+02,6.983107e+01,1.206159e+02,1.225733e+02,1.142995e+02,8.321719e+01
6.220522e-01,1.211119e+02,6.979460e+01,1.205575e+02,1.226089e+02,1.147371e+02,8.805478e+01
6.307692e-01,1.211383e+02,6.978942e+01,1.205055e+02,1.225606e+02,1.148747e+02,9.037584e+01
6.307692e-01,1.211383e+02,6.978942e+01,1.205055e+02,1.225606e+02,1.148747e+02,9.037584e+01
6.394863e-01,1.211632e+02,6.982583e+01,1.205420e+02,1.226628e+02,1.150876e+02,9.228244e+01
6.482033e-01,1.211738e+02,6.984570e+01,1.205715e+02,1.227413e+02,1.152358e+02,9.333751e+01
6.482033e-01,1.211738e+02,6.984570e+01,1.205715e+02,1.227413e+02,1.152358e+02,9.333751e+01
6.482033e-01,1.211738e+02,6.984570e+01,1.205715e+02,1.227413e+02,1.152358e+02,9.333751e+01
6.623077e-01,1.211854e+02,6.987462e+01,1.205748e+02,1.227180e+02,1.150983e+02,9.331820e+01
6.623077e-01,1.211854e+02,6.987462e+01,1.205748e+02,1.227180e+02,1.150983e+02,9.331820e+01
6.764121e-01,1.211894e+02,6.988645e+01,1.205883e+02,1.227428e+02,1.151068e+02,9.320646e+01
6.764121e-01,1.211894e+02,6.988645e+01,1.205883e+02,1.227428e+02,1.151068e+02,9.320646e+01
6.764121e-01,1.211894e+02,6.988645e+01,1.205883e+02,1.227428e+02,1.151068e+02,9.320646e+01
6.938462e-01,1.211916e+02,6.989281e+01,1.205685e+02,1.226779e+02,1.149488e+02,9.240142e+01
6.938462e-01,1.211916e+02,6.989281e+01,1.205685e+02,1.226779e+02,1.149488e+02,9.240142e+01
6.938462e-01,1.211916e+02,6.989281e+01,1.205685e+02,1.226779e+02,1.149488e+02,9.240142e+01
7.025632e-01,1.211925e+02,6.990058e+01,1.205920e+02,1.227381e+02,1.150418e+02,9.228732e+01
7.112802e-01,1.211928e+02,6.990513e+01,1.206043e+02,1.227705e+02,1.150998e+02,9.222948e+01
7.112802e-01,1.211928e+02,6.990513e+01,1.206043e+02,1.227705e+02,1.150998e+02,9.222948e+01
7.112802e-01,1.211928e+02,6.990513e+01,1.206043e+02,1.227705e+02,1.150998e+02,9.222948e+01
7.253846e-01,1.211921e+02,6.990418e+01,1.205871e+02,1.227225e+02,1.149923e+02,9.202732e+01
7.394890e-01,1.211911e+02,6.990744e+01,1.205935e+02,1.227413e+02,1.150378e+02,9.218454e+01
7.394890e-01,1.211911e+02,6.990744e+01,1.205935e+02,1.227413e+02,1.150378e+02,9.218454e+01
7.394890e-01,1.211911e+02,6.990744e+01,1.205935e+02,1.227413e+02,1.150378e+02,9.218454e+01
7.482061e-01,1.211901e+02,6.990648e+01,1.205903e+02,1.227314e+02,1.150176e+02,9.222574e+01
7.569231e-01,1.211878e+02,6.989542e+01,1.205521e+02,1.226530e+02,1.149514e+02,9.238564e+01
7.569231e-01,1.211878e+02,6.989542e+01,1.205521e+02,1.226530e+02,1.149514e+02,9.238564e+01
7.569231e-01,1.211878e+02,6.989542e+01,1.205521e+02,1.226530e+02,1.149514e+02,9.238564e+01
7.743571e-01,1.211875e+02,6.990894e+01,1.206071e+02,1.227704e+02,1.151041e+02,9.247609e+01
7.743571e-01,1.211875e+02,6.990894e+01,1.206071e+02,1.227704e+02,1.151041e+02,9.247609e+01
7.743571e-01,1.211875e+02,6.990894e+01,1.206071e+02,1.227704e+02,1.151041e+02,9.247609e+01
7.884615e-01,1.211852e+02,6.990225e+01,1.205915e+02,1.227207e+02,1.149973e+02,9.226490e+01
7.884615e-01,1.211852e+02,6.990225e+01,1.205915e+02,1.227207e+02,1.149973e+02,9.226490e+01
8.025660e-01,1.211839e+02,6.990187e+01,1.205963e+02,1.227386e+02,1.150403e+02,9.233220e+01
8.025660e-01,1.211839e+02,6.990187e+01,1.205963e+02,1.227386e+02,1.150403e+02,9.233220e+01
8.025660e-01,1.211839e+02,6.990187e+01,1.205963e+02,1.227386e+02,1.150403e+02,9.233220e+01
8.200000e-01,1.211816e+02,6.989279e+01,1.205688e+02,1.226768e+02,1.149360e+02,9.221759e+01
