x(m),SPL1,SPL2,SPL3,SPL4,SPL5,SPL6
0.000000e+00,1.300340e+02,1.299480e+02,1.302670e+02,1.299290e+02,1.303380e+02,1.302590e+02
9.065694e-03,1.309143e+02,1.296282e+02,1.292700e+02,1.298030e+02,1.297062e+02,1.300157e+02
9.065694e-03,1.309143e+02,1.296282e+02,1.292700e+02,1.298030e+02,1.297062e+02,1.300157e+02
1.685536e-02,1.315785e+02,1.291278e+02,1.283385e+02,1.298564e+02,1.291362e+02,1.304516e+02
2.373430e-02,1.321371e+02,1.284912e+02,1.276252e+02,1.299370e+02,1.287844e+02,1.311975e+02
2.373430e-02,1.321371e+02,1.284912e+02,1.276252e+02,1.299370e+02,1.287844e+02,1.311975e+02
3.279999e-02,1.328411e+02,1.275812e+02,1.272873e+02,1.300431e+02,1.287123e+02,1.315974e+02
4.186569e-02,1.334137e+02,1.261980e+02,1.273656e+02,1.297239e+02,1.289103e+02,1.309479e+02
4.186569e-02,1.334137e+02,1.261980e+02,1.273656e+02,1.297239e+02,1.289103e+02,1.309479e+02
4.186569e-02,1.334137e+02,1.261980e+02,1.273656e+02,1.297239e+02,1.289103e+02,1.309479e+02
5.653431e-02,1.342466e+02,1.235083e+02,1.287607e+02,1.293724e+02,1.297566e+02,1.285915e+02
5.653431e-02,1.342466e+02,1.235083e+02,1.287607e+02,1.293724e+02,1.297566e+02,1.285915e+02
6.560001e-02,1.346892e+02,1.214674e+02,1.296597e+02,1.293227e+02,1.298523e+02,1.279661e+02
7.466571e-02,1.350047e+02,1.192928e+02,1.301735e+02,1.295147e+02,1.295628e+02,1.291854e+02
7.466571e-02,1.350047e+02,1.192928e+02,1.301735e+02,1.295147e+02,1.295628e+02,1.291854e+02
7.466571e-02,1.350047e+02,1.192928e+02,1.301735e+02,1.295147e+02,1.295628e+02,1.291854e+02
8.933431e-02,1.351700e+02,1.208399e+02,1.303538e+02,1.298357e+02,1.286419e+02,1.312425e+02
8.933431e-02,1.351700e+02,1.208399e+02,1.303538e+02,1.298357e+02,1.286419e+02,1.312425e+02
9.840000e-02,1.351629e+02,1.231005e+02,1.300306e+02,1.299545e+02,1.287353e+02,1.320543e+02
1.074657e-01,1.350135e+02,1.251745e+02,1.294426e+02,1.299978e+02,1.293568e+02,1.326820e+02
1.074657e-01,1.350135e+02,1.251745e+02,1.294426e+02,1.299978e+02,1.293568e+02,1.326820e+02
1.074657e-01,1.350135e+02,1.251745e+02,1.294426e+02,1.299978e+02,1.293568e+02,1.326820e+02
1.221343e-01,1.347742e+02,1.277005e+02,1.278283e+02,1.295099e+02,1.295604e+02,1.326573e+02
1.221343e-01,1.347742e+02,1.277005e+02,1.278283e+02,1.295099e+02,1.295604e+02,1.326573e+02
1.312000e-01,1.344844e+02,1.286521e+02,1.270976e+02,1.291940e+02,1.291326e+02,1.321187e+02
1.402657e-01,1.341923e+02,1.292172e+02,1.271529e+02,1.292379e+02,1.284861e+02,1.303946e+02
1.402657e-01,1.341923e+02,1.292172e+02,1.271529e+02,1.292379e+02,1.284861e+02,1.303946e+02
1.402657e-01,1.341923e+02,1.292172e+02,1.271529e+02,1.292379e+02,1.284861e+02,1.303946e+02
1.549343e-01,1.333468e+02,1.294644e+02,1.283689e+02,1.295637e+02,1.282635e+02,1.246449e+02
1.549343e-01,1.333468e+02,1.294644e+02,1.283689e+02,1.295637e+02,1.282635e+02,1.246449e+02
1.640000e-01,1.326947e+02,1.293435e+02,1.293547e+02,1.299122e+02,1.293149e+02,1.250590e+02
1.730657e-01,1.318332e+02,1.291312e+02,1.301010e+02,1.302384e+02,1.305954e+02,1.291809e+02
1.730657e-01,1.318332e+02,1.291312e+02,1.301010e+02,1.302384e+02,1.305954e+02,1.291809e+02
1.730657e-01,1.318332e+02,1.291312e+02,1.301010e+02,1.302384e+02,1.305954e+02,1.291809e+02
1.877343e-01,1.304715e+02,1.281706e+02,1.307401e+02,1.301909e+02,1.316282e+02,1.328184e+02
1.877343e-01,1.304715e+02,1.281706e+02,1.307401e+02,1.301909e+02,1.316282e+02,1.328184e+02
1.968000e-01,1.297408e+02,1.273825e+02,1.308613e+02,1.299905e+02,1.316540e+02,1.336865e+02
2.058657e-01,1.291625e+02,1.263547e+02,1.308567e+02,1.297769e+02,1.313269e+02,1.340365e+02
2.058657e-01,1.291625e+02,1.263547e+02,1.308567e+02,1.297769e+02,1.313269e+02,1.340365e+02
2.058657e-01,1.291625e+02,1.263547e+02,1.308567e+02,1.297769e+02,1.313269e+02,1.340365e+02
2.205343e-01,1.283009e+02,1.250255e+02,1.303675e+02,1.293344e+02,1.296872e+02,1.335421e+02
2.205343e-01,1.283009e+02,1.250255e+02,1.303675e+02,1.293344e+02,1.296872e+02,1.335421e+02
2.296000e-01,1.281306e+02,1.243082e+02,1.299916e+02,1.291828e+02,1.283433e+02,1.332213e+02
2.386657e-01,1.278376e+02,1.235741e+02,1.297424e+02,1.291976e+02,1.266956e+02,1.328860e+02
2.386657e-01,1.278376e+02,1.235741e+02,1.297424e+02,1.291976e+02,1.266956e+02,1.328860e+02
2.386657e-01,1.278376e+02,1.235741e+02,1.297424e+02,1.291976e+02,1.266956e+02,1.328860e+02
2.533343e-01,1.276476e+02,1.222351e+02,1.293768e+02,1.290328e+02,1.232744e+02,1.320474e+02
2.533343e-01,1.276476e+02,1.222351e+02,1.293768e+02,1.290328e+02,1.232744e+02,1.320474e+02
2.624000e-01,1.276286e+02,1.214517e+02,1.292705e+02,1.289254e+02,1.214462e+02,1.315148e+02
2.714657e-01,1.275001e+02,1.210449e+02,1.291369e+02,1.288755e+02,1.209384e+02,1.309977e+02
2.714657e-01,1.275001e+02,1.210449e+02,1.291369e+02,1.288755e+02,1.209384e+02,1.309977e+02
2.714657e-01,1.275001e+02,1.210449e+02,1.291369e+02,1.288755e+02,1.209384e+02,1.309977e+02
2.861343e-01,1.276003e+02,1.200032e+02,1.289543e+02,1.286314e+02,1.219586e+02,1.297946e+02
2.861343e-01,1.276003e+02,1.200032e+02,1.289543e+02,1.286314e+02,1.219586e+02,1.297946e+02
2.952000e-01,1.276948e+02,1.193868e+02,1.288703e+02,1.286107e+02,1.230427e+02,1.293233e+02
3.042657e-01,1.276227e+02,1.190102e+02,1.287949e+02,1.287286e+02,1.241830e+02,1.290202e+02
3.042657e-01,1.276227e+02,1.190102e+02,1.287949e+02,1.287286e+02,1.241830e+02,1.290202e+02
3.042657e-01,1.276227e+02,1.190102e+02,1.287949e+02,1.287286e+02,1.241830e+02,1.290202e+02
3.189343e-01,1.275618e+02,1.176844e+02,1.283353e+02,1.287180e+02,1.253840e+02,1.278629e+02
3.189343e-01,1.275618e+02,1.176844e+02,1.283353e+02,1.287180e+02,1.253840e+02,1.278629e+02
3.280000e-01,1.275062e+02,1.171024e+02,1.280593e+02,1.286404e+02,1.257112e+02,1.273457e+02
3.370657e-01,1.273820e+02,1.169325e+02,1.277640e+02,1.285783e+02,1.259995e+02,1.265574e+02
3.370657e-01,1.273820e+02,1.169325e+02,1.277640e+02,1.285783e+02,1.259995e+02,1.265574e+02
3.370657e-01,1.273820e+02,1.169325e+02,1.277640e+02,1.285783e+02,1.259995e+02,1.265574e+02
3.517343e-01,1.268781e+02,1.173067e+02,1.272197e+02,1.282193e+02,1.255252e+02,1.254700e+02
3.517343e-01,1.268781e+02,1.173067e+02,1.272197e+02,1.282193e+02,1.255252e+02,1.254700e+02
3.608000e-01,1.265515e+02,1.175115e+02,1.270230e+02,1.280946e+02,1.248592e+02,1.251400e+02
3.698657e-01,1.265341e+02,1.167160e+02,1.269439e+02,1.281411e+02,1.240648e+02,1.248543e+02
3.698657e-01,1.265341e+02,1.167160e+02,1.269439e+02,1.281411e+02,1.240648e+02,1.248543e+02
3.698657e-01,1.265341e+02,1.167160e+02,1.269439e+02,1.281411e+02,1.240648e+02,1.248543e+02
3.845343e-01,1.257920e+02,1.166206e+02,1.269090e+02,1.281901e+02,1.226062e+02,1.232862e+02
3.845343e-01,1.257920e+02,1.166206e+02,1.269090e+02,1.281901e+02,1.226062e+02,1.232862e+02
3.936000e-01,1.254868e+02,1.163640e+02,1.269937e+02,1.282296e+02,1.221700e+02,1.224094e+02
4.026657e-01,1.256153e+02,1.161678e+02,1.270841e+02,1.282310e+02,1.222104e+02,1.221577e+02
4.026657e-01,1.256153e+02,1.161678e+02,1.270841e+02,1.282310e+02,1.222104e+02,1.221577e+02
4.026657e-01,1.256153e+02,1.161678e+02,1.270841e+02,1.282310e+02,1.222104e+02,1.221577e+02
4.173343e-01,1.254164e+02,1.149539e+02,1.269456e+02,1.278580e+02,1.219425e+02,1.216111e+02
4.173343e-01,1.254164e+02,1.149539e+02,1.269456e+02,1.278580e+02,1.219425e+02,1.216111e+02
4.264000e-01,1.254390e+02,1.149382e+02,1.267473e+02,1.276408e+02,1.214281e+02,1.213275e+02
4.354657e-01,1.253610e+02,1.132313e+02,1.264782e+02,1.275877e+02,1.208866e+02,1.203893e+02
4.354657e-01,1.253610e+02,1.132313e+02,1.264782e+02,1.275877e+02,1.208866e+02,1.203893e+02
4.354657e-01,1.253610e+02,1.132313e+02,1.264782e+02,1.275877e+02,1.208866e+02,1.203893e+02
4.501343e-01,1.255838e+02,1.106713e+02,1.257044e+02,1.275851e+02,1.201691e+02,1.183896e+02
4.501343e-01,1.255838e+02,1.106713e+02,1.257044e+02,1.275851e+02,1.201691e+02,1.183896e+02
4.592000e-01,1.252060e+02,1.105940e+02,1.251508e+02,1.277044e+02,1.205998e+02,1.182970e+02
4.682657e-01,1.254364e+02,1.098850e+02,1.247781e+02,1.278361e+02,1.217675e+02,1.185502e+02
4.682657e-01,1.254364e+02,1.098850e+02,1.247781e+02,1.278361e+02,1.217675e+02,1.185502e+02
4.682657e-01,1.254364e+02,1.098850e+02,1.247781e+02,1.278361e+02,1.217675e+02,1.185502e+02
4.829343e-01,1.257117e+02,1.110091e+02,1.243644e+02,1.275930e+02,1.228486e+02,1.178484e+02
4.829343e-01,1.257117e+02,1.110091e+02,1.243644e+02,1.275930e+02,1.228486e+02,1.178484e+02
4.920000e-01,1.257973e+02,1.116877e+02,1.244336e+02,1.273167e+02,1.227979e+02,1.165159e+02
4.920000e-01,1.257973e+02,1.116877e+02,1.244336e+02,1.273167e+02,1.227979e+02,1.165159e+02
5.010657e-01,1.254156e+02,1.106321e+02,1.246851e+02,1.271071e+02,1.220476e+02,1.150454e+02
5.010657e-01,1.254156e+02,1.106321e+02,1.246851e+02,1.271071e+02,1.220476e+02,1.150454e+02
5.157343e-01,1.249162e+02,1.116486e+02,1.250986e+02,1.269134e+02,1.187182e+02,1.143462e+02
5.157343e-01,1.249162e+02,1.116486e+02,1.250986e+02,1.269134e+02,1.187182e+02,1.143462e+02
5.248000e-01,1.242606e+02,1.114735e+02,1.253700e+02,1.270655e+02,1.167651e+02,1.153710e+02
5.248000e-01,1.242606e+02,1.114735e+02,1.253700e+02,1.270655e+02,1.167651e+02,1.153710e+02
5.338657e-01,1.237614e+02,1.114218e+02,1.254002e+02,1.273561e+02,1.184074e+02,1.154622e+02
5.338657e-01,1.237614e+02,1.114218e+02,1.254002e+02,1.273561e+02,1.184074e+02,1.154622e+02
5.485343e-01,1.228885e+02,1.089702e+02,1.249694e+02,1.273922e+02,1.218686e+02,1.127500e+02
5.485343e-01,1.228885e+02,1.089702e+02,1.249694e+02,1.273922e+02,1.218686e+02,1.127500e+02
5.576000e-01,1.231189e+02,1.090261e+02,1.245234e+02,1.271870e+02,1.226085e+02,1.101017e+02
5.576000e-01,1.231189e+02,1.090261e+02,1.245234e+02,1.271870e+02,1.226085e+02,1.101017e+02
5.666657e-01,1.234214e+02,1.062855e+02,1.238598e+02,1.268533e+02,1.220994e+02,1.098235e+02
5.666657e-01,1.234214e+02,1.062855e+02,1.238598e+02,1.268533e+02,1.220994e+02,1.098235e+02
5.813343e-01,1.243123e+02,1.011853e+02,1.224060e+02,1.261165e+02,1.177820e+02,1.129801e+02
5.813343e-01,1.243123e+02,1.011853e+02,1.224060e+02,1.261165e+02,1.177820e+02,1.129801e+02
5.904000e-01,1.250987e+02,9.884748e+01,1.215584e+02,1.259548e+02,1.123585e+02,1.137623e+02
5.904000e-01,1.250987e+02,9.884748e+01,1.215584e+02,1.259548e+02,1.123585e+02,1.137623e+02
5.994657e-01,1.259779e+02,1.027915e+02,1.209804e+02,1.261410e+02,1.124662e+02,1.132801e+02
5.994657e-01,1.259779e+02,1.027915e+02,1.209804e+02,1.261410e+02,1.124662e+02,1.132801e+02
6.141343e-01,1.265196e+02,1.013952e+02,1.206781e+02,1.265000e+02,1.189553e+02,1.090433e+02
6.141343e-01,1.265196e+02,1.013952e+02,1.206781e+02,1.265000e+02,1.189553e+02,1.090433e+02
6.232000e-01,1.267341e+02,1.018913e+02,1.208343e+02,1.266898e+02,1.206425e+02,1.043672e+02
6.232000e-01,1.267341e+02,1.018913e+02,1.208343e+02,1.266898e+02,1.206425e+02,1.043672e+02
6.322657e-01,1.267156e+02,1.032930e+02,1.211298e+02,1.268762e+02,1.216197e+02,1.020167e+02
6.322657e-01,1.267156e+02,1.032930e+02,1.211298e+02,1.268762e+02,1.216197e+02,1.020167e+02
6.469343e-01,1.266437e+02,1.075656e+02,1.214271e+02,1.268241e+02,1.218306e+02,1.098454e+02
6.469343e-01,1.266437e+02,1.075656e+02,1.214271e+02,1.268241e+02,1.218306e+02,1.098454e+02
6.560000e-01,1.267500e+02,1.071962e+02,1.214898e+02,1.267720e+02,1.215359e+02,1.121131e+02
6.560000e-01,1.267500e+02,1.071962e+02,1.214898e+02,1.267720e+02,1.215359e+02,1.121131e+02
6.650657e-01,1.267505e+02,1.088839e+02,1.216438e+02,1.268379e+02,1.212140e+02,1.135235e+02
6.650657e-01,1.267505e+02,1.088839e+02,1.216438e+02,1.268379e+02,1.212140e+02,1.135235e+02
6.797343e-01,1.266495e+02,1.091173e+02,1.216258e+02,1.268181e+02,1.203709e+02,1.137152e+02
6.797343e-01,1.266495e+02,1.091173e+02,1.216258e+02,1.268181e+02,1.203709e+02,1.137152e+02
6.888000e-01,1.265603e+02,1.088323e+02,1.216023e+02,1.268560e+02,1.200520e+02,1.129260e+02
6.888000e-01,1.265603e+02,1.088323e+02,1.216023e+02,1.268560e+02,1.200520e+02,1.129260e+02
6.978657e-01,1.264363e+02,1.089197e+02,1.215803e+02,1.269287e+02,1.200520e+02,1.112814e+02
6.978657e-01,1.264363e+02,1.089197e+02,1.215803e+02,1.269287e+02,1.200520e+02,1.112814e+02
7.125343e-01,1.261538e+02,1.076986e+02,1.214771e+02,1.267986e+02,1.201281e+02,1.053640e+02
7.125343e-01,1.261538e+02,1.076986e+02,1.214771e+02,1.267986e+02,1.201281e+02,1.053640e+02
7.216000e-01,1.259732e+02,1.088137e+02,1.215900e+02,1.267488e+02,1.203160e+02,9.885392e+01
7.216000e-01,1.259732e+02,1.088137e+02,1.215900e+02,1.267488e+02,1.203160e+02,9.885392e+01
7.306657e-01,1.260928e+02,1.071988e+02,1.216004e+02,1.267714e+02,1.204714e+02,9.937014e+01
7.306657e-01,1.260928e+02,1.071988e+02,1.216004e+02,1.267714e+02,1.204714e+02,9.937014e+01
7.453343e-01,1.267488e+02,1.057105e+02,1.215896e+02,1.267210e+02,1.203680e+02,1.070584e+02
7.453343e-01,1.267488e+02,1.057105e+02,1.215896e+02,1.267210e+02,1.203680e+02,1.070584e+02
7.544000e-01,1.266309e+02,1.049755e+02,1.216440e+02,1.267655e+02,1.203424e+02,1.089552e+02
7.544000e-01,1.266309e+02,1.049755e+02,1.216440e+02,1.267655e+02,1.203424e+02,1.089552e+02
7.634657e-01,1.272054e+02,1.054806e+02,1.216896e+02,1.268995e+02,1.204879e+02,1.100394e+02
7.634657e-01,1.272054e+02,1.054806e+02,1.216896e+02,1.268995e+02,1.204879e+02,1.100394e+02
7.781343e-01,1.278185e+02,1.071919e+02,1.216219e+02,1.268543e+02,1.204383e+02,1.098435e+02
7.781343e-01,1.278185e+02,1.071919e+02,1.216219e+02,1.268543e+02,1.204383e+02,1.098435e+02
7.872000e-01,1.274370e+02,1.067116e+02,1.215783e+02,1.268492e+02,1.204894e+02,1.092694e+02
7.872000e-01,1.274370e+02,1.067116e+02,1.215783e+02,1.268492e+02,1.204894e+02,1.092694e+02
7.962657e-01,1.278404e+02,1.070835e+02,1.216513e+02,1.268485e+02,1.204613e+02,1.083230e+02
8.030422e-01,1.280941e+02,1.075388e+02,1.214989e+02,1.266400e+02,1.202087e+02,1.073793e+02
8.109343e-01,1.284604e+02,1.081845e+02,1.213469e+02,1.264734e+02,1.200429e+02,1.068557e+02
8.109343e-01,1.284604e+02,1.081845e+02,1.213469e+02,1.264734e+02,1.200429e+02,1.068557e+02
