x(m),SPL1,SPL2,SPL3,SPL4,SPL5,SPL6
0.000000e+00,1.299670e+02,1.300390e+02,1.299670e+02,1.300380e+02,1.299140e+02,1.297760e+02
0.000000e+00,1.299670e+02,1.300390e+02,1.299670e+02,1.300380e+02,1.299140e+02,1.297760e+02
1.743403e-02,1.304756e+02,1.283207e+02,1.299594e+02,1.301160e+02,1.306247e+02,1.298375e+02
1.743403e-02,1.304756e+02,1.283207e+02,1.299594e+02,1.301160e+02,1.306247e+02,1.298375e+02
1.743403e-02,1.304756e+02,1.283207e+02,1.299594e+02,1.301160e+02,1.306247e+02,1.298375e+02
3.153846e-02,1.307496e+02,1.262649e+02,1.304256e+02,1.297832e+02,1.309392e+02,1.288141e+02
3.153846e-02,1.307496e+02,1.262649e+02,1.304256e+02,1.297832e+02,1.309392e+02,1.288141e+02
4.564289e-02,1.308992e+02,1.239892e+02,1.310304e+02,1.295643e+02,1.307653e+02,1.290138e+02
4.564289e-02,1.308992e+02,1.239892e+02,1.310304e+02,1.295643e+02,1.307653e+02,1.290138e+02
4.564289e-02,1.308992e+02,1.239892e+02,1.310304e+02,1.295643e+02,1.307653e+02,1.290138e+02
5.435990e-02,1.309272e+02,1.231443e+02,1.313036e+02,1.295530e+02,1.303615e+02,1.295602e+02
6.307692e-02,1.309057e+02,1.233446e+02,1.314283e+02,1.296271e+02,1.299407e+02,1.299151e+02
6.307692e-02,1.309057e+02,1.233446e+02,1.314283e+02,1.296271e+02,1.299407e+02,1.299151e+02
7.179394e-02,1.308378e+02,1.244457e+02,1.314398e+02,1.298425e+02,1.300009e+02,1.300023e+02
8.051095e-02,1.307209e+02,1.258926e+02,1.313118e+02,1.300809e+02,1.303573e+02,1.296504e+02
8.051095e-02,1.307209e+02,1.258926e+02,1.313118e+02,1.300809e+02,1.303573e+02,1.296504e+02
8.051095e-02,1.307209e+02,1.258926e+02,1.313118e+02,1.300809e+02,1.303573e+02,1.296504e+02
9.461538e-02,1.304300e+02,1.280234e+02,1.307985e+02,1.301448e+02,1.308062e+02,1.288497e+02
9.461538e-02,1.304300e+02,1.280234e+02,1.307985e+02,1.301448e+02,1.308062e+02,1.288497e+02
1.087198e-01,1.300181e+02,1.295908e+02,1.302011e+02,1.299919e+02,1.308917e+02,1.293706e+02
1.087198e-01,1.300181e+02,1.295908e+02,1.302011e+02,1.299919e+02,1.308917e+02,1.293706e+02
1.087198e-01,1.300181e+02,1.295908e+02,1.302011e+02,1.299919e+02,1.308917e+02,1.293706e+02
1.261538e-01,1.293562e+02,1.307269e+02,1.298260e+02,1.295426e+02,1.301528e+02,1.296556e+02
1.261538e-01,1.293562e+02,1.307269e+02,1.298260e+02,1.295426e+02,1.301528e+02,1.296556e+02
1.261538e-01,1.293562e+02,1.307269e+02,1.298260e+02,1.295426e+02,1.301528e+02,1.296556e+02
1.435879e-01,1.285728e+02,1.311257e+02,1.303474e+02,1.296357e+02,1.302436e+02,1.282776e+02
1.435879e-01,1.285728e+02,1.311257e+02,1.303474e+02,1.296357e+02,1.302436e+02,1.282776e+02
1.435879e-01,1.285728e+02,1.311257e+02,1.303474e+02,1.296357e+02,1.302436e+02,1.282776e+02
1.435879e-01,1.285728e+02,1.311257e+02,1.303474e+02,1.296357e+02,1.302436e+02,1.282776e+02
1.576923e-01,1.279037e+02,1.309027e+02,1.309757e+02,1.298924e+02,1.308753e+02,1.283922e+02
1.717967e-01,1.272765e+02,1.302634e+02,1.315331e+02,1.302459e+02,1.315303e+02,1.304282e+02
1.717967e-01,1.272765e+02,1.302634e+02,1.315331e+02,1.302459e+02,1.315303e+02,1.304282e+02
1.717967e-01,1.272765e+02,1.302634e+02,1.315331e+02,1.302459e+02,1.315303e+02,1.304282e+02
1.805137e-01,1.269528e+02,1.296138e+02,1.317104e+02,1.303209e+02,1.314485e+02,1.312861e+02
1.892308e-01,1.266725e+02,1.288635e+02,1.318116e+02,1.302796e+02,1.311284e+02,1.319328e+02
1.892308e-01,1.266725e+02,1.288635e+02,1.318116e+02,1.302796e+02,1.311284e+02,1.319328e+02
1.979478e-01,1.264688e+02,1.279401e+02,1.318176e+02,1.302173e+02,1.307542e+02,1.320831e+02
2.066648e-01,1.262952e+02,1.269623e+02,1.318058e+02,1.301164e+02,1.301631e+02,1.322476e+02
2.066648e-01,1.262952e+02,1.269623e+02,1.318058e+02,1.301164e+02,1.301631e+02,1.322476e+02
2.066648e-01,1.262952e+02,1.269623e+02,1.318058e+02,1.301164e+02,1.301631e+02,1.322476e+02
2.207692e-01,1.261339e+02,1.250578e+02,1.315443e+02,1.297212e+02,1.288621e+02,1.314148e+02
2.207692e-01,1.261339e+02,1.250578e+02,1.315443e+02,1.297212e+02,1.288621e+02,1.314148e+02
2.348736e-01,1.258969e+02,1.232252e+02,1.313630e+02,1.294771e+02,1.277399e+02,1.311612e+02
2.348736e-01,1.258969e+02,1.232252e+02,1.313630e+02,1.294771e+02,1.277399e+02,1.311612e+02
2.348736e-01,1.258969e+02,1.232252e+02,1.313630e+02,1.294771e+02,1.277399e+02,1.311612e+02
2.523077e-01,1.255668e+02,1.207569e+02,1.309443e+02,1.291595e+02,1.266034e+02,1.303127e+02
2.523077e-01,1.255668e+02,1.207569e+02,1.309443e+02,1.291595e+02,1.266034e+02,1.303127e+02
2.523077e-01,1.255668e+02,1.207569e+02,1.309443e+02,1.291595e+02,1.266034e+02,1.303127e+02
2.610247e-01,1.253940e+02,1.194018e+02,1.306697e+02,1.290830e+02,1.261781e+02,1.295462e+02
2.697417e-01,1.251084e+02,1.182084e+02,1.304681e+02,1.290156e+02,1.257107e+02,1.292216e+02
2.697417e-01,1.251084e+02,1.182084e+02,1.304681e+02,1.290156e+02,1.257107e+02,1.292216e+02
2.697417e-01,1.251084e+02,1.182084e+02,1.304681e+02,1.290156e+02,1.257107e+02,1.292216e+02
2.838461e-01,1.246816e+02,1.160216e+02,1.299369e+02,1.287071e+02,1.252141e+02,1.280684e+02
2.979506e-01,1.240853e+02,1.140746e+02,1.295575e+02,1.284239e+02,1.246349e+02,1.276219e+02
2.979506e-01,1.240853e+02,1.140746e+02,1.295575e+02,1.284239e+02,1.246349e+02,1.276219e+02
2.979506e-01,1.240853e+02,1.140746e+02,1.295575e+02,1.284239e+02,1.246349e+02,1.276219e+02
3.066676e-01,1.237780e+02,1.127144e+02,1.292393e+02,1.281746e+02,1.242200e+02,1.267787e+02
3.153846e-01,1.234109e+02,1.115287e+02,1.290418e+02,1.279562e+02,1.236589e+02,1.262769e+02
3.153846e-01,1.234109e+02,1.115287e+02,1.290418e+02,1.279562e+02,1.236589e+02,1.262769e+02
3.153846e-01,1.234109e+02,1.115287e+02,1.290418e+02,1.279562e+02,1.236589e+02,1.262769e+02
3.328186e-01,1.228985e+02,1.089392e+02,1.286979e+02,1.278065e+02,1.232952e+02,1.254598e+02
3.328186e-01,1.228985e+02,1.089392e+02,1.286979e+02,1.278065e+02,1.232952e+02,1.254598e+02
3.328186e-01,1.228985e+02,1.089392e+02,1.286979e+02,1.278065e+02,1.232952e+02,1.254598e+02
3.469231e-01,1.227314e+02,1.067417e+02,1.284087e+02,1.276228e+02,1.227680e+02,1.243409e+02
3.469231e-01,1.227314e+02,1.067417e+02,1.284087e+02,1.276228e+02,1.227680e+02,1.243409e+02
3.610275e-01,1.226496e+02,1.047913e+02,1.282979e+02,1.274958e+02,1.221174e+02,1.239556e+02
3.610275e-01,1.226496e+02,1.047913e+02,1.282979e+02,1.274958e+02,1.221174e+02,1.239556e+02
3.610275e-01,1.226496e+02,1.047913e+02,1.282979e+02,1.274958e+02,1.221174e+02,1.239556e+02
3.697445e-01,1.227415e+02,1.034306e+02,1.281102e+02,1.272947e+02,1.216064e+02,1.231213e+02
3.784615e-01,1.227859e+02,1.022381e+02,1.279854e+02,1.270813e+02,1.212978e+02,1.229439e+02
3.784615e-01,1.227859e+02,1.022381e+02,1.279854e+02,1.270813e+02,1.212978e+02,1.229439e+02
3.871785e-01,1.229192e+02,1.008597e+02,1.277450e+02,1.268813e+02,1.209500e+02,1.220406e+02
3.958956e-01,1.229598e+02,9.965676e+01,1.275512e+02,1.267031e+02,1.205804e+02,1.216128e+02
3.958956e-01,1.229598e+02,9.965676e+01,1.275512e+02,1.267031e+02,1.205804e+02,1.216128e+02
3.958956e-01,1.229598e+02,9.965676e+01,1.275512e+02,1.267031e+02,1.205804e+02,1.216128e+02
4.100000e-01,1.230540e+02,9.746162e+01,1.269719e+02,1.263613e+02,1.201268e+02,1.205276e+02
4.241044e-01,1.228892e+02,9.551622e+01,1.264679e+02,1.262597e+02,1.194780e+02,1.203234e+02
4.241044e-01,1.228892e+02,9.551622e+01,1.264679e+02,1.262597e+02,1.194780e+02,1.203234e+02
4.241044e-01,1.228892e+02,9.551622e+01,1.264679e+02,1.262597e+02,1.194780e+02,1.203234e+02
4.241044e-01,1.228892e+02,9.551622e+01,1.264679e+02,1.262597e+02,1.194780e+02,1.203234e+02
4.415385e-01,1.224832e+02,9.297935e+01,1.257561e+02,1.260793e+02,1.181991e+02,1.189900e+02
4.415385e-01,1.224832e+02,9.297935e+01,1.257561e+02,1.260793e+02,1.181991e+02,1.189900e+02
4.415385e-01,1.224832e+02,9.297935e+01,1.257561e+02,1.260793e+02,1.181991e+02,1.189900e+02
4.589725e-01,1.217715e+02,9.039603e+01,1.253054e+02,1.258973e+02,1.178455e+02,1.176847e+02
4.589725e-01,1.217715e+02,9.039603e+01,1.253054e+02,1.258973e+02,1.178455e+02,1.176847e+02
4.589725e-01,1.217715e+02,9.039603e+01,1.253054e+02,1.258973e+02,1.178455e+02,1.176847e+02
4.730769e-01,1.210288e+02,8.819803e+01,1.250704e+02,1.254459e+02,1.175322e+02,1.164992e+02
4.730769e-01,1.210288e+02,8.819803e+01,1.250704e+02,1.254459e+02,1.175322e+02,1.164992e+02
4.871814e-01,1.200623e+02,8.622808e+01,1.251260e+02,1.250712e+02,1.168913e+02,1.166722e+02
4.871814e-01,1.200623e+02,8.622808e+01,1.251260e+02,1.250712e+02,1.168913e+02,1.166722e+02
4.871814e-01,1.200623e+02,8.622808e+01,1.251260e+02,1.250712e+02,1.168913e+02,1.166722e+02
4.958984e-01,1.195405e+02,8.482560e+01,1.250704e+02,1.248670e+02,1.163199e+02,1.162387e+02
5.046154e-01,1.190112e+02,8.359944e+01,1.250706e+02,1.247303e+02,1.157509e+02,1.160974e+02
5.046154e-01,1.190112e+02,8.359944e+01,1.250706e+02,1.247303e+02,1.157509e+02,1.160974e+02
5.133324e-01,1.186964e+02,8.215050e+01,1.249406e+02,1.247351e+02,1.153436e+02,1.149195e+02
5.220494e-01,1.184921e+02,8.084445e+01,1.248250e+02,1.247842e+02,1.151783e+02,1.138253e+02
5.220494e-01,1.184921e+02,8.084445e+01,1.248250e+02,1.247842e+02,1.151783e+02,1.138253e+02
5.220494e-01,1.184921e+02,8.084445e+01,1.248250e+02,1.247842e+02,1.151783e+02,1.138253e+02
5.361539e-01,1.186921e+02,7.841205e+01,1.242682e+02,1.246390e+02,1.152067e+02,1.118949e+02
5.361539e-01,1.186921e+02,7.841205e+01,1.242682e+02,1.246390e+02,1.152067e+02,1.118949e+02
5.502583e-01,1.191564e+02,7.615520e+01,1.236260e+02,1.243695e+02,1.146421e+02,1.126337e+02
5.502583e-01,1.191564e+02,7.615520e+01,1.236260e+02,1.243695e+02,1.146421e+02,1.126337e+02
5.502583e-01,1.191564e+02,7.615520e+01,1.236260e+02,1.243695e+02,1.146421e+02,1.126337e+02
5.676923e-01,1.199256e+02,7.332501e+01,1.224954e+02,1.236355e+02,1.120790e+02,1.131060e+02
5.676923e-01,1.199256e+02,7.332501e+01,1.224954e+02,1.236355e+02,1.120790e+02,1.131060e+02
5.676923e-01,1.199256e+02,7.332501e+01,1.224954e+02,1.236355e+02,1.120790e+02,1.131060e+02
5.851264e-01,1.205507e+02,7.109245e+01,1.214762e+02,1.231478e+02,1.105324e+02,1.116600e+02
5.851264e-01,1.205507e+02,7.109245e+01,1.214762e+02,1.231478e+02,1.105324e+02,1.116600e+02
5.851264e-01,1.205507e+02,7.109245e+01,1.214762e+02,1.231478e+02,1.105324e+02,1.116600e+02
5.851264e-01,1.205507e+02,7.109245e+01,1.214762e+02,1.231478e+02,1.105324e+02,1.116600e+02
5.992308e-01,1.208954e+02,7.013021e+01,1.208897e+02,1.229044e+02,1.114364e+02,1.077929e+02
6.133352e-01,1.210424e+02,6.983118e+01,1.206664e+02,1.228958e+02,1.125426e+02,1.029731e+02
6.133352e-01,1.210424e+02,6.983118e+01,1.206664e+02,1.228958e+02,1.125426e+02,1.029731e+02
6.133352e-01,1.210424e+02,6.983118e+01,1.206664e+02,1.228958e+02,1.125426e+02,1.029731e+02
6.220522e-01,1.211119e+02,6.979464e+01,1.206077e+02,1.229312e+02,1.130567e+02,1.009824e+02
6.307692e-01,1.211383e+02,6.978940e+01,1.205555e+02,1.228822e+02,1.132164e+02,1.015087e+02
6.307692e-01,1.211383e+02,6.978940e+01,1.205555e+02,1.228822e+02,1.132164e+02,1.015087e+02
6.394863e-01,1.211632e+02,6.982580e+01,1.205919e+02,1.229827e+02,1.134219e+02,1.035851e+02
6.482033e-01,1.211738e+02,6.984569e+01,1.206214e+02,1.230603e+02,1.135618e+02,1.050047e+02
6.482033e-01,1.211738e+02,6.984569e+01,1.206214e+02,1.230603e+02,1.135618e+02,1.050047e+02
6.482033e-01,1.211738e+02,6.984569e+01,1.206214e+02,1.230603e+02,1.135618e+02,1.050047e+02
6.623077e-01,1.211854e+02,6.987459e+01,1.206246e+02,1.230354e+02,1.133906e+02,1.059163e+02
6.623077e-01,1.211854e+02,6.987459e+01,1.206246e+02,1.230354e+02,1.133906e+02,1.059163e+02
6.764121e-01,1.211894e+02,6.988644e+01,1.206380e+02,1.230595e+02,1.133807e+02,1.063522e+02
6.764121e-01,1.211894e+02,6.988644e+01,1.206380e+02,1.230595e+02,1.133807e+02,1.063522e+02
6.764121e-01,1.211894e+02,6.988644e+01,1.206380e+02,1.230595e+02,1.133807e+02,1.063522e+02
6.938462e-01,1.211916e+02,6.989277e+01,1.206182e+02,1.229944e+02,1.132120e+02,1.059694e+02
6.938462e-01,1.211916e+02,6.989277e+01,1.206182e+02,1.229944e+02,1.132120e+02,1.059694e+02
6.938462e-01,1.211916e+02,6.989277e+01,1.206182e+02,1.229944e+02,1.132120e+02,1.059694e+02
7.025632e-01,1.211925e+02,6.990056e+01,1.206418e+02,1.230546e+02,1.133056e+02,1.058417e+02
7.112802e-01,1.211928e+02,6.990512e+01,1.206541e+02,1.230871e+02,1.133639e+02,1.057614e+02
7.112802e-01,1.211928e+02,6.990512e+01,1.206541e+02,1.230871e+02,1.133639e+02,1.057614e+02
7.112802e-01,1.211928e+02,6.990512e+01,1.206541e+02,1.230871e+02,1.133639e+02,1.057614e+02
7.253846e-01,1.211921e+02,6.990415e+01,1.206368e+02,1.230392e+02,1.132586e+02,1.053820e+02
7.394890e-01,1.211911e+02,6.990742e+01,1.206432e+02,1.230580e+02,1.133043e+02,1.054245e+02
7.394890e-01,1.211911e+02,6.990742e+01,1.206432e+02,1.230580e+02,1.133043e+02,1.054245e+02
7.394890e-01,1.211911e+02,6.990742e+01,1.206432e+02,1.230580e+02,1.133043e+02,1.054245e+02
7.482061e-01,1.211901e+02,6.990648e+01,1.206400e+02,1.230481e+02,1.132839e+02,1.054294e+02
7.569231e-01,1.211878e+02,6.989539e+01,1.206018e+02,1.229697e+02,1.132183e+02,1.055853e+02
7.569231e-01,1.211878e+02,6.989539e+01,1.206018e+02,1.229697e+02,1.132183e+02,1.055853e+02
7.569231e-01,1.211878e+02,6.989539e+01,1.206018e+02,1.229697e+02,1.132183e+02,1.055853e+02
7.743571e-01,1.211875e+02,6.990894e+01,1.206568e+02,1.230870e+02,1.133726e+02,1.056970e+02
7.743571e-01,1.211875e+02,6.990894e+01,1.206568e+02,1.230870e+02,1.133726e+02,1.056970e+02
7.743571e-01,1.211875e+02,6.990894e+01,1.206568e+02,1.230870e+02,1.133726e+02,1.056970e+02
7.884615e-01,1.211852e+02,6.990222e+01,1.206412e+02,1.230373e+02,1.132660e+02,1.055104e+02
7.884615e-01,1.211852e+02,6.990222e+01,1.206412e+02,1.230373e+02,1.132660e+02,1.055104e+02
8.025660e-01,1.211840e+02,6.990180e+01,1.206460e+02,1.230553e+02,1.133083e+02,1.055921e+02
8.025660e-01,1.211840e+02,6.990180e+01,1.206460e+02,1.230553e+02,1.133083e+02,1.055921e+02
8.025660e-01,1.211840e+02,6.990180e+01,1.206460e+02,1.230553e+02,1.133083e+02,1.055921e+02
8.200000e-01,1.211816e+02,6.989266e+01,1.206186e+02,1.229936e+02,1.132029e+02,1.054813e+02
