x(m),SPL1,SPL2,SPL3,SPL4,SPL5,SPL6
0.000000e+00,1.299720e+02,1.300390e+02,1.299670e+02,1.300380e+02,1.299140e+02,1.297760e+02
5.663678e-03,1.301189e+02,1.297778e+02,1.297394e+02,1.301463e+02,1.297382e+02,1.300004e+02
1.133733e-02,1.302542e+02,1.294335e+02,1.295569e+02,1.302264e+02,1.296405e+02,1.302213e+02
1.640000e-02,1.303642e+02,1.290546e+02,1.294522e+02,1.302643e+02,1.296482e+02,1.303564e+02
2.207524e-02,1.304760e+02,1.285460e+02,1.294165e+02,1.302632e+02,1.297594e+02,1.303921e+02
2.713631e-02,1.305648e+02,1.280158e+02,1.294616e+02,1.302234e+02,1.299230e+02,1.303122e+02
3.279999e-02,1.306518e+02,1.273357e+02,1.295908e+02,1.301414e+02,1.301271e+02,1.301179e+02
3.846367e-02,1.307251e+02,1.265685e+02,1.297846e+02,1.300320e+02,1.303055e+02,1.298817e+02
3.846367e-02,1.307251e+02,1.265685e+02,1.297846e+02,1.300320e+02,1.303055e+02,1.298817e+02
4.920000e-02,1.308282e+02,1.249383e+02,1.302383e+02,1.298114e+02,1.304321e+02,1.296102e+02
5.993633e-02,1.308822e+02,1.234052e+02,1.306613e+02,1.296872e+02,1.302317e+02,1.298623e+02
5.993633e-02,1.308822e+02,1.234052e+02,1.306613e+02,1.296872e+02,1.302317e+02,1.298623e+02
6.560001e-02,1.308913e+02,1.229032e+02,1.308286e+02,1.296929e+02,1.300353e+02,1.301107e+02
7.126369e-02,1.308866e+02,1.227882e+02,1.309422e+02,1.297497e+02,1.298358e+02,1.303319e+02
7.126369e-02,1.308866e+02,1.227882e+02,1.309422e+02,1.297497e+02,1.298358e+02,1.303319e+02
8.200001e-02,1.308407e+02,1.236564e+02,1.309889e+02,1.299500e+02,1.296318e+02,1.304458e+02
9.273632e-02,1.307455e+02,1.252569e+02,1.308115e+02,1.301615e+02,1.298050e+02,1.301458e+02
9.273632e-02,1.307455e+02,1.252569e+02,1.308115e+02,1.301615e+02,1.298050e+02,1.301458e+02
9.840000e-02,1.306760e+02,1.261254e+02,1.306383e+02,1.302346e+02,1.299965e+02,1.299287e+02
1.040637e-01,1.305933e+02,1.269348e+02,1.304233e+02,1.302661e+02,1.301912e+02,1.297780e+02
1.040637e-01,1.305933e+02,1.269348e+02,1.304233e+02,1.302661e+02,1.301912e+02,1.297780e+02
1.148000e-01,1.304001e+02,1.282389e+02,1.299624e+02,1.302003e+02,1.303982e+02,1.298194e+02
1.148000e-01,1.304001e+02,1.282389e+02,1.299624e+02,1.302003e+02,1.303982e+02,1.298194e+02
1.255363e-01,1.301617e+02,1.292191e+02,1.295693e+02,1.300057e+02,1.302808e+02,1.300967e+02
1.312000e-01,1.300178e+02,1.296102e+02,1.294495e+02,1.298847e+02,1.301052e+02,1.301514e+02
1.368637e-01,1.298629e+02,1.299186e+02,1.294158e+02,1.297792e+02,1.299065e+02,1.300879e+02
1.368637e-01,1.298629e+02,1.299186e+02,1.294158e+02,1.297792e+02,1.299065e+02,1.300879e+02
1.476000e-01,1.295398e+02,1.302867e+02,1.295994e+02,1.296845e+02,1.296513e+02,1.295930e+02
1.476000e-01,1.295398e+02,1.302867e+02,1.295994e+02,1.296845e+02,1.296513e+02,1.295930e+02
1.583363e-01,1.291825e+02,1.303841e+02,1.300208e+02,1.297814e+02,1.298111e+02,1.290668e+02
1.640000e-01,1.289830e+02,1.303304e+02,1.302829e+02,1.298966e+02,1.300512e+02,1.290773e+02
1.696637e-01,1.287774e+02,1.302055e+02,1.305416e+02,1.300349e+02,1.303378e+02,1.293917e+02
1.696637e-01,1.287774e+02,1.302055e+02,1.305416e+02,1.300349e+02,1.303378e+02,1.293917e+02
1.804000e-01,1.283754e+02,1.297767e+02,1.309610e+02,1.302875e+02,1.308057e+02,1.305060e+02
1.804000e-01,1.283754e+02,1.297767e+02,1.309610e+02,1.302875e+02,1.308057e+02,1.305060e+02
1.911363e-01,1.279668e+02,1.291051e+02,1.312347e+02,1.304416e+02,1.309797e+02,1.315947e+02
1.968000e-01,1.277514e+02,1.286585e+02,1.313139e+02,1.304635e+02,1.309228e+02,1.319932e+02
2.024637e-01,1.275375e+02,1.281526e+02,1.313509e+02,1.304440e+02,1.307686e+02,1.322550e+02
2.024637e-01,1.275375e+02,1.281526e+02,1.313509e+02,1.304440e+02,1.307686e+02,1.322550e+02
2.132000e-01,1.271382e+02,1.270516e+02,1.313226e+02,1.303059e+02,1.302455e+02,1.323977e+02
2.132000e-01,1.271382e+02,1.270516e+02,1.313226e+02,1.303059e+02,1.302455e+02,1.323977e+02
2.239363e-01,1.267510e+02,1.257998e+02,1.312004e+02,1.300779e+02,1.295148e+02,1.321934e+02
2.296000e-01,1.265525e+02,1.250936e+02,1.311096e+02,1.299407e+02,1.290794e+02,1.319828e+02
2.352637e-01,1.263602e+02,1.243636e+02,1.310066e+02,1.298041e+02,1.286367e+02,1.317349e+02
2.352637e-01,1.263602e+02,1.243636e+02,1.310066e+02,1.298041e+02,1.286367e+02,1.317349e+02
2.460000e-01,1.260176e+02,1.229305e+02,1.307835e+02,1.295621e+02,1.277976e+02,1.311564e+02
2.460000e-01,1.260176e+02,1.229305e+02,1.307835e+02,1.295621e+02,1.277976e+02,1.311564e+02
2.567363e-01,1.257162e+02,1.214543e+02,1.305291e+02,1.293623e+02,1.270326e+02,1.304936e+02
2.624000e-01,1.255802e+02,1.206641e+02,1.303829e+02,1.292723e+02,1.266760e+02,1.301182e+02
2.680637e-01,1.254632e+02,1.198683e+02,1.302284e+02,1.291892e+02,1.263580e+02,1.297328e+02
2.680637e-01,1.254632e+02,1.198683e+02,1.302284e+02,1.291892e+02,1.263580e+02,1.297328e+02
2.788000e-01,1.253004e+02,1.183489e+02,1.299129e+02,1.290312e+02,1.258435e+02,1.289752e+02
2.788000e-01,1.253004e+02,1.183489e+02,1.299129e+02,1.290312e+02,1.258435e+02,1.289752e+02
2.895363e-01,1.252217e+02,1.168201e+02,1.295729e+02,1.288497e+02,1.254082e+02,1.282102e+02
2.952000e-01,1.252135e+02,1.160113e+02,1.293868e+02,1.287376e+02,1.251879e+02,1.278072e+02
3.008637e-01,1.252266e+02,1.152013e+02,1.291988e+02,1.286152e+02,1.249666e+02,1.274080e+02
3.008637e-01,1.252266e+02,1.152013e+02,1.291988e+02,1.286152e+02,1.249666e+02,1.274080e+02
3.116000e-01,1.253008e+02,1.136635e+02,1.288460e+02,1.283621e+02,1.245253e+02,1.266457e+02
3.116000e-01,1.253008e+02,1.136635e+02,1.288460e+02,1.283621e+02,1.245253e+02,1.266457e+02
3.223363e-01,1.254218e+02,1.121239e+02,1.285138e+02,1.281093e+02,1.240769e+02,1.258728e+02
3.280000e-01,1.254963e+02,1.113112e+02,1.283523e+02,1.279878e+02,1.238444e+02,1.254504e+02
3.336637e-01,1.255734e+02,1.104984e+02,1.282030e+02,1.278815e+02,1.236285e+02,1.250355e+02
3.336637e-01,1.255734e+02,1.104984e+02,1.282030e+02,1.278815e+02,1.236285e+02,1.250355e+02
3.444000e-01,1.257146e+02,1.089574e+02,1.279540e+02,1.277190e+02,1.232361e+02,1.242295e+02
3.444000e-01,1.257146e+02,1.089574e+02,1.279540e+02,1.277190e+02,1.232361e+02,1.242295e+02
3.551363e-01,1.258324e+02,1.074159e+02,1.277453e+02,1.275952e+02,1.228451e+02,1.234480e+02
3.608000e-01,1.258791e+02,1.066029e+02,1.276463e+02,1.275323e+02,1.226207e+02,1.230506e+02
3.664637e-01,1.259126e+02,1.057900e+02,1.275508e+02,1.274629e+02,1.223792e+02,1.226650e+02
3.664637e-01,1.259126e+02,1.057900e+02,1.275508e+02,1.274629e+02,1.223792e+02,1.226650e+02
3.772000e-01,1.259335e+02,1.042495e+02,1.273662e+02,1.272947e+02,1.218701e+02,1.219334e+02
3.772000e-01,1.259335e+02,1.042495e+02,1.273662e+02,1.272947e+02,1.218701e+02,1.219334e+02
3.879363e-01,1.258910e+02,1.027092e+02,1.271556e+02,1.270658e+02,1.213472e+02,1.211701e+02
3.936000e-01,1.258407e+02,1.018974e+02,1.270266e+02,1.269240e+02,1.210912e+02,1.207417e+02
3.992637e-01,1.257704e+02,1.010856e+02,1.268822e+02,1.267747e+02,1.208615e+02,1.203007e+02
3.992637e-01,1.257704e+02,1.010856e+02,1.268822e+02,1.267747e+02,1.208615e+02,1.203007e+02
4.100000e-01,1.255803e+02,9.954723e+01,1.265615e+02,1.264963e+02,1.204839e+02,1.194529e+02
4.100000e-01,1.255803e+02,9.954723e+01,1.265615e+02,1.264963e+02,1.204839e+02,1.194529e+02
4.207363e-01,1.253152e+02,9.801048e+01,1.261805e+02,1.262678e+02,1.201239e+02,1.186729e+02
4.264000e-01,1.251457e+02,9.720025e+01,1.259591e+02,1.261774e+02,1.199027e+02,1.183001e+02
4.320637e-01,1.249566e+02,9.639041e+01,1.257284e+02,1.261092e+02,1.196559e+02,1.179649e+02
4.320637e-01,1.249566e+02,9.639041e+01,1.257284e+02,1.261092e+02,1.196559e+02,1.179649e+02
4.428000e-01,1.245485e+02,9.485662e+01,1.252825e+02,1.260149e+02,1.190985e+02,1.173161e+02
4.428000e-01,1.245485e+02,9.485662e+01,1.252825e+02,1.260149e+02,1.190985e+02,1.173161e+02
4.535363e-01,1.240872e+02,9.332318e+01,1.248626e+02,1.259201e+02,1.185199e+02,1.165582e+02
4.592000e-01,1.238291e+02,9.251441e+01,1.246663e+02,1.258488e+02,1.182509e+02,1.160800e+02
4.648637e-01,1.235662e+02,9.170534e+01,1.244954e+02,1.257564e+02,1.180352e+02,1.155729e+02
4.648637e-01,1.235662e+02,9.170534e+01,1.244954e+02,1.257564e+02,1.180352e+02,1.155729e+02
4.756000e-01,1.230743e+02,9.016980e+01,1.242514e+02,1.255130e+02,1.177278e+02,1.145841e+02
4.756000e-01,1.230743e+02,9.016980e+01,1.242514e+02,1.255130e+02,1.177278e+02,1.145841e+02
4.863363e-01,1.226288e+02,8.862808e+01,1.241094e+02,1.252026e+02,1.174385e+02,1.138085e+02
4.920000e-01,1.224300e+02,8.781036e+01,1.240663e+02,1.250313e+02,1.172302e+02,1.135327e+02
4.976637e-01,1.222666e+02,8.698846e+01,1.240366e+02,1.248699e+02,1.169651e+02,1.133237e+02
4.976637e-01,1.222666e+02,8.698846e+01,1.240366e+02,1.248699e+02,1.169651e+02,1.133237e+02
5.084000e-01,1.220728e+02,8.541419e+01,1.239852e+02,1.246268e+02,1.163171e+02,1.129017e+02
5.084000e-01,1.220728e+02,8.541419e+01,1.239852e+02,1.246268e+02,1.163171e+02,1.129017e+02
5.191363e-01,1.220501e+02,8.381104e+01,1.238951e+02,1.244946e+02,1.156533e+02,1.121489e+02
5.248000e-01,1.221050e+02,8.294974e+01,1.238151e+02,1.244617e+02,1.153898e+02,1.115422e+02
5.304637e-01,1.222005e+02,8.207578e+01,1.237056e+02,1.244427e+02,1.152310e+02,1.108197e+02
5.304637e-01,1.222005e+02,8.207578e+01,1.237056e+02,1.244427e+02,1.152310e+02,1.108197e+02
5.412000e-01,1.224693e+02,8.038047e+01,1.234033e+02,1.243911e+02,1.151293e+02,1.093395e+02
5.412000e-01,1.224693e+02,8.038047e+01,1.234033e+02,1.243911e+02,1.151293e+02,1.093395e+02
5.519363e-01,1.228071e+02,7.863274e+01,1.229675e+02,1.242549e+02,1.150159e+02,1.085016e+02
5.576000e-01,1.229960e+02,7.769410e+01,1.226845e+02,1.241311e+02,1.148251e+02,1.084992e+02
5.632637e-01,1.231840e+02,7.675089e+01,1.223694e+02,1.239718e+02,1.145070e+02,1.086993e+02
5.632637e-01,1.231840e+02,7.675089e+01,1.223694e+02,1.239718e+02,1.145070e+02,1.086993e+02
5.740000e-01,1.235202e+02,7.498528e+01,1.217063e+02,1.235875e+02,1.134967e+02,1.090162e+02
5.740000e-01,1.235202e+02,7.498528e+01,1.217063e+02,1.235875e+02,1.134967e+02,1.090162e+02
5.847363e-01,1.238088e+02,7.334975e+01,1.210130e+02,1.231627e+02,1.121317e+02,1.086808e+02
5.904000e-01,1.239378e+02,7.259296e+01,1.206647e+02,1.229566e+02,1.114568e+02,1.081246e+02
5.960637e-01,1.240486e+02,7.194075e+01,1.203464e+02,1.227815e+02,1.109799e+02,1.072756e+02
5.960637e-01,1.240486e+02,7.194075e+01,1.203464e+02,1.227815e+02,1.109799e+02,1.072756e+02
6.068000e-01,1.242116e+02,7.103999e+01,1.198601e+02,1.225598e+02,1.108758e+02,1.047688e+02
6.068000e-01,1.242116e+02,7.103999e+01,1.198601e+02,1.225598e+02,1.108758e+02,1.047688e+02
6.175363e-01,1.243204e+02,7.055847e+01,1.195517e+02,1.224800e+02,1.115159e+02,1.010004e+02
6.232000e-01,1.243597e+02,7.043159e+01,1.194535e+02,1.224777e+02,1.119139e+02,9.866372e+01
6.288637e-01,1.243893e+02,7.036295e+01,1.193903e+02,1.224933e+02,1.122758e+02,9.682031e+01
6.288637e-01,1.243893e+02,7.036295e+01,1.193903e+02,1.224933e+02,1.122758e+02,9.682031e+01
6.396000e-01,1.244261e+02,7.032672e+01,1.193364e+02,1.225397e+02,1.127734e+02,9.734660e+01
6.396000e-01,1.244261e+02,7.032672e+01,1.193364e+02,1.225397e+02,1.127734e+02,9.734660e+01
6.503363e-01,1.244451e+02,7.034276e+01,1.193287e+02,1.225860e+02,1.130421e+02,9.990246e+01
6.560000e-01,1.244509e+02,7.035716e+01,1.193326e+02,1.226046e+02,1.131107e+02,1.009157e+02
6.616637e-01,1.244547e+02,7.037196e+01,1.193388e+02,1.226209e+02,1.131490e+02,1.016688e+02
6.616637e-01,1.244547e+02,7.037196e+01,1.193388e+02,1.226209e+02,1.131490e+02,1.016688e+02
6.724000e-01,1.244589e+02,7.039479e+01,1.193510e+02,1.226407e+02,1.131544e+02,1.024896e+02
6.724000e-01,1.244589e+02,7.039479e+01,1.193510e+02,1.226407e+02,1.131544e+02,1.024896e+02
6.831363e-01,1.244599e+02,7.041079e+01,1.193599e+02,1.226512e+02,1.131201e+02,1.027547e+02
6.888000e-01,1.244605e+02,7.041642e+01,1.193636e+02,1.226544e+02,1.130966e+02,1.027406e+02
6.944637e-01,1.244602e+02,7.042061e+01,1.193661e+02,1.226570e+02,1.130758e+02,1.026595e+02
6.944637e-01,1.244602e+02,7.042061e+01,1.193661e+02,1.226570e+02,1.130758e+02,1.026595e+02
7.052000e-01,1.244594e+02,7.042585e+01,1.193685e+02,1.226589e+02,1.130408e+02,1.023881e+02
7.052000e-01,1.244594e+02,7.042585e+01,1.193685e+02,1.226589e+02,1.130408e+02,1.023881e+02
7.159363e-01,1.244589e+02,7.042810e+01,1.193701e+02,1.226596e+02,1.130199e+02,1.020899e+02
7.216000e-01,1.244585e+02,7.042875e+01,1.193703e+02,1.226587e+02,1.130115e+02,1.019514e+02
7.272637e-01,1.244581e+02,7.042922e+01,1.193708e+02,1.226589e+02,1.130109e+02,1.018577e+02
7.272637e-01,1.244581e+02,7.042922e+01,1.193708e+02,1.226589e+02,1.130109e+02,1.018577e+02
7.380000e-01,1.244581e+02,7.043019e+01,1.193720e+02,1.226570e+02,1.130096e+02,1.017547e+02
7.380000e-01,1.244581e+02,7.043019e+01,1.193720e+02,1.226570e+02,1.130096e+02,1.017547e+02
7.487363e-01,1.244577e+02,7.043079e+01,1.193731e+02,1.226555e+02,1.130124e+02,1.017524e+02
7.544000e-01,1.244577e+02,7.043168e+01,1.193736e+02,1.226538e+02,1.130112e+02,1.017679e+02
7.600637e-01,1.244578e+02,7.043224e+01,1.193743e+02,1.226543e+02,1.130155e+02,1.018076e+02
7.600637e-01,1.244578e+02,7.043224e+01,1.193743e+02,1.226543e+02,1.130155e+02,1.018076e+02
7.708000e-01,1.244587e+02,7.043333e+01,1.193756e+02,1.226544e+02,1.130161e+02,1.018662e+02
7.708000e-01,1.244587e+02,7.043333e+01,1.193756e+02,1.226544e+02,1.130161e+02,1.018662e+02
7.815363e-01,1.244598e+02,7.043496e+01,1.193757e+02,1.226552e+02,1.130162e+02,1.019113e+02
7.872000e-01,1.244603e+02,7.043559e+01,1.193759e+02,1.226554e+02,1.130144e+02,1.019207e+02
7.928637e-01,1.244609e+02,7.043618e+01,1.193757e+02,1.226567e+02,1.130171e+02,1.019360e+02
7.928637e-01,1.244609e+02,7.043618e+01,1.193757e+02,1.226567e+02,1.130171e+02,1.019360e+02
8.036000e-01,1.244620e+02,7.043733e+01,1.193744e+02,1.226571e+02,1.130175e+02,1.019386e+02
8.036000e-01,1.244620e+02,7.043733e+01,1.193744e+02,1.226571e+02,1.130175e+02,1.019386e+02
8.143363e-01,1.244638e+02,7.043753e+01,1.193734e+02,1.226570e+02,1.130189e+02,1.019355e+02
