x(m),0.5 kHz,0.6 kHz,0.7 kHz,0.8 kHz,0.9 kHz,1.0 kHz,1.1 kHz,1.2 kHz,1.3 kHz,1.4 kHz,1.5 kHz,1.6 kHz,1.7 kHz,1.8 kHz,1.9 kHz,2.0 kHz,2.1 kHz,2.2 kHz,2.3 kHz,2.4 kHz,2.5 kHz,2.6 kHz,2.7 kHz,2.8 kHz,2.9 kHz,3.0 kHz
7.62E-05,130.126,130.164,130.171,130.062,130.216,130.046,130.153,129.581,130.228,130.122,130.333,130.229,129.733,130.268,130.353,130.248,130.202,130.13,130.209,129.761,129.705,130.065,130.307,130.1,130.482,130.091
0.0254762,131.01,132.479,132.331,125.296,127.263,129.611,132.637,134.299,129.938,127.919,128.657,129.568,129.997,130.956,131.239,130.801,130.334,129.796,129.556,128.78,128.993,129.999,130.785,130.904,130.675,129.456
0.1016762,130.884,135.234,139.108,133.756,128.086,122.79,122.944,132.23,132.673,130.975,130.665,130.525,130.345,131.24,131.437,131.131,130.757,130.405,130.233,129.408,129.29,129.919,130.581,130.826,131.222,130.826
0.2032508,125.77,129.111,132.955,129.557,127.657,128.453,132.608,137.094,134.96,132.173,131.33,131.097,130.931,131.675,131.869,131.694,131.617,131.401,131.324,130.838,131.265,132.341,133.208,133.446,133.68,132.974
0.2286508,125.523,127.598,130.519,125.854,123.427,124.986,130.049,135.523,133.847,131.398,130.633,130.432,130.362,130.636,130.916,130.899,130.465,129.89,129.653,128.88,129.068,130.354,131.711,132.293,132.801,132.32
0.2540508,126.255,127.836,130.462,124.507,120.488,122.004,127.977,134.374,133.168,131.07,130.705,130.056,129.994,130.702,130.943,130.564,129.906,129.457,128.761,127.411,126.74,127.351,129.068,130.489,131.544,131.421
0.2794254,125.618,127.687,130.249,123.76,117.974,118.482,125.32,132.668,132.098,130.175,130.182,129.408,129.267,130.435,130.487,129.927,129.693,129.049,128.416,127.054,125.979,125.152,125.14,126.853,128.97,129.594
0.3048254,124.603,127.67,130.018,123.231,116.292,115.346,122.871,131.185,131.303,129.425,129.424,129.313,129.331,129.82,130.004,130.057,129.493,128.627,128.189,126.994,126.111,125.1,123.117,122.825,125.834,127.518
0.3175508,123.655,127.463,129.546,122.475,115.098,114.291,121.393,130.175,130.734,128.901,128.714,129.136,129.218,129.303,129.647,129.78,128.951,128.417,127.773,126.398,125.709,124.854,122.361,120.641,123.955,126.213
0.3302508,123.064,127.198,129.28,122.041,114.554,112.321,120.137,129.234,130.215,128.5,128.209,128.874,128.951,129.072,129.592,129.361,128.58,128.299,127.52,126.042,125.328,124.817,122.271,118.924,122.102,125.087
0.3429762,122.707,126.9,128.828,121.441,113.836,111.125,118.936,128.266,129.655,128.149,127.922,128.372,128.439,129.081,129.558,128.831,128.442,127.973,127.208,125.896,125.045,124.616,122.65,117.902,119.896,123.863
0.3556508,123.165,126.841,128.857,121.306,113.703,109.91,117.758,127.599,129.267,128.035,127.941,128.115,128.05,129.288,129.507,128.688,128.664,127.826,127.188,125.934,124.985,124.465,123.123,117.898,117.854,122.757
0.3683762,123.898,126.462,128.551,120.987,113.366,108.49,116.46,126.78,128.762,127.863,128.194,127.671,127.701,129.321,129.286,128.844,128.725,127.632,127.11,125.733,124.736,124.197,123.032,118.41,116.044,121.654
0.3810508,124.392,126.076,128.245,120.532,112.823,107.555,114.945,125.921,127.978,127.466,128.102,127.25,127.351,128.831,128.712,128.885,128.287,127.363,126.847,125.198,124.304,123.631,122.381,118.589,113.754,120.144
0.3937508,125.513,126.263,128.409,120.74,112.835,106.633,113.971,125.407,127.713,127.465,128.343,127.689,127.966,128.795,128.914,129.387,128.411,128.011,127.281,125.568,124.65,123.923,122.398,118.847,113.51,120.093
0.4064508,125.769,125.913,127.955,120.08,111.524,106.597,112.658,124.47,126.689,126.682,127.854,127.496,127.957,128.078,128.627,128.733,127.695,127.551,126.465,125.061,123.772,122.907,121.351,117.801,111.419,118.16
0.4191254,126.2,126.149,128.016,120.074,111.089,105.043,111.564,124.021,126.241,126.405,127.46,127.832,128.274,128.167,129.069,128.364,128,127.377,126.47,125.316,123.765,122.754,121.473,117.941,109.507,116.961
0.4318508,126.159,126.45,127.82,119.635,109.855,104.122,109.904,123.211,125.613,125.706,126.636,127.722,127.969,128.188,128.942,127.766,128.021,126.685,126.109,124.605,123.292,121.903,120.778,117.616,109.321,115.284
0.4445762,125.807,126.743,127.893,119.527,109.54,101.759,109.158,122.713,125.356,125.369,125.876,127.455,127.457,128.587,128.78,128.002,128.055,126.743,126.246,124.069,123.132,121.464,119.437,116.9,110.164,114.568
0.4573016,125.221,127.02,127.892,119.413,108.771,99.356,108.209,122.193,125.443,125.242,125.439,127.095,126.914,128.814,128.53,128.649,127.897,127.232,126.44,124.247,123.067,121.524,118.077,115.689,109.689,114.345
0.470027,123.941,126.826,127.645,118.833,108.311,99.027,107.644,121.377,125.335,124.917,125.257,126.137,126.052,128.184,127.776,128.543,127.12,127.075,125.784,124.359,122.617,121.373,117.707,113.887,106.696,112.07
0.4827016,122.448,126.454,127.395,118.405,107.003,98.493,106.637,120.73,125.376,124.979,125.576,125.509,125.951,127.564,127.613,128.185,126.84,126.674,125.375,124.433,122.543,121.344,118.636,113.517,106.138,109.392
0.495427,120.641,125.765,127.029,117.778,106.523,100.164,105.736,119.849,125.345,124.981,126.166,125.402,126.453,126.794,127.809,127.323,127.057,125.896,125.226,123.502,122.117,120.49,118.763,113.68,107.773,108.816
0.5081016,119.557,124.723,126.401,117.153,105.115,100.11,105.064,118.9,124.994,124.91,126.524,125.592,126.929,126.502,128.055,126.55,127.283,125.436,125.212,122.323,121.447,119.113,117.09,112.642,107.527,108.984
0.5335016,121.506,122.969,124.444,114.948,101.188,95.308,101.283,116.366,123.46,124.357,126.04,126.408,126.823,127.562,127.628,127.489,126.585,126.374,124.881,123.809,121.399,120.315,115.104,108.199,101.171,105.178
0.5589016,125.002,124.784,125.204,114.047,100.122,99.056,94.954,112.922,120.43,122.918,123.815,126.06,125.154,127.617,126.638,127.689,125.929,125.274,124.093,121.861,121.018,118.842,118.001,110.507,104.565,104.026
0.5843016,126.746,127.168,128.376,117.085,102.922,101.592,91.764,110.062,116.267,120.868,121.578,123.853,124.329,125.499,126.955,125.343,126.467,124.268,123.989,120.938,117.407,114.619,105.048,103.825,100.055,104.345
0.6097016,127.183,127.977,129.596,119.62,105.151,104.697,81.785,110.22,116.321,119.395,122.39,121.972,125.068,124.739,126.574,126.294,125.233,125.927,123.513,123.891,121.291,118.959,115.755,105.777,95.047,93.054
0.7113524,125.313,128.558,128.318,119.606,106.694,101.344,88.591,110.158,115.936,119.948,122.509,122.307,124.844,125.879,125.389,127.174,126.096,124.748,125.368,122.428,120.495,119.67,114.711,107.814,98.129,93.963
0.787527,125.519,128.306,130.021,119.446,105.545,102.555,88.029,109.164,118.132,120.655,121.366,122.877,125.211,125.328,125.668,127.277,126.476,124.837,125.087,123.809,120.622,119.077,116.34,108.595,98.223,97.167
0.812927,125.923,127.968,129.927,120.095,104.965,102.12,88.399,109.37,116.509,120.433,122.631,122.515,124.313,126.548,126.243,125.566,126.541,125.855,123.57,122.47,121.903,118.939,114.631,109.137,99.311,96.149
