x(m),SPL1,SPL2,SPL3,SPL4,SPL5,SPL6
0.000000e+00,1.300400e+02,1.299480e+02,1.302670e+02,1.299290e+02,1.303380e+02,1.302590e+02
5.616441e-03,1.303843e+02,1.298523e+02,1.297858e+02,1.299834e+02,1.301388e+02,1.301057e+02
1.123288e-02,1.306724e+02,1.296134e+02,1.291517e+02,1.299761e+02,1.298027e+02,1.302333e+02
1.684933e-02,1.309054e+02,1.293089e+02,1.285712e+02,1.300230e+02,1.294263e+02,1.305443e+02
2.246578e-02,1.311200e+02,1.289479e+02,1.279750e+02,1.299593e+02,1.290777e+02,1.309867e+02
2.808220e-02,1.313312e+02,1.283709e+02,1.274612e+02,1.300012e+02,1.288881e+02,1.312459e+02
3.369861e-02,1.314401e+02,1.277954e+02,1.273924e+02,1.298972e+02,1.287865e+02,1.313231e+02
3.931508e-02,1.315389e+02,1.273370e+02,1.274136e+02,1.296302e+02,1.288421e+02,1.311797e+02
4.299193e-02,1.316057e+02,1.269421e+02,1.275042e+02,1.295122e+02,1.290372e+02,1.309087e+02
5.054795e-02,1.317533e+02,1.257883e+02,1.281309e+02,1.292989e+02,1.294409e+02,1.298923e+02
5.422475e-02,1.317953e+02,1.253517e+02,1.285318e+02,1.291352e+02,1.296317e+02,1.293346e+02
6.178083e-02,1.318062e+02,1.246796e+02,1.291422e+02,1.290928e+02,1.298843e+02,1.282843e+02
6.545768e-02,1.318009e+02,1.242892e+02,1.294250e+02,1.291431e+02,1.299105e+02,1.280781e+02
6.933691e-02,1.318323e+02,1.238765e+02,1.296829e+02,1.292709e+02,1.298554e+02,1.281543e+02
7.669050e-02,1.319482e+02,1.234406e+02,1.300646e+02,1.295667e+02,1.295269e+02,1.290132e+02
8.056973e-02,1.319638e+02,1.235716e+02,1.302174e+02,1.297001e+02,1.293597e+02,1.296192e+02
8.792342e-02,1.319214e+02,1.238514e+02,1.303893e+02,1.299205e+02,1.290574e+02,1.307227e+02
9.180265e-02,1.318582e+02,1.241623e+02,1.303644e+02,1.299914e+02,1.290427e+02,1.311803e+02
9.915627e-02,1.318125e+02,1.249525e+02,1.301417e+02,1.300877e+02,1.291653e+02,1.318777e+02
1.030355e-01,1.318118e+02,1.253840e+02,1.299126e+02,1.300862e+02,1.293083e+02,1.321563e+02
1.103891e-01,1.316047e+02,1.264967e+02,1.291990e+02,1.300243e+02,1.296394e+02,1.325399e+02
1.142684e-01,1.314368e+02,1.270404e+02,1.288261e+02,1.299452e+02,1.297329e+02,1.326838e+02
1.216220e-01,1.312391e+02,1.277441e+02,1.281332e+02,1.295497e+02,1.298396e+02,1.327292e+02
1.255013e-01,1.311362e+02,1.282237e+02,1.278172e+02,1.293601e+02,1.297707e+02,1.326071e+02
1.328549e-01,1.306963e+02,1.288976e+02,1.274085e+02,1.291406e+02,1.293781e+02,1.320246e+02
1.367341e-01,1.303994e+02,1.290622e+02,1.273311e+02,1.290461e+02,1.290890e+02,1.314702e+02
1.404110e-01,1.301382e+02,1.292213e+02,1.273340e+02,1.290786e+02,1.287559e+02,1.307725e+02
1.479670e-01,1.297804e+02,1.294801e+02,1.277524e+02,1.291853e+02,1.282727e+02,1.286870e+02
1.516438e-01,1.296161e+02,1.295167e+02,1.280482e+02,1.293325e+02,1.282068e+02,1.273997e+02
1.591999e-01,1.289750e+02,1.294616e+02,1.286728e+02,1.296936e+02,1.285485e+02,1.251516e+02
1.628767e-01,1.286020e+02,1.294420e+02,1.290270e+02,1.298743e+02,1.289080e+02,1.251046e+02
1.684932e-01,1.280637e+02,1.293535e+02,1.295977e+02,1.301475e+02,1.296062e+02,1.265932e+02
1.741096e-01,1.276812e+02,1.291436e+02,1.300223e+02,1.303544e+02,1.303071e+02,1.286303e+02
1.797260e-01,1.273242e+02,1.289534e+02,1.303781e+02,1.304665e+02,1.309109e+02,1.303615e+02
1.853425e-01,1.268084e+02,1.287510e+02,1.306688e+02,1.304784e+02,1.313505e+02,1.316471e+02
1.909589e-01,1.260939e+02,1.284245e+02,1.308236e+02,1.303783e+02,1.315969e+02,1.325393e+02
1.965753e-01,1.257958e+02,1.279990e+02,1.308796e+02,1.302377e+02,1.316697e+02,1.331030e+02
2.021917e-01,1.255509e+02,1.276402e+02,1.308224e+02,1.300230e+02,1.315672e+02,1.334250e+02
2.078082e-01,1.251007e+02,1.272368e+02,1.307309e+02,1.297786e+02,1.313261e+02,1.335509e+02
2.134247e-01,1.244726e+02,1.266782e+02,1.305914e+02,1.295017e+02,1.309457e+02,1.335319e+02
2.190411e-01,1.240835e+02,1.264006e+02,1.304421e+02,1.292489e+02,1.304270e+02,1.334133e+02
2.246575e-01,1.238059e+02,1.261918e+02,1.302771e+02,1.290296e+02,1.298157e+02,1.332173e+02
2.302740e-01,1.235730e+02,1.257650e+02,1.301306e+02,1.288519e+02,1.291020e+02,1.329771e+02
2.339508e-01,1.233801e+02,1.255839e+02,1.300215e+02,1.287744e+02,1.285845e+02,1.328039e+02
2.415068e-01,1.228744e+02,1.254572e+02,1.298026e+02,1.286568e+02,1.274131e+02,1.324242e+02
2.451837e-01,1.226471e+02,1.252906e+02,1.297217e+02,1.286182e+02,1.268145e+02,1.322295e+02
2.527397e-01,1.224448e+02,1.248991e+02,1.295542e+02,1.285575e+02,1.255594e+02,1.318054e+02
2.564165e-01,1.224403e+02,1.248300e+02,1.294894e+02,1.285300e+02,1.249792e+02,1.315833e+02
2.602958e-01,1.224205e+02,1.247125e+02,1.294395e+02,1.285002e+02,1.244091e+02,1.313333e+02
2.676494e-01,1.221040e+02,1.243400e+02,1.293366e+02,1.284353e+02,1.235607e+02,1.308151e+02
2.715287e-01,1.219427e+02,1.242402e+02,1.292875e+02,1.283919e+02,1.232783e+02,1.305203e+02
2.788823e-01,1.219660e+02,1.239941e+02,1.291537e+02,1.283023e+02,1.231183e+02,1.299360e+02
2.827615e-01,1.220720e+02,1.238007e+02,1.290859e+02,1.282579e+02,1.232123e+02,1.296242e+02
2.901152e-01,1.219980e+02,1.236006e+02,1.289490e+02,1.281963e+02,1.236366e+02,1.290554e+02
2.939944e-01,1.218892e+02,1.234460e+02,1.288856e+02,1.281795e+02,1.239391e+02,1.287744e+02
3.013480e-01,1.219878e+02,1.230948e+02,1.287618e+02,1.281778e+02,1.245553e+02,1.282829e+02
3.052273e-01,1.221113e+02,1.230550e+02,1.286899e+02,1.281840e+02,1.248778e+02,1.280391e+02
3.125809e-01,1.222222e+02,1.228429e+02,1.285341e+02,1.281947e+02,1.254127e+02,1.275778e+02
3.164602e-01,1.221526e+02,1.227031e+02,1.284375e+02,1.282021e+02,1.256465e+02,1.273159e+02
3.201370e-01,1.221091e+02,1.226117e+02,1.283373e+02,1.282015e+02,1.258286e+02,1.270518e+02
3.276930e-01,1.221336e+02,1.224802e+02,1.281298e+02,1.281716e+02,1.260947e+02,1.264469e+02
3.313698e-01,1.221402e+02,1.223345e+02,1.280286e+02,1.281392e+02,1.261610e+02,1.261295e+02
3.389259e-01,1.220098e+02,1.223500e+02,1.277868e+02,1.280178e+02,1.261692e+02,1.254683e+02
3.426027e-01,1.219323e+02,1.223488e+02,1.276834e+02,1.279410e+02,1.261060e+02,1.251682e+02
3.501588e-01,1.217246e+02,1.220934e+02,1.274755e+02,1.277882e+02,1.258493e+02,1.246192e+02
3.538356e-01,1.216670e+02,1.219953e+02,1.273832e+02,1.277214e+02,1.256705e+02,1.243975e+02
3.594520e-01,1.217491e+02,1.218512e+02,1.272741e+02,1.276380e+02,1.253506e+02,1.241110e+02
3.650685e-01,1.215371e+02,1.217226e+02,1.271355e+02,1.275780e+02,1.249617e+02,1.238227e+02
3.706849e-01,1.210989e+02,1.215978e+02,1.270357e+02,1.275534e+02,1.245580e+02,1.235150e+02
3.763014e-01,1.204319e+02,1.213691e+02,1.270290e+02,1.275552e+02,1.241527e+02,1.231194e+02
3.819178e-01,1.203577e+02,1.210905e+02,1.270144e+02,1.275835e+02,1.237947e+02,1.226474e+02
3.875342e-01,1.205849e+02,1.210474e+02,1.270364e+02,1.276182e+02,1.235181e+02,1.221199e+02
3.931507e-01,1.205559e+02,1.209118e+02,1.270847e+02,1.276325e+02,1.233244e+02,1.215960e+02
3.987671e-01,1.200099e+02,1.207487e+02,1.270777e+02,1.276295e+02,1.232047e+02,1.211519e+02
4.043835e-01,1.193157e+02,1.205786e+02,1.270734e+02,1.275622e+02,1.230996e+02,1.208312e+02
4.100000e-01,1.187503e+02,1.204529e+02,1.270664e+02,1.274555e+02,1.229764e+02,1.206448e+02
4.156165e-01,1.193544e+02,1.204035e+02,1.269936e+02,1.273168e+02,1.228101e+02,1.205316e+02
4.212329e-01,1.195627e+02,1.202362e+02,1.269272e+02,1.271657e+02,1.225824e+02,1.203910e+02
4.249097e-01,1.194607e+02,1.200738e+02,1.268685e+02,1.270720e+02,1.224023e+02,1.202411e+02
4.324658e-01,1.184613e+02,1.198887e+02,1.266364e+02,1.269103e+02,1.219702e+02,1.197326e+02
4.361426e-01,1.180559e+02,1.198779e+02,1.265140e+02,1.268696e+02,1.217681e+02,1.193883e+02
4.436986e-01,1.183136e+02,1.196620e+02,1.262052e+02,1.268492e+02,1.214461e+02,1.185527e+02
4.473755e-01,1.187492e+02,1.195315e+02,1.260170e+02,1.268750e+02,1.213841e+02,1.181526e+02
4.512547e-01,1.188266e+02,1.194958e+02,1.258240e+02,1.269228e+02,1.214041e+02,1.178024e+02
4.586083e-01,1.179245e+02,1.193847e+02,1.254110e+02,1.270280e+02,1.216776e+02,1.174880e+02
4.624876e-01,1.172426e+02,1.194348e+02,1.251981e+02,1.270880e+02,1.219269e+02,1.175137e+02
4.698412e-01,1.178599e+02,1.194193e+02,1.248847e+02,1.271387e+02,1.224681e+02,1.177305e+02
4.737205e-01,1.183366e+02,1.194030e+02,1.247389e+02,1.271225e+02,1.227425e+02,1.178302e+02
4.810741e-01,1.176447e+02,1.194519e+02,1.245712e+02,1.269893e+02,1.231371e+02,1.178066e+02
4.849533e-01,1.167120e+02,1.194155e+02,1.245415e+02,1.268773e+02,1.232449e+02,1.176222e+02
4.923070e-01,1.163065e+02,1.192958e+02,1.245561e+02,1.266245e+02,1.231966e+02,1.169408e+02
4.961862e-01,1.172913e+02,1.192746e+02,1.246443e+02,1.264810e+02,1.230082e+02,1.164255e+02
5.035398e-01,1.183056e+02,1.189774e+02,1.247967e+02,1.262345e+02,1.223034e+02,1.153434e+02
5.074191e-01,1.177112e+02,1.187200e+02,1.248930e+02,1.261611e+02,1.217438e+02,1.148444e+02
5.110959e-01,1.170708e+02,1.185194e+02,1.250053e+02,1.261327e+02,1.211045e+02,1.145207e+02
5.186520e-01,1.160662e+02,1.181775e+02,1.252310e+02,1.262045e+02,1.196140e+02,1.144326e+02
5.223288e-01,1.162590e+02,1.178929e+02,1.252973e+02,1.262941e+02,1.190029e+02,1.146163e+02
5.298848e-01,1.176704e+02,1.172135e+02,1.254166e+02,1.265302e+02,1.187376e+02,1.150663e+02
5.335617e-01,1.175295e+02,1.170143e+02,1.254342e+02,1.266410e+02,1.192035e+02,1.152015e+02
5.411177e-01,1.153173e+02,1.165234e+02,1.253800e+02,1.267853e+02,1.207394e+02,1.151578e+02
5.447945e-01,1.152519e+02,1.162058e+02,1.252928e+02,1.267966e+02,1.214795e+02,1.149674e+02
5.504109e-01,1.162781e+02,1.157167e+02,1.250882e+02,1.267352e+02,1.223800e+02,1.144817e+02
5.560274e-01,1.175818e+02,1.153771e+02,1.248270e+02,1.265598e+02,1.229036e+02,1.138751e+02
5.616439e-01,1.169551e+02,1.148933e+02,1.244776e+02,1.262861e+02,1.230236e+02,1.133054e+02
5.672603e-01,1.162472e+02,1.143754e+02,1.240784e+02,1.259281e+02,1.227104e+02,1.129612e+02
5.728767e-01,1.167276e+02,1.141414e+02,1.236013e+02,1.255511e+02,1.219366e+02,1.129190e+02
5.784932e-01,1.182316e+02,1.139844e+02,1.230854e+02,1.252034e+02,1.206632e+02,1.130872e+02
5.841096e-01,1.191706e+02,1.138665e+02,1.225350e+02,1.249735e+02,1.188610e+02,1.132947e+02
5.897260e-01,1.190864e+02,1.140982e+02,1.220053e+02,1.248941e+02,1.166496e+02,1.133806e+02
5.953425e-01,1.186219e+02,1.144368e+02,1.215479e+02,1.249843e+02,1.147406e+02,1.132757e+02
6.009589e-01,1.194653e+02,1.147986e+02,1.211924e+02,1.251959e+02,1.146714e+02,1.129628e+02
6.065753e-01,1.204886e+02,1.152979e+02,1.209844e+02,1.254723e+02,1.162824e+02,1.124755e+02
6.121918e-01,1.205527e+02,1.156276e+02,1.208937e+02,1.257553e+02,1.181291e+02,1.119121e+02
6.158686e-01,1.202876e+02,1.157828e+02,1.208906e+02,1.259244e+02,1.191521e+02,1.115655e+02
6.234247e-01,1.200872e+02,1.160984e+02,1.210000e+02,1.261956e+02,1.207119e+02,1.111421e+02
6.271015e-01,1.203347e+02,1.161824e+02,1.210811e+02,1.262855e+02,1.212450e+02,1.111637e+02
6.346575e-01,1.205921e+02,1.163033e+02,1.212742e+02,1.263887e+02,1.219769e+02,1.116985e+02
6.383344e-01,1.203333e+02,1.163639e+02,1.213718e+02,1.264038e+02,1.221917e+02,1.121286e+02
6.422136e-01,1.200513e+02,1.164026e+02,1.214664e+02,1.264009e+02,1.223325e+02,1.126329e+02
6.495672e-01,1.193673e+02,1.165355e+02,1.216108e+02,1.263638e+02,1.224133e+02,1.135817e+02
6.534464e-01,1.194274e+02,1.166093e+02,1.216641e+02,1.263356e+02,1.223693e+02,1.140246e+02
6.608001e-01,1.197806e+02,1.166674e+02,1.217514e+02,1.262874e+02,1.221688e+02,1.146861e+02
6.646794e-01,1.197640e+02,1.166774e+02,1.217775e+02,1.262756e+02,1.220078e+02,1.149282e+02
6.720330e-01,1.193611e+02,1.166353e+02,1.218206e+02,1.262790e+02,1.216434e+02,1.151762e+02
6.759122e-01,1.195096e+02,1.165699e+02,1.218322e+02,1.262954e+02,1.214324e+02,1.151902e+02
6.832659e-01,1.192493e+02,1.164507e+02,1.218086e+02,1.263390e+02,1.210703e+02,1.149951e+02
6.871451e-01,1.193420e+02,1.166207e+02,1.217788e+02,1.263615e+02,1.209168e+02,1.147736e+02
6.944987e-01,1.201269e+02,1.166267e+02,1.217604e+02,1.263775e+02,1.207541e+02,1.141433e+02
6.983780e-01,1.204772e+02,1.165437e+02,1.217313e+02,1.263788e+02,1.207246e+02,1.137048e+02
7.020548e-01,1.206109e+02,1.165799e+02,1.217214e+02,1.263685e+02,1.207321e+02,1.132349e+02
7.096109e-01,1.207412e+02,1.166311e+02,1.217252e+02,1.263301e+02,1.208128e+02,1.121819e+02
7.132877e-01,1.205915e+02,1.166291e+02,1.217012e+02,1.263013e+02,1.208734e+02,1.116849e+02
7.208437e-01,1.202024e+02,1.169354e+02,1.216818e+02,1.262225e+02,1.209742e+02,1.108798e+02
7.245205e-01,1.204810e+02,1.170139e+02,1.217133e+02,1.261893e+02,1.210110e+02,1.106781e+02
7.301370e-01,1.212118e+02,1.168987e+02,1.217244e+02,1.261498e+02,1.210390e+02,1.106480e+02
7.357534e-01,1.214370e+02,1.169062e+02,1.217538e+02,1.261385e+02,1.210369e+02,1.109119e+02
7.413699e-01,1.209136e+02,1.169861e+02,1.217924e+02,1.261538e+02,1.210213e+02,1.113510e+02
7.469863e-01,1.202937e+02,1.168575e+02,1.218081e+02,1.261896e+02,1.210108e+02,1.118433e+02
7.526027e-01,1.203338e+02,1.167709e+02,1.218538e+02,1.262428e+02,1.210188e+02,1.123061e+02
7.582192e-01,1.206257e+02,1.168244e+02,1.218674e+02,1.262928e+02,1.210519e+02,1.126858e+02
7.638357e-01,1.206758e+02,1.168020e+02,1.218754e+02,1.263428e+02,1.211024e+02,1.129568e+02
7.694520e-01,1.202921e+02,1.166989e+02,1.218759e+02,1.263739e+02,1.211553e+02,1.131047e+02
7.750684e-01,1.194067e+02,1.167212e+02,1.218453e+02,1.263853e+02,1.211962e+02,1.131308e+02
7.806849e-01,1.194797e+02,1.167027e+02,1.218276e+02,1.263641e+02,1.212081e+02,1.130494e+02
7.863014e-01,1.201155e+02,1.165125e+02,1.217598e+02,1.263186e+02,1.211860e+02,1.128679e+02
7.919178e-01,1.209086e+02,1.163573e+02,1.216911e+02,1.262634e+02,1.211214e+02,1.126196e+02
7.955946e-01,1.208244e+02,1.163679e+02,1.216709e+02,1.262201e+02,1.210668e+02,1.124408e+02
8.031507e-01,1.198691e+02,1.162336e+02,1.216234e+02,1.261271e+02,1.209397e+02,1.120829e+02
8.068275e-01,1.198499e+02,1.161506e+02,1.216048e+02,1.260809e+02,1.208775e+02,1.119356e+02
8.125449e-01,1.207389e+02,1.161645e+02,1.215760e+02,1.260126e+02,1.207826e+02,1.117579e+02
