x(m),SPL1,SPL2,SPL3,SPL4,SPL5,SPL6
0.000000e+00,1.300400e+02,1.299480e+02,1.302670e+02,1.299290e+02,1.303380e+02,1.302590e+02
5.616441e-03,1.301959e+02,1.297328e+02,1.297520e+02,1.299270e+02,1.299443e+02,1.301783e+02
1.123288e-02,1.303127e+02,1.293347e+02,1.291658e+02,1.298835e+02,1.295051e+02,1.303809e+02
1.684933e-02,1.303937e+02,1.288398e+02,1.286936e+02,1.298493e+02,1.290894e+02,1.306729e+02
2.246578e-02,1.304692e+02,1.281948e+02,1.282757e+02,1.297871e+02,1.288884e+02,1.309825e+02
2.808220e-02,1.305349e+02,1.273096e+02,1.281260e+02,1.297675e+02,1.288304e+02,1.310931e+02
3.369861e-02,1.305079e+02,1.264919e+02,1.282438e+02,1.296367e+02,1.290316e+02,1.309994e+02
3.931508e-02,1.305082e+02,1.253975e+02,1.284193e+02,1.294695e+02,1.293995e+02,1.308145e+02
4.299193e-02,1.305182e+02,1.244584e+02,1.286413e+02,1.294115e+02,1.296661e+02,1.305224e+02
5.054795e-02,1.305299e+02,1.223764e+02,1.293431e+02,1.292593e+02,1.300295e+02,1.299299e+02
5.422475e-02,1.304998e+02,1.212229e+02,1.296180e+02,1.292273e+02,1.301572e+02,1.297134e+02
6.178083e-02,1.303827e+02,1.174135e+02,1.301702e+02,1.292618e+02,1.301219e+02,1.296667e+02
6.545768e-02,1.303546e+02,1.149447e+02,1.304089e+02,1.293175e+02,1.300005e+02,1.298244e+02
6.933691e-02,1.303666e+02,1.122184e+02,1.306115e+02,1.293946e+02,1.298019e+02,1.300907e+02
7.669050e-02,1.303505e+02,1.122951e+02,1.309453e+02,1.295056e+02,1.293870e+02,1.306229e+02
8.056973e-02,1.302685e+02,1.149094e+02,1.309914e+02,1.296116e+02,1.291849e+02,1.308356e+02
8.792342e-02,1.301024e+02,1.189297e+02,1.309508e+02,1.297469e+02,1.290108e+02,1.310495e+02
9.180265e-02,1.300339e+02,1.205721e+02,1.308156e+02,1.298443e+02,1.290151e+02,1.310933e+02
9.915627e-02,1.299156e+02,1.230226e+02,1.304088e+02,1.299047e+02,1.292766e+02,1.311104e+02
1.030355e-01,1.297875e+02,1.240707e+02,1.301457e+02,1.298819e+02,1.294776e+02,1.311330e+02
1.103891e-01,1.294103e+02,1.260345e+02,1.296000e+02,1.297629e+02,1.298167e+02,1.312694e+02
1.142684e-01,1.292541e+02,1.267570e+02,1.293119e+02,1.296276e+02,1.299526e+02,1.313499e+02
1.216220e-01,1.290659e+02,1.278399e+02,1.287253e+02,1.294430e+02,1.299720e+02,1.314784e+02
1.255013e-01,1.288356e+02,1.283409e+02,1.284476e+02,1.293470e+02,1.298579e+02,1.314688e+02
1.328549e-01,1.282674e+02,1.289023e+02,1.281170e+02,1.291879e+02,1.294656e+02,1.311587e+02
1.367341e-01,1.280356e+02,1.291435e+02,1.280812e+02,1.291633e+02,1.291926e+02,1.308069e+02
1.404110e-01,1.278854e+02,1.293454e+02,1.281701e+02,1.291385e+02,1.289518e+02,1.303445e+02
1.479670e-01,1.276766e+02,1.295350e+02,1.286036e+02,1.292680e+02,1.286203e+02,1.290462e+02
1.516438e-01,1.274468e+02,1.296023e+02,1.288730e+02,1.293765e+02,1.286227e+02,1.283562e+02
1.591999e-01,1.267386e+02,1.297124e+02,1.295452e+02,1.296213e+02,1.290627e+02,1.274192e+02
1.628767e-01,1.265219e+02,1.296461e+02,1.298517e+02,1.297282e+02,1.294254e+02,1.275115e+02
1.684932e-01,1.263396e+02,1.294399e+02,1.302544e+02,1.298839e+02,1.300227e+02,1.283746e+02
1.741096e-01,1.262284e+02,1.292559e+02,1.306188e+02,1.299989e+02,1.305876e+02,1.296257e+02
1.797260e-01,1.259212e+02,1.289215e+02,1.309060e+02,1.300737e+02,1.310304e+02,1.308380e+02
1.853425e-01,1.254277e+02,1.284534e+02,1.311085e+02,1.300973e+02,1.313168e+02,1.318253e+02
1.909589e-01,1.253418e+02,1.279952e+02,1.312376e+02,1.300617e+02,1.314347e+02,1.325514e+02
1.965753e-01,1.253153e+02,1.275438e+02,1.312831e+02,1.299817e+02,1.313836e+02,1.330359e+02
2.021917e-01,1.250797e+02,1.270319e+02,1.312897e+02,1.298695e+02,1.311820e+02,1.333216e+02
2.078082e-01,1.246782e+02,1.264832e+02,1.312275e+02,1.297507e+02,1.308308e+02,1.334553e+02
2.134247e-01,1.246590e+02,1.259229e+02,1.311456e+02,1.296268e+02,1.303414e+02,1.334726e+02
2.190411e-01,1.247156e+02,1.251446e+02,1.310370e+02,1.294885e+02,1.297465e+02,1.333962e+02
2.246575e-01,1.246075e+02,1.242896e+02,1.309128e+02,1.293667e+02,1.290297e+02,1.332515e+02
2.302740e-01,1.243015e+02,1.234537e+02,1.307773e+02,1.292508e+02,1.282403e+02,1.330430e+02
2.339508e-01,1.242094e+02,1.228161e+02,1.306915e+02,1.291754e+02,1.276884e+02,1.328788e+02
2.415068e-01,1.243751e+02,1.215604e+02,1.305308e+02,1.290151e+02,1.265231e+02,1.324831e+02
2.451837e-01,1.243994e+02,1.209364e+02,1.304616e+02,1.289400e+02,1.259744e+02,1.322640e+02
2.527397e-01,1.241478e+02,1.195130e+02,1.303419e+02,1.287864e+02,1.249914e+02,1.317754e+02
2.564165e-01,1.240476e+02,1.188135e+02,1.302910e+02,1.287208e+02,1.246272e+02,1.315244e+02
2.602958e-01,1.240915e+02,1.180248e+02,1.302412e+02,1.286575e+02,1.243502e+02,1.312552e+02
2.676494e-01,1.242595e+02,1.161881e+02,1.301522e+02,1.285615e+02,1.241422e+02,1.307462e+02
2.715287e-01,1.241744e+02,1.153084e+02,1.301056e+02,1.285244e+02,1.241850e+02,1.304842e+02
2.788823e-01,1.240063e+02,1.137586e+02,1.300205e+02,1.284861e+02,1.244587e+02,1.300019e+02
2.827615e-01,1.240381e+02,1.130872e+02,1.299636e+02,1.284774e+02,1.246569e+02,1.297485e+02
2.901152e-01,1.240802e+02,1.123678e+02,1.298371e+02,1.284764e+02,1.250563e+02,1.292542e+02
2.939944e-01,1.239574e+02,1.120134e+02,1.297567e+02,1.284781e+02,1.252512e+02,1.289774e+02
3.013480e-01,1.237442e+02,1.107849e+02,1.295915e+02,1.284723e+02,1.255561e+02,1.284158e+02
3.052273e-01,1.237772e+02,1.100003e+02,1.294952e+02,1.284618e+02,1.256789e+02,1.280999e+02
3.125809e-01,1.237540e+02,1.087039e+02,1.292836e+02,1.284033e+02,1.258314e+02,1.274809e+02
3.164602e-01,1.236649e+02,1.075647e+02,1.291688e+02,1.283564e+02,1.258642e+02,1.271533e+02
3.201370e-01,1.235481e+02,1.067816e+02,1.290459e+02,1.282983e+02,1.258672e+02,1.268533e+02
3.276930e-01,1.233678e+02,1.056043e+02,1.287947e+02,1.281623e+02,1.257874e+02,1.262887e+02
3.313698e-01,1.233775e+02,1.046143e+02,1.286839e+02,1.280888e+02,1.257074e+02,1.260440e+02
3.389259e-01,1.235299e+02,1.013854e+02,1.284625e+02,1.279411e+02,1.254743e+02,1.255976e+02
3.426027e-01,1.235414e+02,1.014116e+02,1.283529e+02,1.278740e+02,1.253343e+02,1.253907e+02
3.501588e-01,1.233896e+02,9.974968e+01,1.281804e+02,1.277750e+02,1.249981e+02,1.249456e+02
3.538356e-01,1.233531e+02,9.806238e+01,1.281099e+02,1.277497e+02,1.248266e+02,1.247042e+02
3.594520e-01,1.234404e+02,9.791227e+01,1.280380e+02,1.277448e+02,1.245811e+02,1.242856e+02
3.650685e-01,1.235754e+02,8.761527e+01,1.280227e+02,1.277535e+02,1.243402e+02,1.238097e+02
3.706849e-01,1.236693e+02,8.640144e+01,1.280082e+02,1.277807e+02,1.241388e+02,1.232946e+02
3.763014e-01,1.236761e+02,9.015206e+01,1.280147e+02,1.277946e+02,1.239512e+02,1.227792e+02
3.819178e-01,1.237065e+02,8.110105e+01,1.280343e+02,1.277909e+02,1.237835e+02,1.223176e+02
3.875342e-01,1.238494e+02,9.276302e+01,1.280536e+02,1.277599e+02,1.236276e+02,1.219449e+02
3.931507e-01,1.239786e+02,9.422831e+01,1.280727e+02,1.276948e+02,1.234730e+02,1.216712e+02
3.987671e-01,1.240312e+02,9.308128e+01,1.280778e+02,1.276030e+02,1.233137e+02,1.214571e+02
4.043835e-01,1.240683e+02,9.320566e+01,1.280506e+02,1.274727e+02,1.231476e+02,1.212476e+02
4.100000e-01,1.241306e+02,9.499747e+01,1.279942e+02,1.273279e+02,1.229865e+02,1.209785e+02
4.156165e-01,1.242783e+02,9.386498e+01,1.278999e+02,1.271855e+02,1.228460e+02,1.206001e+02
4.212329e-01,1.243268e+02,9.406664e+01,1.277667e+02,1.270673e+02,1.227277e+02,1.201062e+02
4.249097e-01,1.243265e+02,9.532071e+01,1.276630e+02,1.270070e+02,1.226620e+02,1.197239e+02
4.324658e-01,1.243041e+02,9.680103e+01,1.274032e+02,1.269353e+02,1.225608e+02,1.188705e+02
4.361426e-01,1.243175e+02,9.595994e+01,1.272543e+02,1.269317e+02,1.225243e+02,1.184793e+02
4.436986e-01,1.243570e+02,9.589435e+01,1.269124e+02,1.269634e+02,1.224636e+02,1.178833e+02
4.473755e-01,1.243111e+02,9.716680e+01,1.267305e+02,1.269948e+02,1.224387e+02,1.177280e+02
4.512547e-01,1.241770e+02,9.725427e+01,1.265339e+02,1.270294e+02,1.224157e+02,1.176448e+02
4.586083e-01,1.239415e+02,9.964643e+01,1.261753e+02,1.270775e+02,1.223873e+02,1.176077e+02
4.624876e-01,1.239281e+02,9.953877e+01,1.259987e+02,1.270875e+02,1.223831e+02,1.175683e+02
4.698412e-01,1.237206e+02,9.861319e+01,1.257225e+02,1.270334e+02,1.223772e+02,1.173187e+02
4.737205e-01,1.234035e+02,9.984304e+01,1.256176e+02,1.269720e+02,1.223689e+02,1.170459e+02
4.810741e-01,1.228779e+02,1.006840e+02,1.255026e+02,1.267966e+02,1.223110e+02,1.162234e+02
4.849533e-01,1.227071e+02,9.937638e+01,1.254947e+02,1.266771e+02,1.222286e+02,1.156518e+02
4.923070e-01,1.224235e+02,9.947817e+01,1.255623e+02,1.264421e+02,1.219343e+02,1.144677e+02
4.961862e-01,1.222041e+02,1.001976e+02,1.256360e+02,1.263197e+02,1.216855e+02,1.139225e+02
5.035398e-01,1.213262e+02,1.011342e+02,1.258193e+02,1.261480e+02,1.210377e+02,1.133970e+02
5.074191e-01,1.208589e+02,1.012647e+02,1.259251e+02,1.260996e+02,1.206224e+02,1.134387e+02
5.110959e-01,1.206460e+02,1.019161e+02,1.260236e+02,1.260858e+02,1.202207e+02,1.136221e+02
5.186520e-01,1.205781e+02,1.029944e+02,1.262006e+02,1.261399e+02,1.195811e+02,1.140674e+02
5.223288e-01,1.205073e+02,1.032060e+02,1.262614e+02,1.261988e+02,1.194888e+02,1.141871e+02
5.298848e-01,1.200292e+02,1.027218e+02,1.263228e+02,1.263348e+02,1.198886e+02,1.140121e+02
5.335617e-01,1.198605e+02,1.028263e+02,1.263144e+02,1.263934e+02,1.203034e+02,1.136807e+02
5.411177e-01,1.205210e+02,1.030374e+02,1.262142e+02,1.264588e+02,1.212628e+02,1.124292e+02
5.447945e-01,1.208952e+02,1.023731e+02,1.261189e+02,1.264523e+02,1.216680e+02,1.115586e+02
5.504109e-01,1.212156e+02,1.000800e+02,1.259145e+02,1.263843e+02,1.220973e+02,1.100112e+02
5.560274e-01,1.212464e+02,9.844591e+01,1.256422e+02,1.262422e+02,1.222436e+02,1.086501e+02
5.616439e-01,1.218887e+02,9.524075e+01,1.253011e+02,1.260381e+02,1.220600e+02,1.082735e+02
5.672603e-01,1.227016e+02,9.400046e+01,1.249009e+02,1.257892e+02,1.215178e+02,1.090508e+02
5.728767e-01,1.230991e+02,9.683975e+01,1.244513e+02,1.255190e+02,1.205899e+02,1.102099e+02
5.784932e-01,1.231901e+02,1.004677e+02,1.239708e+02,1.252678e+02,1.192608e+02,1.111664e+02
5.841096e-01,1.235815e+02,1.041550e+02,1.234810e+02,1.250663e+02,1.175924e+02,1.117058e+02
5.897260e-01,1.241913e+02,1.048228e+02,1.230139e+02,1.249482e+02,1.158747e+02,1.117776e+02
5.953425e-01,1.244826e+02,1.050537e+02,1.226019e+02,1.249160e+02,1.149055e+02,1.113701e+02
6.009589e-01,1.245100e+02,1.056439e+02,1.222772e+02,1.249643e+02,1.153539e+02,1.104591e+02
6.065753e-01,1.248061e+02,1.043788e+02,1.220561e+02,1.250659e+02,1.166961e+02,1.089826e+02
6.121918e-01,1.251087e+02,1.025694e+02,1.219412e+02,1.251894e+02,1.181244e+02,1.067824e+02
6.158686e-01,1.251819e+02,1.007288e+02,1.219179e+02,1.252700e+02,1.189359e+02,1.047838e+02
6.234247e-01,1.252327e+02,9.391419e+01,1.219664e+02,1.254117e+02,1.202129e+02,9.781235e+01
6.271015e-01,1.253554e+02,9.133317e+01,1.220206e+02,1.254648e+02,1.206577e+02,9.012178e+01
6.346575e-01,1.256497e+02,9.668404e+01,1.221582e+02,1.255372e+02,1.212740e+02,9.567556e+01
6.383344e-01,1.256763e+02,9.848013e+01,1.222278e+02,1.255582e+02,1.214510e+02,1.000879e+02
6.422136e-01,1.256583e+02,9.968192e+01,1.222971e+02,1.255744e+02,1.215661e+02,1.029463e+02
6.495672e-01,1.258443e+02,1.034368e+02,1.224080e+02,1.255923e+02,1.216148e+02,1.062094e+02
6.534464e-01,1.259477e+02,1.028426e+02,1.224523e+02,1.256026e+02,1.215666e+02,1.073053e+02
6.608001e-01,1.259299e+02,1.008105e+02,1.225178e+02,1.256285e+02,1.213766e+02,1.086683e+02
6.646794e-01,1.258530e+02,1.014115e+02,1.225356e+02,1.256411e+02,1.212405e+02,1.091018e+02
6.720330e-01,1.258077e+02,1.003140e+02,1.225551e+02,1.256715e+02,1.209563e+02,1.095022e+02
6.759122e-01,1.257975e+02,9.971618e+01,1.225553e+02,1.256889e+02,1.208094e+02,1.095188e+02
6.832659e-01,1.256968e+02,1.030032e+02,1.225384e+02,1.257164e+02,1.205811e+02,1.092095e+02
6.871451e-01,1.256018e+02,9.922358e+01,1.225295e+02,1.257273e+02,1.204970e+02,1.088730e+02
6.944987e-01,1.254380e+02,9.285501e+01,1.225180e+02,1.257304e+02,1.204221e+02,1.079223e+02
6.983780e-01,1.253841e+02,9.716916e+01,1.225087e+02,1.257216e+02,1.204201e+02,1.072663e+02
7.020548e-01,1.253498e+02,9.556377e+01,1.225044e+02,1.257064e+02,1.204361e+02,1.065581e+02
7.096109e-01,1.252812e+02,9.870929e+01,1.224934e+02,1.256694e+02,1.204968e+02,1.049330e+02
7.132877e-01,1.252304e+02,9.868827e+01,1.224911e+02,1.256498e+02,1.205297e+02,1.041470e+02
7.208437e-01,1.251340e+02,9.738942e+01,1.225118e+02,1.256095e+02,1.205745e+02,1.029149e+02
7.245205e-01,1.251692e+02,1.003530e+02,1.225225e+02,1.255942e+02,1.205841e+02,1.026656e+02
7.301370e-01,1.252988e+02,1.021654e+02,1.225426e+02,1.255744e+02,1.205843e+02,1.027965e+02
7.357534e-01,1.253722e+02,1.011849e+02,1.225645e+02,1.255722e+02,1.205723e+02,1.033652e+02
7.413699e-01,1.253585e+02,1.028451e+02,1.225829e+02,1.255860e+02,1.205576e+02,1.040984e+02
7.469863e-01,1.253769e+02,1.033219e+02,1.226018e+02,1.256114e+02,1.205525e+02,1.048102e+02
7.526027e-01,1.254699e+02,1.024492e+02,1.226132e+02,1.256427e+02,1.205625e+02,1.054130e+02
7.582192e-01,1.255205e+02,1.028795e+02,1.226207e+02,1.256705e+02,1.205876e+02,1.058893e+02
7.638357e-01,1.255227e+02,1.029564e+02,1.226182e+02,1.256958e+02,1.206222e+02,1.062201e+02
7.694520e-01,1.255142e+02,1.013810e+02,1.226055e+02,1.257097e+02,1.206550e+02,1.064231e+02
7.750684e-01,1.254285e+02,1.009634e+02,1.225888e+02,1.257085e+02,1.206750e+02,1.065101e+02
7.806849e-01,1.254266e+02,1.000149e+02,1.225606e+02,1.256925e+02,1.206769e+02,1.064720e+02
7.863014e-01,1.255523e+02,9.613932e+01,1.225376e+02,1.256616e+02,1.206536e+02,1.063465e+02
7.919178e-01,1.257590e+02,8.565731e+01,1.225141e+02,1.256232e+02,1.206101e+02,1.061463e+02
7.955946e-01,1.257191e+02,7.976839e+01,1.224968e+02,1.255963e+02,1.205737e+02,1.059928e+02
8.031507e-01,1.254556e+02,8.784152e+01,1.224600e+02,1.255363e+02,1.204832e+02,1.056749e+02
8.068275e-01,1.254463e+02,8.985010e+01,1.224396e+02,1.255056e+02,1.204350e+02,1.055393e+02
8.125449e-01,1.255768e+02,8.792291e+01,1.224099e+02,1.254547e+02,1.203560e+02,1.053656e+02
