x(m),SPL1,SPL2,SPL3,SPL4,SPL5,SPL6
0.000000e+00,1.300400e+02,1.299480e+02,1.302670e+02,1.299290e+02,1.303380e+02,1.302590e+02
6.586475e-03,1.304856e+02,1.303214e+02,1.296825e+02,1.300011e+02,1.301239e+02,1.300243e+02
1.194175e-02,1.307924e+02,1.305335e+02,1.290570e+02,1.300292e+02,1.297834e+02,1.300716e+02
1.592235e-02,1.309969e+02,1.306581e+02,1.285546e+02,1.300954e+02,1.295366e+02,1.302734e+02
2.250882e-02,1.312729e+02,1.308873e+02,1.278303e+02,1.302027e+02,1.290705e+02,1.307066e+02
2.786407e-02,1.314429e+02,1.310823e+02,1.273693e+02,1.301866e+02,1.288012e+02,1.310627e+02
3.321933e-02,1.316194e+02,1.312674e+02,1.271027e+02,1.301748e+02,1.287226e+02,1.311381e+02
3.843115e-02,1.317840e+02,1.314021e+02,1.270285e+02,1.300887e+02,1.288923e+02,1.309692e+02
4.378642e-02,1.319256e+02,1.314993e+02,1.272320e+02,1.299754e+02,1.291036e+02,1.305512e+02
4.914168e-02,1.320693e+02,1.315707e+02,1.277172e+02,1.297503e+02,1.293850e+02,1.299545e+02
5.435346e-02,1.322261e+02,1.316269e+02,1.283006e+02,1.295152e+02,1.297141e+02,1.292240e+02
5.970873e-02,1.323661e+02,1.316975e+02,1.289452e+02,1.293216e+02,1.299637e+02,1.286266e+02
6.506401e-02,1.324913e+02,1.318219e+02,1.294835e+02,1.292881e+02,1.300473e+02,1.284080e+02
7.165050e-02,1.326232e+02,1.321052e+02,1.299391e+02,1.294528e+02,1.299262e+02,1.287691e+02
7.563107e-02,1.326799e+02,1.323684e+02,1.301166e+02,1.295830e+02,1.297247e+02,1.292967e+02
8.098632e-02,1.327212e+02,1.328372e+02,1.302359e+02,1.298360e+02,1.293331e+02,1.300564e+02
8.757282e-02,1.327054e+02,1.335498e+02,1.302968e+02,1.301262e+02,1.288877e+02,1.309000e+02
9.155341e-02,1.326753e+02,1.340213e+02,1.302747e+02,1.302396e+02,1.287801e+02,1.312749e+02
9.951456e-02,1.325479e+02,1.349595e+02,1.300391e+02,1.302728e+02,1.289637e+02,1.317329e+02
1.034951e-01,1.324599e+02,1.353955e+02,1.298342e+02,1.301774e+02,1.292057e+02,1.318547e+02
1.100816e-01,1.322681e+02,1.360479e+02,1.292876e+02,1.300440e+02,1.295719e+02,1.320037e+02
1.154369e-01,1.321044e+02,1.365000e+02,1.287746e+02,1.299216e+02,1.297797e+02,1.321081e+02
1.207922e-01,1.319140e+02,1.368829e+02,1.282118e+02,1.297941e+02,1.297932e+02,1.321231e+02
1.260040e-01,1.317264e+02,1.371900e+02,1.276888e+02,1.296340e+02,1.296306e+02,1.319740e+02
1.313592e-01,1.315162e+02,1.374427e+02,1.272090e+02,1.294998e+02,1.293603e+02,1.315612e+02
1.367145e-01,1.312810e+02,1.376434e+02,1.269123e+02,1.294106e+02,1.290254e+02,1.308396e+02
1.419263e-01,1.310425e+02,1.378051e+02,1.269120e+02,1.294020e+02,1.286700e+02,1.297771e+02
1.472816e-01,1.307446e+02,1.379673e+02,1.272104e+02,1.294481e+02,1.283770e+02,1.283407e+02
1.526368e-01,1.304041e+02,1.381633e+02,1.277612e+02,1.295802e+02,1.283103e+02,1.266652e+02
1.578486e-01,1.300308e+02,1.384302e+02,1.284127e+02,1.297926e+02,1.285822e+02,1.254467e+02
1.632039e-01,1.295766e+02,1.388245e+02,1.290844e+02,1.300805e+02,1.291110e+02,1.256167e+02
1.685592e-01,1.290656e+02,1.393728e+02,1.296737e+02,1.303573e+02,1.297905e+02,1.271452e+02
1.751456e-01,1.283495e+02,1.402696e+02,1.302352e+02,1.305791e+02,1.306294e+02,1.293822e+02
1.791262e-01,1.278804e+02,1.409186e+02,1.304767e+02,1.306242e+02,1.310052e+02,1.305317e+02
1.844815e-01,1.272231e+02,1.418908e+02,1.307056e+02,1.305795e+02,1.313950e+02,1.317302e+02
1.910680e-01,1.263725e+02,1.431942e+02,1.308423e+02,1.304037e+02,1.316418e+02,1.326891e+02
1.976544e-01,1.255580e+02,1.445602e+02,1.308060e+02,1.301072e+02,1.316508e+02,1.332225e+02
2.030097e-01,1.249565e+02,1.456851e+02,1.307083e+02,1.298519e+02,1.315111e+02,1.334509e+02
2.069903e-01,1.245653e+02,1.465174e+02,1.306338e+02,1.297021e+02,1.313280e+02,1.335250e+02
2.135768e-01,1.240272e+02,1.478756e+02,1.305046e+02,1.294175e+02,1.308473e+02,1.335228e+02
2.189320e-01,1.237300e+02,1.489499e+02,1.304193e+02,1.292272e+02,1.302824e+02,1.333934e+02
2.242873e-01,1.235446e+02,1.499920e+02,1.303115e+02,1.290441e+02,1.295505e+02,1.331708e+02
2.294991e-01,1.234473e+02,1.509753e+02,1.301647e+02,1.289167e+02,1.287250e+02,1.328928e+02
2.348544e-01,1.234294e+02,1.519550e+02,1.299757e+02,1.288126e+02,1.278024e+02,1.326008e+02
2.402096e-01,1.234697e+02,1.529094e+02,1.297651e+02,1.287604e+02,1.268424e+02,1.323192e+02
2.454214e-01,1.235112e+02,1.538232e+02,1.295966e+02,1.287780e+02,1.258985e+02,1.320620e+02
2.507767e-01,1.235787e+02,1.547523e+02,1.294208e+02,1.288339e+02,1.249122e+02,1.317892e+02
2.561319e-01,1.236445e+02,1.556782e+02,1.292688e+02,1.289129e+02,1.239167e+02,1.314874e+02
2.613438e-01,1.236609e+02,1.565783e+02,1.291412e+02,1.289516e+02,1.230557e+02,1.311596e+02
2.666990e-01,1.236734e+02,1.574985e+02,1.290596e+02,1.289406e+02,1.223749e+02,1.307837e+02
2.720543e-01,1.236454e+02,1.584076e+02,1.290315e+02,1.288509e+02,1.220491e+02,1.303580e+02
2.786408e-01,1.235782e+02,1.594986e+02,1.290350e+02,1.286763e+02,1.221697e+02,1.297717e+02
2.826213e-01,1.234882e+02,1.601390e+02,1.290081e+02,1.285824e+02,1.223684e+02,1.294054e+02
2.879766e-01,1.233355e+02,1.609725e+02,1.289554e+02,1.284891e+02,1.228784e+02,1.289411e+02
2.945631e-01,1.231432e+02,1.619667e+02,1.288134e+02,1.284583e+02,1.235835e+02,1.284650e+02
3.011496e-01,1.229192e+02,1.629469e+02,1.286044e+02,1.285289e+02,1.242509e+02,1.280620e+02
3.065048e-01,1.226898e+02,1.637629e+02,1.284237e+02,1.286203e+02,1.247439e+02,1.277223e+02
3.104854e-01,1.225063e+02,1.643965e+02,1.283039e+02,1.286857e+02,1.250710e+02,1.274357e+02
3.170719e-01,1.221891e+02,1.655159e+02,1.281259e+02,1.287302e+02,1.255802e+02,1.268775e+02
3.224272e-01,1.218683e+02,1.664978e+02,1.279978e+02,1.286971e+02,1.258968e+02,1.263741e+02
3.277824e-01,1.214700e+02,1.675315e+02,1.278848e+02,1.286196e+02,1.260933e+02,1.258575e+02
3.329942e-01,1.211482e+02,1.685652e+02,1.277646e+02,1.285259e+02,1.261317e+02,1.253899e+02
3.383495e-01,1.206545e+02,1.696288e+02,1.276538e+02,1.284324e+02,1.260513e+02,1.249235e+02
3.437048e-01,1.200983e+02,1.706729e+02,1.275184e+02,1.283503e+02,1.258749e+02,1.244839e+02
3.489166e-01,1.195154e+02,1.716676e+02,1.273576e+02,1.282486e+02,1.256689e+02,1.241017e+02
3.542718e-01,1.187277e+02,1.726684e+02,1.271439e+02,1.281624e+02,1.254282e+02,1.237649e+02
3.596271e-01,1.179266e+02,1.736723e+02,1.269140e+02,1.280745e+02,1.251463e+02,1.234648e+02
3.662136e-01,1.167510e+02,1.749593e+02,1.266939e+02,1.280131e+02,1.247214e+02,1.230591e+02
3.701942e-01,1.159962e+02,1.757842e+02,1.266171e+02,1.279938e+02,1.244204e+02,1.227707e+02
3.755494e-01,1.152972e+02,1.769617e+02,1.265978e+02,1.280088e+02,1.239620e+02,1.223343e+02
3.821359e-01,1.148502e+02,1.784934e+02,1.266738e+02,1.281095e+02,1.234228e+02,1.217230e+02
3.861165e-01,1.148338e+02,1.794337e+02,1.267230e+02,1.281956e+02,1.231335e+02,1.214020e+02
3.940777e-01,1.160166e+02,1.812736e+02,1.268608e+02,1.283188e+02,1.228098e+02,1.205875e+02
3.980582e-01,1.169974e+02,1.821356e+02,1.269224e+02,1.283482e+02,1.227861e+02,1.202561e+02
4.046447e-01,1.182887e+02,1.834441e+02,1.269581e+02,1.282501e+02,1.227485e+02,1.196919e+02
4.100000e-01,1.194197e+02,1.843899e+02,1.269080e+02,1.280916e+02,1.227321e+02,1.194113e+02
4.153553e-01,1.203347e+02,1.852495e+02,1.267784e+02,1.278830e+02,1.226536e+02,1.192478e+02
4.205671e-01,1.211517e+02,1.860503e+02,1.266144e+02,1.276899e+02,1.225375e+02,1.191765e+02
4.259223e-01,1.218562e+02,1.868889e+02,1.264126e+02,1.275352e+02,1.223285e+02,1.190155e+02
4.312776e-01,1.223560e+02,1.878129e+02,1.262279e+02,1.274615e+02,1.220466e+02,1.186556e+02
4.364894e-01,1.228082e+02,1.888226e+02,1.260460e+02,1.274632e+02,1.216694e+02,1.180626e+02
4.418447e-01,1.230991e+02,1.899758e+02,1.258745e+02,1.275182e+02,1.213040e+02,1.172706e+02
4.471999e-01,1.232064e+02,1.911855e+02,1.256731e+02,1.275931e+02,1.210364e+02,1.164541e+02
4.524117e-01,1.233380e+02,1.923364e+02,1.254107e+02,1.276759e+02,1.209728e+02,1.157798e+02
4.577670e-01,1.232755e+02,1.934203e+02,1.251052e+02,1.277288e+02,1.211467e+02,1.154632e+02
4.631223e-01,1.230063e+02,1.943384e+02,1.247649e+02,1.277495e+02,1.215470e+02,1.155002e+02
4.697088e-01,1.226432e+02,1.952034e+02,1.243593e+02,1.277400e+02,1.222124e+02,1.157732e+02
4.736893e-01,1.223949e+02,1.955967e+02,1.241824e+02,1.276935e+02,1.226401e+02,1.160665e+02
4.790446e-01,1.217405e+02,1.959938e+02,1.239608e+02,1.276310e+02,1.230479e+02,1.160491e+02
4.856311e-01,1.210245e+02,1.964922e+02,1.238470e+02,1.274891e+02,1.232491e+02,1.154298e+02
4.922176e-01,1.200289e+02,1.973340e+02,1.239433e+02,1.272909e+02,1.230634e+02,1.141418e+02
4.975728e-01,1.189976e+02,1.984488e+02,1.241602e+02,1.271101e+02,1.226258e+02,1.127886e+02
5.015534e-01,1.179669e+02,1.994901e+02,1.243789e+02,1.269669e+02,1.221807e+02,1.118591e+02
5.081399e-01,1.168032e+02,2.012977e+02,1.246732e+02,1.268969e+02,1.210470e+02,1.111274e+02
5.134952e-01,1.154580e+02,2.026702e+02,1.248637e+02,1.269232e+02,1.199024e+02,1.114848e+02
5.188504e-01,1.138498e+02,2.037999e+02,1.249585e+02,1.270474e+02,1.186983e+02,1.122835e+02
5.240622e-01,1.134078e+02,2.046265e+02,1.249871e+02,1.272014e+02,1.180273e+02,1.129730e+02
5.294175e-01,1.125450e+02,2.051385e+02,1.249327e+02,1.273777e+02,1.182805e+02,1.132545e+02
5.347727e-01,1.114639e+02,2.053546e+02,1.248306e+02,1.274992e+02,1.193870e+02,1.129996e+02
5.399846e-01,1.118029e+02,2.054667e+02,1.247098e+02,1.275226e+02,1.206807e+02,1.121517e+02
5.453398e-01,1.113460e+02,2.058764e+02,1.245658e+02,1.274455e+02,1.218231e+02,1.108424e+02
5.506951e-01,1.102066e+02,2.071194e+02,1.244151e+02,1.272784e+02,1.225955e+02,1.090944e+02
5.559069e-01,1.102701e+02,2.090546e+02,1.242206e+02,1.270728e+02,1.229227e+02,1.074181e+02
5.612621e-01,1.097542e+02,2.113176e+02,1.239737e+02,1.268202e+02,1.228708e+02,1.063554e+02
5.666174e-01,1.098979e+02,2.133896e+02,1.236168e+02,1.265600e+02,1.224197e+02,1.071004e+02
5.732039e-01,1.130521e+02,2.154234e+02,1.229975e+02,1.262696e+02,1.212961e+02,1.092210e+02
5.771845e-01,1.145430e+02,2.163457e+02,1.225545e+02,1.261298e+02,1.203104e+02,1.100734e+02
5.825397e-01,1.170504e+02,2.171914e+02,1.218670e+02,1.259964e+02,1.183777e+02,1.108718e+02
5.891262e-01,1.196093e+02,2.176897e+02,1.210612e+02,1.259651e+02,1.151061e+02,1.111132e+02
5.957127e-01,1.218806e+02,2.175625e+02,1.204056e+02,1.260746e+02,1.127960e+02,1.109436e+02
6.010680e-01,1.234259e+02,2.170450e+02,1.200772e+02,1.262550e+02,1.141548e+02,1.104656e+02
6.050485e-01,1.244355e+02,2.164669e+02,1.199871e+02,1.264379e+02,1.159455e+02,1.096061e+02
6.116350e-01,1.255392e+02,2.154169e+02,1.199538e+02,1.267216e+02,1.183146e+02,1.070614e+02
6.169903e-01,1.263154e+02,2.148461e+02,1.201108e+02,1.269543e+02,1.197175e+02,1.032043e+02
6.223456e-01,1.267942e+02,2.148915e+02,1.203204e+02,1.271407e+02,1.207424e+02,9.822615e+01
6.275573e-01,1.272244e+02,2.153660e+02,1.205245e+02,1.272770e+02,1.214819e+02,9.951291e+01
6.329126e-01,1.274175e+02,2.160806e+02,1.206618e+02,1.273347e+02,1.219830e+02,1.029107e+02
6.382679e-01,1.273303e+02,2.166277e+02,1.207103e+02,1.273279e+02,1.222642e+02,1.052809e+02
6.434797e-01,1.272931e+02,2.169718e+02,1.207510e+02,1.273105e+02,1.223840e+02,1.070126e+02
6.488349e-01,1.269784e+02,2.169538e+02,1.207419e+02,1.272720e+02,1.223536e+02,1.087232e+02
6.541902e-01,1.263721e+02,2.166021e+02,1.207717e+02,1.272408e+02,1.222065e+02,1.101346e+02
6.607767e-01,1.256369e+02,2.159218e+02,1.208804e+02,1.271921e+02,1.218705e+02,1.112956e+02
6.647573e-01,1.249842e+02,2.153319e+02,1.209893e+02,1.271704e+02,1.216225e+02,1.116268e+02
6.701125e-01,1.237230e+02,2.144214e+02,1.211455e+02,1.271456e+02,1.212963e+02,1.116527e+02
6.766990e-01,1.220761e+02,2.132279e+02,1.212922e+02,1.271132e+02,1.209493e+02,1.112229e+02
6.806796e-01,1.210358e+02,2.125633e+02,1.212959e+02,1.270967e+02,1.208441e+02,1.107399e+02
6.886408e-01,1.180971e+02,2.114373e+02,1.212667e+02,1.271047e+02,1.207131e+02,1.100716e+02
6.926214e-01,1.163424e+02,2.111779e+02,1.211840e+02,1.271205e+02,1.206743e+02,1.094118e+02
6.992078e-01,1.151328e+02,2.106971e+02,1.210316e+02,1.271942e+02,1.206982e+02,1.081703e+02
7.045631e-01,1.159384e+02,2.106761e+02,1.208730e+02,1.272456e+02,1.207032e+02,1.060904e+02
7.099184e-01,1.176688e+02,2.107550e+02,1.207617e+02,1.272712e+02,1.206952e+02,1.028556e+02
7.151302e-01,1.194818e+02,2.108108e+02,1.207370e+02,1.272592e+02,1.206571e+02,9.783675e+01
7.204854e-01,1.212435e+02,2.108690e+02,1.208157e+02,1.272067e+02,1.206478e+02,9.231312e+01
7.258407e-01,1.226429e+02,2.108410e+02,1.209717e+02,1.271284e+02,1.206731e+02,9.517215e+01
7.310525e-01,1.237540e+02,2.108688e+02,1.211157e+02,1.270488e+02,1.207555e+02,9.934367e+01
7.364078e-01,1.248032e+02,2.107535e+02,1.212502e+02,1.269958e+02,1.208407e+02,1.025643e+02
7.417630e-01,1.255803e+02,2.105687e+02,1.213158e+02,1.269908e+02,1.209082e+02,1.049316e+02
7.469748e-01,1.262736e+02,2.105253e+02,1.213337e+02,1.270215e+02,1.209701e+02,1.066188e+02
7.523301e-01,1.269321e+02,2.104171e+02,1.212681e+02,1.270875e+02,1.210009e+02,1.075881e+02
7.576854e-01,1.273833e+02,2.103887e+02,1.211507e+02,1.271573e+02,1.210114e+02,1.079714e+02
7.642719e-01,1.279399e+02,2.104899e+02,1.210117e+02,1.272373e+02,1.209691e+02,1.077195e+02
7.682524e-01,1.282752e+02,2.106089e+02,1.209462e+02,1.272602e+02,1.209319e+02,1.073414e+02
7.736077e-01,1.285013e+02,2.108167e+02,1.209130e+02,1.272600e+02,1.209013e+02,1.069881e+02
7.801942e-01,1.289224e+02,2.110483e+02,1.209649e+02,1.272325e+02,1.208741e+02,1.067286e+02
7.867807e-01,1.291831e+02,2.111480e+02,1.210304e+02,1.271787e+02,1.209134e+02,1.069547e+02
7.921359e-01,1.293103e+02,2.111909e+02,1.211104e+02,1.271217e+02,1.209369e+02,1.067057e+02
7.961165e-01,1.293179e+02,2.111846e+02,1.211572e+02,1.270873e+02,1.209133e+02,1.064874e+02
8.027030e-01,1.293585e+02,2.109869e+02,1.211264e+02,1.269704e+02,1.209052e+02,1.053282e+02
8.080582e-01,1.292273e+02,2.107708e+02,1.210498e+02,1.268769e+02,1.208354e+02,1.044448e+02
8.134135e-01,1.293446e+02,2.105485e+02,1.209391e+02,1.267745e+02,1.207471e+02,1.035992e+02
