x(m),0.5 kHz,0.6 kHz,0.7 kHz,0.8 kHz,0.9 kHz,1.0 kHz,1.1 kHz,1.2 kHz,1.3 kHz,1.4 kHz,1.5 kHz,1.6 kHz,1.7 kHz,1.8 kHz,1.9 kHz,2.0 kHz,2.1 kHz,2.2 kHz,2.3 kHz,2.4 kHz,2.5 kHz,2.6 kHz,2.7 kHz,2.8 kHz,2.9 kHz,3.0 kHz
7.62E-05,130.098,130.117,130.102,130.128,130.343,130.107,130.212,129.82,130.103,130.131,130.445,130.472,130.474,130.321,130.455,130.429,130.233,130.181,130.179,130.374,130.163,130.248,130.103,130.407,130.289,130.27
0.0254762,130.7,131.081,132.035,129.925,126.639,128.16,130.402,131.819,132.033,130.395,129.69,129.6,129.511,130.1,130.122,130.582,130.527,130.658,130.634,130.485,129.864,129.392,129.14,129.854,130.235,130.603
0.1016762,130.869,131.79,135.441,136.303,131.888,126.483,123.719,127.471,131.108,131.53,131.141,130.773,130.575,130.489,130.532,130.894,130.712,130.841,130.888,130.851,130.304,129.887,129.443,129.838,130.028,130.508
0.2032508,127.164,127.482,130.518,131.702,129.372,128.269,129.972,132.456,133.958,133.204,132.106,131.433,131.02,130.894,130.737,131.055,130.976,131.087,131.103,131.409,131.174,131.345,131.497,132.269,132.581,132.925
0.2286508,125.705,126.403,128.356,128.629,125.516,124.853,127.508,130.835,132.799,132.201,131.411,130.741,130.147,130.291,130.159,129.894,129.971,129.805,129.686,129.557,129.179,129.218,129.664,131.011,131.776,132.398
0.2540508,125.182,126.367,127.585,126.827,122.253,121.696,125.313,129.573,132.108,131.652,131.094,130.634,129.832,129.846,130.143,129.696,129.472,129.229,128.82,128.363,127.205,126.502,126.773,128.865,130.391,131.454
0.2794254,124.76,125.819,126.976,125.218,118.944,118.041,122.67,127.919,131.069,130.877,130.389,130.186,129.547,129.235,129.366,129.567,129.045,128.803,128.183,127.617,126.053,124.309,123.051,125.365,128.012,129.933
0.3048254,124.891,124.848,126.436,123.761,115.771,114.264,119.92,126.166,129.983,130.135,129.648,129.503,129.206,129.093,128.704,128.769,128.652,128.188,127.687,126.773,125.202,123.082,119.947,121.133,125.226,128.115
0.3175508,124.918,124.225,126.016,122.873,114.084,112.295,118.49,125.222,129.37,129.853,129.293,129.068,128.888,128.935,128.674,128.385,128.391,127.896,127.414,126.504,124.651,122.46,118.907,118.866,123.834,127.19
0.3302508,125.116,123.717,125.578,122.174,112.508,110.296,117.072,124.26,128.727,129.448,129.002,128.716,128.479,128.739,128.699,128.11,128.013,127.611,126.976,126.24,124.266,121.896,118.008,116.335,122.317,126.181
0.3429762,125.239,123.393,125.056,121.313,110.888,108.344,115.652,123.34,128.104,129.169,128.755,128.411,128.065,128.374,128.653,128.189,127.701,127.421,126.625,125.905,123.929,121.44,117.472,113.803,120.803,125.42
0.3556508,125.575,123.493,124.679,120.86,109.509,106.52,114.328,122.483,127.525,128.797,128.628,128.336,127.828,127.987,128.442,128.133,127.557,127.268,126.422,125.466,123.635,121.019,116.905,111.257,119.187,124.568
0.3683762,125.56,123.591,124.051,119.997,107.886,104.551,112.952,121.609,126.881,128.409,128.395,128.188,127.603,127.609,127.96,128.137,127.517,127.048,126.295,125.067,123.13,120.538,116.466,109.388,117.674,123.859
0.3810508,125.537,123.754,123.49,119.279,106.402,102.653,111.547,120.653,126.2,127.81,128.101,128.084,127.54,127.33,127.398,127.694,127.33,126.716,126.073,124.822,122.614,119.907,115.829,107.807,115.815,122.654
0.3937508,125.507,124.198,123.402,118.816,105.305,101.089,110.423,120.026,125.846,127.545,128.008,128.157,127.743,127.516,127.261,127.417,127.335,126.607,125.896,124.775,122.271,119.353,115.214,107.007,114.416,121.834
0.4064508,125.211,124.282,122.908,117.767,103.428,98.983,108.914,119.016,125.1,126.729,127.405,127.726,127.499,127.455,127.08,126.872,126.867,126.27,125.359,124.398,121.986,118.75,114.392,106.522,112.787,120.904
0.4191254,124.929,124.487,123.053,117.081,102.01,96.961,107.614,118.306,124.736,126.288,127.014,127.398,127.366,127.51,127.384,126.866,126.568,126.187,125.075,123.922,121.523,118.179,113.492,105.832,111.404,120.516
0.4318508,124.459,124.313,123,116.433,100.491,95.254,106.313,117.481,124.278,125.774,126.513,126.984,127.014,127.388,127.524,126.882,126.361,126.021,124.936,123.361,120.963,117.459,112.356,104.99,109.765,119.75
0.4445762,123.879,124.019,123.073,115.826,99.075,93.481,104.976,116.715,123.996,125.528,126.113,126.532,126.576,127.031,127.449,127.194,126.361,125.844,124.946,123.165,120.366,116.689,111.263,103.725,107.962,118.811
0.4573016,123.349,123.486,122.958,115.447,97.658,91.412,103.693,116.021,123.687,125.36,125.831,126.247,126.208,126.535,127.026,127.007,126.356,125.578,124.783,123.261,120.186,116.166,110.226,102.716,106.261,117.512
0.470027,122.704,122.641,122.575,114.776,96.13,90.233,102.335,115.146,123.372,125.372,125.631,125.995,125.771,125.946,126.251,126.569,126.223,125.224,124.318,123.065,119.988,115.886,109.699,101.89,104.341,116.434
0.4827016,122.163,121.595,121.782,114.174,94.805,87.831,100.849,114.258,122.867,125.22,125.512,125.882,125.673,125.659,125.608,125.899,125.788,124.943,123.714,122.424,119.685,115.451,108.886,100.712,102.941,115.951
0.495427,121.947,120.62,120.864,113.28,93.116,86.377,99.453,113.194,122.38,125.212,125.465,125.863,125.665,125.594,125.4,125.326,125.254,124.746,123.334,121.635,118.785,114.552,107.869,99.571,101.264,115.662
0.5081016,121.995,119.764,119.572,112.168,91.526,84.022,97.808,112.116,121.616,124.845,125.301,125.734,125.661,125.818,125.608,125.132,124.833,124.497,123.244,121.124,117.918,113.443,106.318,97.435,99.332,114.523
0.5335016,122.78,120.026,117.631,109.038,87.562,80.917,94.411,109.558,119.732,123.836,124.741,125.226,125.394,125.812,126.115,125.819,124.895,123.925,122.94,121.258,117.657,112.996,105.538,94.076,95.402,111.629
0.5589016,123.776,121.649,118.661,107.875,82.768,75.174,90.517,106.782,117.21,121.923,123.589,124.265,124.4,124.725,125.022,125.09,124.586,123.342,121.572,119.422,115.93,110.802,103.878,92.862,94.201,111.871
0.5843016,124.568,123.098,120.756,110.126,82.664,72.77,87.653,104.588,115.278,119.945,122.336,123.326,123.471,123.621,123.557,123.546,123.37,123.066,121.661,118.91,114.081,107.116,93.369,82.489,90.049,110.041
0.6097016,124.84,123.549,121.548,111.574,84.654,72.711,86.927,103.562,114.741,118.891,121.211,122.634,123.122,123.774,124.15,123.916,123.43,122.746,121.76,120.323,116.922,111.448,102.185,85.123,75.375,100.618
0.7113524,125.279,123.231,121.428,111.105,84.625,72.475,87.152,103.549,114.417,119.068,121.417,122.655,123.061,123.762,124.546,124.699,124.26,123.257,121.963,119.989,116.451,111.096,102.198,87.99,81.205,103.904
0.787527,125.48,123.262,121.421,111.697,85.662,70.014,86.742,103.258,114.867,119.666,121.612,122.791,123.185,123.617,124.169,124.335,124.116,123.285,122.111,120.146,116.584,111.451,102.589,87.656,80.723,103.298
0.812927,125.368,123.408,121.631,111.866,85.422,68.696,87.106,103.178,114.549,119.564,121.72,122.789,123.131,123.899,124.64,124.597,124.186,123.623,122.501,120.68,117.164,111.991,103.318,88.72,81.351,104.199
