x(m),SPL1,SPL2,SPL3,SPL4,SPL5,SPL6
0.000000e+00,1.300400e+02,1.299480e+02,1.302670e+02,1.299290e+02,1.303380e+02,1.302590e+02
5.606636e-03,1.304161e+02,1.300753e+02,1.297822e+02,1.299990e+02,1.301721e+02,1.300470e+02
1.016528e-02,1.306722e+02,1.300872e+02,1.292829e+02,1.300346e+02,1.299088e+02,1.300436e+02
1.694220e-02,1.310152e+02,1.299930e+02,1.284211e+02,1.300848e+02,1.294716e+02,1.303827e+02
2.150082e-02,1.311915e+02,1.299264e+02,1.279626e+02,1.301251e+02,1.291169e+02,1.306898e+02
2.710743e-02,1.313707e+02,1.298564e+02,1.273953e+02,1.301036e+02,1.287920e+02,1.310887e+02
3.271408e-02,1.315386e+02,1.298311e+02,1.271629e+02,1.300190e+02,1.286580e+02,1.312926e+02
3.727274e-02,1.316426e+02,1.298557e+02,1.270581e+02,1.299381e+02,1.287670e+02,1.312208e+02
4.404964e-02,1.317984e+02,1.298866e+02,1.272556e+02,1.298409e+02,1.290587e+02,1.307157e+02
4.860823e-02,1.319208e+02,1.299635e+02,1.276513e+02,1.296652e+02,1.293013e+02,1.302073e+02
5.421482e-02,1.320327e+02,1.301168e+02,1.283429e+02,1.293773e+02,1.296618e+02,1.294025e+02
5.982154e-02,1.321536e+02,1.302991e+02,1.289401e+02,1.292650e+02,1.299238e+02,1.286167e+02
6.659848e-02,1.322509e+02,1.305291e+02,1.295236e+02,1.292804e+02,1.300097e+02,1.281962e+02
7.115707e-02,1.322877e+02,1.306725e+02,1.298357e+02,1.293553e+02,1.299229e+02,1.283945e+02
7.571563e-02,1.322961e+02,1.308902e+02,1.301050e+02,1.295054e+02,1.296863e+02,1.289726e+02
8.249245e-02,1.323059e+02,1.312619e+02,1.303474e+02,1.298285e+02,1.292722e+02,1.299442e+02
8.692899e-02,1.323629e+02,1.315533e+02,1.304353e+02,1.299573e+02,1.290928e+02,1.305133e+02
9.370591e-02,1.322413e+02,1.319757e+02,1.302319e+02,1.301842e+02,1.288448e+02,1.312731e+02
9.826448e-02,1.321782e+02,1.322876e+02,1.300527e+02,1.302466e+02,1.288638e+02,1.316601e+02
1.028230e-01,1.321636e+02,1.325648e+02,1.297571e+02,1.302421e+02,1.290434e+02,1.319470e+02
1.095999e-01,1.320054e+02,1.329960e+02,1.292998e+02,1.300846e+02,1.294128e+02,1.322524e+02
1.152067e-01,1.318372e+02,1.332922e+02,1.288124e+02,1.299044e+02,1.296361e+02,1.324044e+02
1.208133e-01,1.317002e+02,1.335623e+02,1.282165e+02,1.296773e+02,1.297618e+02,1.324369e+02
1.253719e-01,1.315492e+02,1.337410e+02,1.277732e+02,1.294816e+02,1.297266e+02,1.323442e+02
1.299305e-01,1.313872e+02,1.338897e+02,1.274008e+02,1.293316e+02,1.295334e+02,1.320961e+02
1.367074e-01,1.311338e+02,1.340895e+02,1.270283e+02,1.292258e+02,1.290638e+02,1.313379e+02
1.423141e-01,1.308124e+02,1.342512e+02,1.271354e+02,1.292332e+02,1.286349e+02,1.302535e+02
1.479207e-01,1.304940e+02,1.344276e+02,1.274575e+02,1.293664e+02,1.282857e+02,1.287134e+02
1.524793e-01,1.302526e+02,1.345911e+02,1.278314e+02,1.295543e+02,1.282063e+02,1.271727e+02
1.592562e-01,1.296624e+02,1.349137e+02,1.285319e+02,1.298678e+02,1.285479e+02,1.251515e+02
1.638148e-01,1.292754e+02,1.351855e+02,1.290559e+02,1.300936e+02,1.290414e+02,1.251043e+02
1.694215e-01,1.287712e+02,1.356179e+02,1.295924e+02,1.303027e+02,1.297509e+02,1.266876e+02
1.750281e-01,1.281837e+02,1.361542e+02,1.300670e+02,1.304513e+02,1.304344e+02,1.287326e+02
1.795867e-01,1.277163e+02,1.366900e+02,1.303471e+02,1.305117e+02,1.309013e+02,1.301570e+02
1.863636e-01,1.269798e+02,1.376056e+02,1.306362e+02,1.304642e+02,1.314087e+02,1.317284e+02
1.909223e-01,1.264802e+02,1.383078e+02,1.307576e+02,1.303554e+02,1.316032e+02,1.324578e+02
1.965289e-01,1.258933e+02,1.392337e+02,1.308265e+02,1.301538e+02,1.316794e+02,1.330602e+02
2.021355e-01,1.253121e+02,1.402192e+02,1.308172e+02,1.299024e+02,1.315770e+02,1.334063e+02
2.066942e-01,1.248324e+02,1.410517e+02,1.307567e+02,1.296948e+02,1.313758e+02,1.335350e+02
2.134711e-01,1.241874e+02,1.423178e+02,1.306229e+02,1.293858e+02,1.309136e+02,1.335418e+02
2.180297e-01,1.237973e+02,1.431766e+02,1.305218e+02,1.291959e+02,1.304896e+02,1.334537e+02
2.236364e-01,1.233443e+02,1.442223e+02,1.303524e+02,1.290009e+02,1.298546e+02,1.332783e+02
2.292430e-01,1.230685e+02,1.452505e+02,1.301804e+02,1.288803e+02,1.290851e+02,1.330495e+02
2.338016e-01,1.227449e+02,1.460695e+02,1.300388e+02,1.288254e+02,1.283798e+02,1.328388e+02
2.405785e-01,1.225737e+02,1.472572e+02,1.298381e+02,1.287945e+02,1.272006e+02,1.325048e+02
2.451372e-01,1.224746e+02,1.480424e+02,1.297065e+02,1.288023e+02,1.263396e+02,1.322675e+02
2.507438e-01,1.223650e+02,1.490015e+02,1.295588e+02,1.288116e+02,1.252262e+02,1.319647e+02
2.563504e-01,1.225039e+02,1.499689e+02,1.294156e+02,1.288246e+02,1.241220e+02,1.316358e+02
2.609091e-01,1.227502e+02,1.507705e+02,1.293295e+02,1.287993e+02,1.232745e+02,1.313480e+02
2.676860e-01,1.225655e+02,1.519998e+02,1.292056e+02,1.287590e+02,1.223082e+02,1.308725e+02
2.722446e-01,1.226328e+02,1.528518e+02,1.291298e+02,1.287069e+02,1.219642e+02,1.305270e+02
2.778512e-01,1.229787e+02,1.539158e+02,1.290344e+02,1.286359e+02,1.218973e+02,1.300801e+02
2.834579e-01,1.228268e+02,1.549907e+02,1.289653e+02,1.285634e+02,1.221797e+02,1.296155e+02
2.902348e-01,1.227928e+02,1.562578e+02,1.288785e+02,1.285048e+02,1.228048e+02,1.290692e+02
2.947934e-01,1.229642e+02,1.570775e+02,1.288191e+02,1.284861e+02,1.232978e+02,1.287209e+02
2.993520e-01,1.227932e+02,1.578625e+02,1.287444e+02,1.284805e+02,1.237895e+02,1.283917e+02
3.061288e-01,1.229947e+02,1.589483e+02,1.286120e+02,1.285005e+02,1.244771e+02,1.279317e+02
3.105653e-01,1.230972e+02,1.596085e+02,1.285124e+02,1.285264e+02,1.248772e+02,1.276307e+02
3.173422e-01,1.227749e+02,1.605755e+02,1.283348e+02,1.285627e+02,1.253886e+02,1.271352e+02
3.219008e-01,1.224475e+02,1.612206e+02,1.281972e+02,1.285751e+02,1.256616e+02,1.267626e+02
3.264594e-01,1.224954e+02,1.618861e+02,1.280501e+02,1.285613e+02,1.258704e+02,1.263556e+02
3.332362e-01,1.223698e+02,1.629693e+02,1.278176e+02,1.285083e+02,1.260415e+02,1.257100e+02
3.388430e-01,1.217109e+02,1.639723e+02,1.276205e+02,1.284279e+02,1.260705e+02,1.251817e+02
3.444497e-01,1.214855e+02,1.650778e+02,1.274395e+02,1.283226e+02,1.259918e+02,1.246976e+02
3.490082e-01,1.214953e+02,1.660265e+02,1.273058e+02,1.282265e+02,1.258514e+02,1.243605e+02
3.557851e-01,1.206410e+02,1.674568e+02,1.271267e+02,1.280890e+02,1.255187e+02,1.239592e+02
3.603437e-01,1.203138e+02,1.683798e+02,1.270244e+02,1.280184e+02,1.252159e+02,1.237332e+02
3.659505e-01,1.200506e+02,1.694449e+02,1.269323e+02,1.279718e+02,1.247860e+02,1.234457e+02
3.715571e-01,1.188802e+02,1.703985e+02,1.268722e+02,1.279681e+02,1.243191e+02,1.231043e+02
3.761157e-01,1.184188e+02,1.710987e+02,1.268611e+02,1.279998e+02,1.239492e+02,1.227587e+02
3.828925e-01,1.178407e+02,1.720252e+02,1.268521e+02,1.280681e+02,1.234701e+02,1.221218e+02
3.874512e-01,1.166469e+02,1.726188e+02,1.268659e+02,1.281156e+02,1.232225e+02,1.216337e+02
3.930579e-01,1.168187e+02,1.733833e+02,1.268802e+02,1.281556e+02,1.230130e+02,1.210337e+02
3.986645e-01,1.166988e+02,1.743016e+02,1.269095e+02,1.281569e+02,1.228906e+02,1.205108e+02
4.032231e-01,1.162281e+02,1.752061e+02,1.269103e+02,1.281236e+02,1.228268e+02,1.202086e+02
4.100000e-01,1.175440e+02,1.768267e+02,1.268893e+02,1.280177e+02,1.227227e+02,1.199569e+02
4.145587e-01,1.177636e+02,1.780279e+02,1.268274e+02,1.279106e+02,1.226148e+02,1.198643e+02
4.201653e-01,1.173232e+02,1.795555e+02,1.267401e+02,1.277565e+02,1.224116e+02,1.197274e+02
4.257719e-01,1.183663e+02,1.809931e+02,1.266080e+02,1.276036e+02,1.221184e+02,1.194861e+02
4.303306e-01,1.186404e+02,1.820811e+02,1.264841e+02,1.275026e+02,1.218321e+02,1.191572e+02
4.371075e-01,1.182212e+02,1.834280e+02,1.262331e+02,1.274146e+02,1.213838e+02,1.184438e+02
4.416661e-01,1.186486e+02,1.841685e+02,1.260309e+02,1.274059e+02,1.211252e+02,1.178464e+02
4.472727e-01,1.186803e+02,1.848903e+02,1.257508e+02,1.274503e+02,1.209414e+02,1.170894e+02
4.528794e-01,1.186708e+02,1.854177e+02,1.254551e+02,1.275345e+02,1.209718e+02,1.164882e+02
4.574380e-01,1.197279e+02,1.857706e+02,1.251973e+02,1.276131e+02,1.211636e+02,1.162305e+02
4.642149e-01,1.197952e+02,1.864035e+02,1.248394e+02,1.277076e+02,1.216534e+02,1.162308e+02
4.687736e-01,1.192332e+02,1.870719e+02,1.246069e+02,1.277353e+02,1.220517e+02,1.163552e+02
4.743802e-01,1.187202e+02,1.882629e+02,1.244067e+02,1.277102e+02,1.225148e+02,1.164568e+02
4.799868e-01,1.196785e+02,1.899010e+02,1.242441e+02,1.276188e+02,1.228825e+02,1.163366e+02
4.845455e-01,1.192770e+02,1.913905e+02,1.241916e+02,1.275012e+02,1.230668e+02,1.160165e+02
4.913224e-01,1.182312e+02,1.936256e+02,1.241929e+02,1.272795e+02,1.230859e+02,1.151293e+02
4.958810e-01,1.189754e+02,1.949620e+02,1.242582e+02,1.271255e+02,1.228898e+02,1.142890e+02
5.014876e-01,1.176845e+02,1.963904e+02,1.243942e+02,1.269570e+02,1.223878e+02,1.131546e+02
5.070943e-01,1.169240e+02,1.975246e+02,1.245581e+02,1.268550e+02,1.215689e+02,1.122602e+02
5.138712e-01,1.175863e+02,1.983981e+02,1.247587e+02,1.268590e+02,1.201701e+02,1.120865e+02
5.184298e-01,1.162315e+02,1.986419e+02,1.248813e+02,1.269323e+02,1.190934e+02,1.124772e+02
5.229884e-01,1.145330e+02,1.986330e+02,1.249787e+02,1.270475e+02,1.181740e+02,1.129905e+02
5.297652e-01,1.158353e+02,1.981423e+02,1.250698e+02,1.272501e+02,1.179388e+02,1.135225e+02
5.342017e-01,1.139353e+02,1.977086e+02,1.250777e+02,1.273618e+02,1.186766e+02,1.135539e+02
5.409786e-01,1.111963e+02,1.978351e+02,1.250082e+02,1.274586e+02,1.203489e+02,1.129897e+02
5.455372e-01,1.122783e+02,1.991334e+02,1.249029e+02,1.274530e+02,1.213845e+02,1.121399e+02
5.500958e-01,1.107961e+02,2.011510e+02,1.247438e+02,1.273822e+02,1.221838e+02,1.108945e+02
5.568726e-01,1.054069e+02,2.044001e+02,1.244083e+02,1.271521e+02,1.228503e+02,1.084718e+02
5.624794e-01,1.127413e+02,2.067489e+02,1.240424e+02,1.268735e+02,1.229060e+02,1.068592e+02
5.680861e-01,1.133039e+02,2.087969e+02,1.235940e+02,1.265450e+02,1.224867e+02,1.071429e+02
5.726446e-01,1.106659e+02,2.101046e+02,1.231809e+02,1.262772e+02,1.217698e+02,1.084706e+02
5.794215e-01,1.152849e+02,2.116451e+02,1.225044e+02,1.259572e+02,1.199914e+02,1.104389e+02
5.839801e-01,1.165916e+02,2.122832e+02,1.220298e+02,1.258384e+02,1.182392e+02,1.113307e+02
5.895869e-01,1.162965e+02,2.127714e+02,1.214650e+02,1.258218e+02,1.154511e+02,1.118898e+02
5.951935e-01,1.176540e+02,2.127902e+02,1.209615e+02,1.259441e+02,1.127528e+02,1.118803e+02
5.997520e-01,1.184307e+02,2.124278e+02,1.206290e+02,1.261193e+02,1.125653e+02,1.114702e+02
6.065289e-01,1.177010e+02,2.111917e+02,1.203031e+02,1.264356e+02,1.153819e+02,1.101712e+02
6.110876e-01,1.192694e+02,2.100223e+02,1.202018e+02,1.266485e+02,1.173082e+02,1.087700e+02
6.166943e-01,1.204505e+02,2.081461e+02,1.201927e+02,1.268816e+02,1.191130e+02,1.063048e+02
6.223009e-01,1.205330e+02,2.064484e+02,1.202827e+02,1.270553e+02,1.203750e+02,1.027972e+02
6.268595e-01,1.201438e+02,2.057352e+02,1.204002e+02,1.271537e+02,1.210956e+02,9.964713e+01
6.336364e-01,1.217025e+02,2.069245e+02,1.205996e+02,1.272293e+02,1.217909e+02,1.007594e+02
6.381950e-01,1.212400e+02,2.082916e+02,1.207362e+02,1.272411e+02,1.220608e+02,1.038814e+02
6.438017e-01,1.205756e+02,2.096655e+02,1.208844e+02,1.272190e+02,1.222258e+02,1.068959e+02
6.494083e-01,1.217271e+02,2.105048e+02,1.210243e+02,1.271781e+02,1.222412e+02,1.089809e+02
6.539669e-01,1.215953e+02,2.112125e+02,1.211142e+02,1.271429e+02,1.221638e+02,1.102010e+02
6.607438e-01,1.202668e+02,2.116438e+02,1.212023e+02,1.270994e+02,1.219347e+02,1.114466e+02
6.653025e-01,1.211283e+02,2.117415e+02,1.212393e+02,1.270848e+02,1.217211e+02,1.119768e+02
6.709091e-01,1.206242e+02,2.115621e+02,1.212697e+02,1.270857e+02,1.214180e+02,1.123418e+02
6.765157e-01,1.190569e+02,2.114025e+02,1.212728e+02,1.271032e+02,1.211011e+02,1.124138e+02
6.810744e-01,1.199574e+02,2.109930e+02,1.212576e+02,1.271229e+02,1.208596e+02,1.122658e+02
6.878513e-01,1.186295e+02,2.104930e+02,1.212202e+02,1.271539e+02,1.205760e+02,1.116892e+02
6.924099e-01,1.174449e+02,2.098402e+02,1.211958e+02,1.271693e+02,1.204568e+02,1.110400e+02
6.980165e-01,1.182848e+02,2.093081e+02,1.211602e+02,1.271756e+02,1.203985e+02,1.099078e+02
7.036232e-01,1.177867e+02,2.084616e+02,1.211410e+02,1.271611e+02,1.204225e+02,1.083298e+02
7.081818e-01,1.163126e+02,2.081948e+02,1.211191e+02,1.271401e+02,1.204851e+02,1.066101e+02
7.149587e-01,1.174122e+02,2.063834e+02,1.211182e+02,1.270912e+02,1.206005e+02,1.030050e+02
7.195173e-01,1.181253e+02,2.065594e+02,1.211211e+02,1.270519e+02,1.206707e+02,9.950396e+01
7.251239e-01,1.170506e+02,2.050425e+02,1.211463e+02,1.270131e+02,1.207360e+02,9.451663e+01
7.307306e-01,1.181080e+02,2.061791e+02,1.211704e+02,1.269853e+02,1.207625e+02,9.651948e+01
7.375075e-01,1.197116e+02,2.058269e+02,1.212103e+02,1.269795e+02,1.207622e+02,1.016291e+02
7.420661e-01,1.192294e+02,2.068576e+02,1.212368e+02,1.269923e+02,1.207526e+02,1.038965e+02
7.466247e-01,1.194017e+02,2.065767e+02,1.212562e+02,1.270172e+02,1.207446e+02,1.055167e+02
7.534015e-01,1.208764e+02,2.069235e+02,1.212930e+02,1.270718e+02,1.207534e+02,1.071326e+02
7.578381e-01,1.208826e+02,2.071542e+02,1.213074e+02,1.271096e+02,1.207780e+02,1.078213e+02
7.646150e-01,1.206202e+02,2.074747e+02,1.213037e+02,1.271560e+02,1.208338e+02,1.084464e+02
7.691736e-01,1.214194e+02,2.073174e+02,1.212943e+02,1.271764e+02,1.208760e+02,1.086323e+02
7.737321e-01,1.216321e+02,2.073945e+02,1.212772e+02,1.271838e+02,1.209098e+02,1.086568e+02
7.805090e-01,1.211458e+02,2.071421e+02,1.212429e+02,1.271657e+02,1.209290e+02,1.084370e+02
7.861157e-01,1.216395e+02,2.072897e+02,1.212020e+02,1.271245e+02,1.209092e+02,1.080626e+02
7.917224e-01,1.215748e+02,2.075059e+02,1.211482e+02,1.270694e+02,1.208559e+02,1.075550e+02
7.962810e-01,1.212212e+02,2.072418e+02,1.211063e+02,1.270183e+02,1.207926e+02,1.070890e+02
8.030578e-01,1.213268e+02,2.074637e+02,1.210476e+02,1.269356e+02,1.206830e+02,1.064096e+02
8.076165e-01,1.213277e+02,2.070710e+02,1.210181e+02,1.268812e+02,1.206073e+02,1.060315e+02
8.132232e-01,1.211869e+02,2.067615e+02,1.209796e+02,1.268203e+02,1.205167e+02,1.057109e+02
