x(m),SPL1,SPL2,SPL3,SPL4,SPL5,SPL6
0.000000e+00,1.199290e+02,1.204150e+02,1.204540e+02,1.197030e+02,1.201150e+02,1.196130e+02
5.421562e-03,1.201172e+02,1.201804e+02,1.203643e+02,1.192302e+02,1.198336e+02,1.194092e+02
1.419383e-02,1.203754e+02,1.196462e+02,1.206419e+02,1.184692e+02,1.198270e+02,1.190454e+02
1.961540e-02,1.205559e+02,1.193087e+02,1.210874e+02,1.181493e+02,1.200852e+02,1.187608e+02
2.503695e-02,1.206912e+02,1.188621e+02,1.215119e+02,1.178130e+02,1.202809e+02,1.182646e+02
3.380921e-02,1.209969e+02,1.182525e+02,1.223300e+02,1.177351e+02,1.206421e+02,1.175786e+02
3.923076e-02,1.212537e+02,1.178739e+02,1.227722e+02,1.179350e+02,1.208442e+02,1.174816e+02
4.465232e-02,1.214383e+02,1.174074e+02,1.230798e+02,1.181974e+02,1.208679e+02,1.173994e+02
5.342460e-02,1.216808e+02,1.167077e+02,1.233704e+02,1.187706e+02,1.206870e+02,1.176975e+02
5.884616e-02,1.218026e+02,1.163697e+02,1.234247e+02,1.191318e+02,1.204838e+02,1.180505e+02
6.426772e-02,1.218418e+02,1.161752e+02,1.234486e+02,1.195470e+02,1.203932e+02,1.186178e+02
7.303998e-02,1.219555e+02,1.163077e+02,1.232335e+02,1.199684e+02,1.200747e+02,1.192108e+02
8.388310e-02,1.220813e+02,1.169666e+02,1.226052e+02,1.201042e+02,1.199481e+02,1.198045e+02
9.265536e-02,1.221506e+02,1.176246e+02,1.218607e+02,1.198962e+02,1.201562e+02,1.201676e+02
9.807691e-02,1.221907e+02,1.180388e+02,1.213850e+02,1.196592e+02,1.203511e+02,1.203218e+02
1.034985e-01,1.221173e+02,1.184856e+02,1.209220e+02,1.193260e+02,1.205247e+02,1.204697e+02
1.122708e-01,1.219262e+02,1.191513e+02,1.203500e+02,1.186498e+02,1.206917e+02,1.204675e+02
1.176923e-01,1.217965e+02,1.195286e+02,1.202343e+02,1.182375e+02,1.206985e+02,1.203064e+02
1.231139e-01,1.216725e+02,1.198476e+02,1.203640e+02,1.179164e+02,1.206033e+02,1.199806e+02
1.318861e-01,1.214779e+02,1.201681e+02,1.208529e+02,1.175971e+02,1.201717e+02,1.189368e+02
1.373077e-01,1.213742e+02,1.202987e+02,1.212967e+02,1.176445e+02,1.198395e+02,1.180070e+02
1.427292e-01,1.212989e+02,1.204004e+02,1.218487e+02,1.179845e+02,1.196526e+02,1.170757e+02
1.515015e-01,1.210834e+02,1.205209e+02,1.226703e+02,1.186875e+02,1.193273e+02,1.150108e+02
1.569231e-01,1.209119e+02,1.205021e+02,1.230918e+02,1.191734e+02,1.193726e+02,1.142485e+02
1.623446e-01,1.206489e+02,1.203546e+02,1.233602e+02,1.195441e+02,1.195647e+02,1.143937e+02
1.711169e-01,1.202363e+02,1.200259e+02,1.236668e+02,1.200988e+02,1.202109e+02,1.161285e+02
1.765385e-01,1.199859e+02,1.197823e+02,1.237793e+02,1.203777e+02,1.206959e+02,1.174328e+02
1.819600e-01,1.197732e+02,1.195758e+02,1.238849e+02,1.206521e+02,1.212176e+02,1.185901e+02
1.907323e-01,1.195582e+02,1.191423e+02,1.238329e+02,1.208234e+02,1.217775e+02,1.199514e+02
1.961538e-01,1.195001e+02,1.188186e+02,1.236454e+02,1.207491e+02,1.219608e+02,1.204881e+02
2.015754e-01,1.194342e+02,1.184333e+02,1.234667e+02,1.207053e+02,1.222123e+02,1.210001e+02
2.103477e-01,1.192146e+02,1.177795e+02,1.230416e+02,1.204590e+02,1.223080e+02,1.213402e+02
2.157692e-01,1.190621e+02,1.175321e+02,1.227954e+02,1.202832e+02,1.222856e+02,1.214139e+02
2.211908e-01,1.188889e+02,1.171511e+02,1.223800e+02,1.199552e+02,1.221664e+02,1.214141e+02
2.299631e-01,1.186732e+02,1.166021e+02,1.217200e+02,1.194340e+02,1.219036e+02,1.212555e+02
2.408062e-01,1.185211e+02,1.160479e+02,1.210914e+02,1.189287e+02,1.216150e+02,1.210550e+02
2.495784e-01,1.185207e+02,1.158188e+02,1.205783e+02,1.184302e+02,1.211699e+02,1.206608e+02
2.550000e-01,1.185771e+02,1.157257e+02,1.201621e+02,1.180246e+02,1.208584e+02,1.204033e+02
2.604215e-01,1.184910e+02,1.155457e+02,1.197739e+02,1.176793e+02,1.206695e+02,1.202081e+02
2.691938e-01,1.182827e+02,1.152310e+02,1.192610e+02,1.171880e+02,1.203142e+02,1.197405e+02
2.746154e-01,1.181425e+02,1.150545e+02,1.190156e+02,1.169440e+02,1.200972e+02,1.194243e+02
2.800369e-01,1.180647e+02,1.150315e+02,1.187909e+02,1.166516e+02,1.198876e+02,1.191531e+02
2.888092e-01,1.179851e+02,1.148276e+02,1.182664e+02,1.161417e+02,1.194748e+02,1.186169e+02
2.942308e-01,1.179620e+02,1.147049e+02,1.179522e+02,1.158491e+02,1.192306e+02,1.183366e+02
2.996523e-01,1.179684e+02,1.146219e+02,1.177807e+02,1.157031e+02,1.192143e+02,1.182829e+02
3.084246e-01,1.179461e+02,1.144709e+02,1.175471e+02,1.153885e+02,1.188267e+02,1.179271e+02
3.138461e-01,1.179226e+02,1.143995e+02,1.173385e+02,1.151045e+02,1.185185e+02,1.177256e+02
3.192677e-01,1.178531e+02,1.142682e+02,1.170185e+02,1.148018e+02,1.183998e+02,1.176494e+02
3.280400e-01,1.177467e+02,1.140707e+02,1.166205e+02,1.144229e+02,1.181452e+02,1.173845e+02
3.334615e-01,1.177126e+02,1.139731e+02,1.164473e+02,1.142588e+02,1.179822e+02,1.172027e+02
3.388831e-01,1.177622e+02,1.139219e+02,1.163555e+02,1.140733e+02,1.178177e+02,1.170555e+02
3.476554e-01,1.177727e+02,1.137767e+02,1.159605e+02,1.136570e+02,1.175116e+02,1.167218e+02
3.530769e-01,1.177937e+02,1.136690e+02,1.156962e+02,1.134015e+02,1.173461e+02,1.165478e+02
3.584985e-01,1.178326e+02,1.134915e+02,1.154712e+02,1.132418e+02,1.174108e+02,1.165565e+02
3.672707e-01,1.178884e+02,1.133320e+02,1.152661e+02,1.130079e+02,1.171330e+02,1.163536e+02
3.726923e-01,1.179362e+02,1.133263e+02,1.151655e+02,1.128525e+02,1.169678e+02,1.163098e+02
3.781139e-01,1.179500e+02,1.131926e+02,1.148995e+02,1.125230e+02,1.168092e+02,1.162422e+02
3.868861e-01,1.179661e+02,1.129484e+02,1.144580e+02,1.120555e+02,1.165534e+02,1.161100e+02
3.977293e-01,1.179175e+02,1.126783e+02,1.140527e+02,1.117750e+02,1.162443e+02,1.159420e+02
4.065015e-01,1.179377e+02,1.125175e+02,1.137902e+02,1.114925e+02,1.159165e+02,1.156175e+02
4.065015e-01,1.179377e+02,1.125175e+02,1.137902e+02,1.114925e+02,1.159165e+02,1.156175e+02
4.173446e-01,1.179882e+02,1.123789e+02,1.133447e+02,1.110040e+02,1.156232e+02,1.153059e+02
4.261169e-01,1.179427e+02,1.121690e+02,1.129564e+02,1.106781e+02,1.154046e+02,1.150670e+02
4.315385e-01,1.178957e+02,1.120280e+02,1.128590e+02,1.105841e+02,1.153109e+02,1.149886e+02
4.369600e-01,1.177624e+02,1.119125e+02,1.126290e+02,1.102834e+02,1.151751e+02,1.149065e+02
4.457323e-01,1.175495e+02,1.117262e+02,1.122369e+02,1.098138e+02,1.149655e+02,1.147916e+02
4.511538e-01,1.174224e+02,1.116163e+02,1.119857e+02,1.095346e+02,1.148207e+02,1.147162e+02
4.565754e-01,1.173634e+02,1.115290e+02,1.118041e+02,1.094336e+02,1.147673e+02,1.147308e+02
4.653477e-01,1.173012e+02,1.113526e+02,1.115596e+02,1.091649e+02,1.144139e+02,1.144125e+02
4.707692e-01,1.173160e+02,1.112453e+02,1.113795e+02,1.088850e+02,1.141436e+02,1.141765e+02
4.761908e-01,1.171480e+02,1.110867e+02,1.111054e+02,1.086348e+02,1.139646e+02,1.140108e+02
4.849631e-01,1.168182e+02,1.108562e+02,1.107187e+02,1.083112e+02,1.136648e+02,1.136604e+02
4.903846e-01,1.166114e+02,1.107491e+02,1.105231e+02,1.081597e+02,1.135062e+02,1.134936e+02
4.958062e-01,1.164726e+02,1.106904e+02,1.104087e+02,1.079808e+02,1.133661e+02,1.134302e+02
5.045784e-01,1.163642e+02,1.105233e+02,1.100077e+02,1.075690e+02,1.131168e+02,1.133089e+02
5.100000e-01,1.163464e+02,1.104105e+02,1.097426e+02,1.073178e+02,1.129915e+02,1.132724e+02
5.154216e-01,1.163601e+02,1.102380e+02,1.095208e+02,1.072423e+02,1.130729e+02,1.133807e+02
5.241938e-01,1.163640e+02,1.100978e+02,1.092771e+02,1.069573e+02,1.128673e+02,1.131707e+02
5.296154e-01,1.163195e+02,1.100725e+02,1.091013e+02,1.066593e+02,1.126418e+02,1.129536e+02
5.350369e-01,1.162850e+02,1.099977e+02,1.087873e+02,1.063899e+02,1.125416e+02,1.127811e+02
5.438092e-01,1.162611e+02,1.097902e+02,1.083674e+02,1.060215e+02,1.122546e+02,1.123267e+02
5.546523e-01,1.164589e+02,1.095668e+02,1.080819e+02,1.056262e+02,1.117591e+02,1.119207e+02
5.634246e-01,1.165505e+02,1.093795e+02,1.077214e+02,1.051312e+02,1.112966e+02,1.117595e+02
5.634246e-01,1.165505e+02,1.093795e+02,1.077214e+02,1.051312e+02,1.112966e+02,1.117595e+02
5.742677e-01,1.167160e+02,1.091746e+02,1.072827e+02,1.047109e+02,1.110882e+02,1.119401e+02
5.830400e-01,1.168727e+02,1.089755e+02,1.070784e+02,1.044952e+02,1.108992e+02,1.118997e+02
5.884615e-01,1.169997e+02,1.088621e+02,1.069923e+02,1.043296e+02,1.108576e+02,1.118250e+02
5.938831e-01,1.170461e+02,1.086728e+02,1.067541e+02,1.040231e+02,1.108027e+02,1.116282e+02
6.026554e-01,1.171067e+02,1.083814e+02,1.063374e+02,1.036528e+02,1.107355e+02,1.111447e+02
6.080769e-01,1.171307e+02,1.082114e+02,1.060562e+02,1.034741e+02,1.106535e+02,1.108053e+02
6.134985e-01,1.171214e+02,1.081018e+02,1.058874e+02,1.035057e+02,1.105639e+02,1.105755e+02
6.222707e-01,1.171438e+02,1.079358e+02,1.055815e+02,1.032689e+02,1.101382e+02,1.102071e+02
6.276923e-01,1.171356e+02,1.078384e+02,1.053447e+02,1.029866e+02,1.097653e+02,1.100993e+02
6.331139e-01,1.171528e+02,1.077364e+02,1.050383e+02,1.027802e+02,1.095060e+02,1.102899e+02
6.418861e-01,1.170536e+02,1.075629e+02,1.045390e+02,1.024123e+02,1.089832e+02,1.104671e+02
6.473077e-01,1.169183e+02,1.075066e+02,1.043747e+02,1.022539e+02,1.087734e+02,1.105250e+02
6.527293e-01,1.167414e+02,1.074668e+02,1.040715e+02,1.018435e+02,1.085793e+02,1.104497e+02
6.615015e-01,1.164269e+02,1.074020e+02,1.035982e+02,1.011807e+02,1.085020e+02,1.100717e+02
6.669231e-01,1.162262e+02,1.073658e+02,1.033333e+02,1.007782e+02,1.085456e+02,1.097125e+02
6.723446e-01,1.160452e+02,1.073541e+02,1.032061e+02,1.005900e+02,1.087644e+02,1.094148e+02
6.811169e-01,1.158167e+02,1.073029e+02,1.030633e+02,1.002101e+02,1.087815e+02,1.087367e+02
6.865385e-01,1.157299e+02,1.072904e+02,1.029826e+02,9.989511e+01,1.086544e+02,1.085111e+02
6.919600e-01,1.154404e+02,1.071800e+02,1.028492e+02,9.968395e+01,1.085465e+02,1.085836e+02
7.007323e-01,1.148762e+02,1.069753e+02,1.027373e+02,9.954914e+01,1.081136e+02,1.088720e+02
7.115754e-01,1.142539e+02,1.067178e+02,1.027401e+02,9.962917e+01,1.072305e+02,1.092441e+02
7.203477e-01,1.140116e+02,1.063495e+02,1.025147e+02,9.957980e+01,1.063811e+02,1.090779e+02
7.203477e-01,1.140116e+02,1.063495e+02,1.025147e+02,9.957980e+01,1.063811e+02,1.090779e+02
7.311908e-01,1.141551e+02,1.056438e+02,1.020780e+02,9.960964e+01,1.060188e+02,1.083751e+02
7.399631e-01,1.143577e+02,1.050878e+02,1.017208e+02,9.946677e+01,1.060939e+02,1.072158e+02
7.453846e-01,1.144702e+02,1.048078e+02,1.013715e+02,9.919402e+01,1.062396e+02,1.065309e+02
7.508062e-01,1.144978e+02,1.044569e+02,1.007949e+02,9.884525e+01,1.066097e+02,1.062382e+02
7.595785e-01,1.146595e+02,1.038556e+02,9.981084e+01,9.817758e+01,1.070620e+02,1.065436e+02
7.650000e-01,1.148229e+02,1.035627e+02,9.920196e+01,9.768074e+01,1.071826e+02,1.071676e+02
7.704216e-01,1.152248e+02,1.034138e+02,9.863615e+01,9.705353e+01,1.071329e+02,1.079183e+02
7.791938e-01,1.156245e+02,1.034479e+02,9.749138e+01,9.576217e+01,1.066633e+02,1.088020e+02
7.846154e-01,1.158493e+02,1.036144e+02,9.685457e+01,9.491011e+01,1.061693e+02,1.091114e+02
7.900369e-01,1.160213e+02,1.039000e+02,9.643381e+01,9.420014e+01,1.057337e+02,1.093253e+02
7.988092e-01,1.162301e+02,1.043561e+02,9.628371e+01,9.338146e+01,1.043090e+02,1.088990e+02
8.042308e-01,1.163465e+02,1.046223e+02,9.652334e+01,9.320300e+01,1.033073e+02,1.083219e+02
8.096523e-01,1.164657e+02,1.048870e+02,9.673596e+01,9.294737e+01,1.023395e+02,1.074333e+02
8.184246e-01,1.166299e+02,1.052505e+02,9.718930e+01,9.306035e+01,1.011266e+02,1.051730e+02
8.238462e-01,1.167277e+02,1.054361e+02,9.745888e+01,9.329501e+01,1.007874e+02,1.031199e+02
8.292677e-01,1.167782e+02,1.056144e+02,9.776934e+01,9.388411e+01,1.007996e+02,1.004793e+02
8.380400e-01,1.168755e+02,1.058136e+02,9.825351e+01,9.448105e+01,1.013166e+02,9.422262e+01
8.434615e-01,1.168832e+02,1.058929e+02,9.846405e+01,9.474724e+01,1.017235e+02,9.420268e+01
8.488831e-01,1.169181e+02,1.059785e+02,9.861207e+01,9.493553e+01,1.022973e+02,9.816409e+01
8.576554e-01,1.169138e+02,1.060352e+02,9.873187e+01,9.516901e+01,1.029661e+02,1.029127e+02
8.684985e-01,1.169020e+02,1.060576e+02,9.885821e+01,9.537156e+01,1.035341e+02,1.062310e+02
8.684985e-01,1.169020e+02,1.060576e+02,9.885821e+01,9.537156e+01,1.035341e+02,1.062310e+02
8.772708e-01,1.168415e+02,1.060349e+02,9.884148e+01,9.540434e+01,1.038117e+02,1.077732e+02
8.881139e-01,1.168293e+02,1.060984e+02,9.891115e+01,9.542626e+01,1.040407e+02,1.089139e+02
8.968861e-01,1.169025e+02,1.061614e+02,9.892393e+01,9.545435e+01,1.039849e+02,1.091448e+02
9.023077e-01,1.169869e+02,1.061586e+02,9.890243e+01,9.542216e+01,1.038980e+02,1.090903e+02
9.077292e-01,1.169506e+02,1.060981e+02,9.882735e+01,9.538261e+01,1.038706e+02,1.089480e+02
9.165015e-01,1.168481e+02,1.060388e+02,9.881512e+01,9.534483e+01,1.037633e+02,1.082654e+02
9.219231e-01,1.167886e+02,1.060434e+02,9.886287e+01,9.536629e+01,1.036987e+02,1.076489e+02
9.273446e-01,1.168064e+02,1.061028e+02,9.889717e+01,9.535406e+01,1.036310e+02,1.068986e+02
9.361169e-01,1.168117e+02,1.060756e+02,9.887941e+01,9.531110e+01,1.034805e+02,1.053434e+02
9.415385e-01,1.168296e+02,1.060578e+02,9.885909e+01,9.529765e+01,1.034087e+02,1.042985e+02
9.469600e-01,1.168357e+02,1.060149e+02,9.882390e+01,9.538277e+01,1.035040e+02,1.034503e+02
9.557323e-01,1.168546e+02,1.060495e+02,9.889455e+01,9.539321e+01,1.034510e+02,1.022824e+02
9.611538e-01,1.168265e+02,1.060565e+02,9.887555e+01,9.533563e+01,1.033814e+02,1.020611e+02
9.665754e-01,1.168495e+02,1.061005e+02,9.886461e+01,9.534590e+01,1.034589e+02,1.024665e+02
9.753477e-01,1.168578e+02,1.060760e+02,9.879540e+01,9.533020e+01,1.034925e+02,1.034012e+02
9.807692e-01,1.168793e+02,1.060551e+02,9.877078e+01,9.533488e+01,1.035115e+02,1.040127e+02
9.861908e-01,1.168890e+02,1.060274e+02,9.877639e+01,9.529856e+01,1.034884e+02,1.045224e+02
9.949631e-01,1.168490e+02,1.059689e+02,9.867871e+01,9.521498e+01,1.034513e+02,1.051023e+02
1.000385e+00,1.168378e+02,1.059617e+02,9.863530e+01,9.517379e+01,1.034328e+02,1.053027e+02
1.005806e+00,1.168996e+02,1.060675e+02,9.871281e+01,9.525838e+01,1.034923e+02,1.054383e+02
1.014578e+00,1.169418e+02,1.059307e+02,9.854599e+01,9.505606e+01,1.033164e+02,1.053021e+02
