NaN,0.068,0.054,0.080,0.065,0.050,0.064,0.075,0.033
0.014,0.077,0.063,0.090,0.053,0.061,0.076,0.081,0.031
0.037,0.085,0.069,0.089,0.058,0.071,0.085,0.080,0.034
0.048,0.088,0.075,0.084,0.065,0.083,0.090,0.083,0.045
0.056,0.068,0.078,0.088,0.069,0.088,0.096,0.085,0.048
0.061,0.053,0.083,0.087,0.074,0.095,0.099,0.088,0.051
0.067,0.055,0.086,0.075,0.080,0.098,0.106,0.097,0.057
0.078,0.060,0.091,0.069,0.092,0.104,0.110,0.091,0.063
0.078,0.064,0.101,0.076,0.099,0.109,0.100,0.073,0.069
0.064,0.070,0.093,0.082,0.106,0.118,0.099,0.069,0.072
0.067,0.080,0.083,0.097,0.113,0.120,0.100,0.070,0.074
0.069,0.086,0.085,0.106,0.118,0.109,0.102,0.068,0.077
0.071,0.090,0.088,0.112,0.127,0.108,0.103,0.071,0.087
0.073,0.093,0.090,0.115,0.125,0.108,0.106,0.075,0.085
0.073,0.096,0.091,0.117,0.115,0.107,0.107,0.083,0.072
0.072,0.097,0.091,0.118,0.113,0.106,0.109,0.088,0.071
0.069,0.102,0.093,0.118,0.110,0.103,0.105,0.090,0.071
0.068,0.099,0.101,0.114,0.107,0.100,0.101,0.093,0.072
0.067,0.079,0.105,0.103,0.103,0.097,0.097,0.094,0.071
0.064,0.071,0.104,0.102,0.100,0.093,0.099,0.095,0.070
0.071,0.069,0.102,0.088,0.097,0.089,0.091,0.099,0.067
0.057,0.068,0.104,0.069,0.095,0.089,0.073,0.090,0.067
0.022,0.067,0.075,0.064,0.093,0.088,0.071,0.079,0.067
0.010,0.066,0.047,0.063,0.090,0.092,0.070,0.077,0.066
NaN,0.063,0.034,0.063,0.087,0.086,0.067,0.076,0.064
NaN,0.061,0.031,0.069,0.090,0.067,0.064,0.074,0.067
0.010,0.056,0.052,0.069,0.072,0.056,0.057,0.069,0.050
