$MeshFormat
2.2 0 8
$EndMeshFormat
$PhysicalNames
5
1 1 "bottom wall"
1 2 "right wall"
1 3 "top wall"
1 4 "left wall"
2 5 "air"
$EndPhysicalNames
$Nodes
16
1 0 0 0
2 1 0 0
3 1 1 0
4 0 1 0
5 0.333333333332501 0 0
6 0.6666666666657874 0 0
7 1 0.6666666666675918 0
8 1 0.3333333333347207 0
9 0.6666666666675918 1 0
10 0.3333333333347207 1 0
11 0 0.6666666666675918 0
12 0 0.3333333333347207 0
13 0.3333333333339807 0.6666666666675918 0
14 0.6666666666669905 0.6666666666675918 0
15 0.3333333333332409 0.3333333333347207 0
16 0.666666666666389 0.3333333333347207 0
$EndNodes
$Elements
30
1 1 2 1 1 1 5
2 1 2 1 1 5 6
3 1 2 1 1 6 2
4 1 2 2 2 3 7
5 1 2 2 2 7 8
6 1 2 2 2 8 2
7 1 2 3 3 3 9
8 1 2 3 3 9 10
9 1 2 3 3 10 4
10 1 2 4 4 4 11
11 1 2 4 4 11 12
12 1 2 4 4 12 1
13 2 2 5 6 4 11 10
14 2 2 5 6 10 11 13
15 2 2 5 6 10 13 9
16 2 2 5 6 9 13 14
17 2 2 5 6 9 14 3
18 2 2 5 6 3 14 7
19 2 2 5 6 11 12 13
20 2 2 5 6 13 12 15
21 2 2 5 6 13 15 14
22 2 2 5 6 14 15 16
23 2 2 5 6 14 16 7
24 2 2 5 6 7 16 8
25 2 2 5 6 12 1 15
26 2 2 5 6 15 1 5
27 2 2 5 6 15 5 16
28 2 2 5 6 16 5 6
29 2 2 5 6 16 6 8
30 2 2 5 6 8 6 2
$EndElements
