x(m),SPL1,SPL2,SPL3,SPL4,SPL5,SPL6
0.000000e+00,1.300340e+02,1.299480e+02,1.302670e+02,1.299290e+02,1.303380e+02,1.302590e+02
9.065694e-03,1.307369e+02,1.308171e+02,1.292453e+02,1.298126e+02,1.297719e+02,1.298399e+02
9.065694e-03,1.307369e+02,1.308171e+02,1.292453e+02,1.298126e+02,1.297719e+02,1.298399e+02
1.685536e-02,1.312692e+02,1.318527e+02,1.283282e+02,1.299792e+02,1.292907e+02,1.300657e+02
2.373430e-02,1.317333e+02,1.327012e+02,1.275819e+02,1.301390e+02,1.289449e+02,1.306879e+02
2.373430e-02,1.317333e+02,1.327012e+02,1.275819e+02,1.301390e+02,1.289449e+02,1.306879e+02
3.279999e-02,1.323633e+02,1.338165e+02,1.270869e+02,1.302578e+02,1.287982e+02,1.311187e+02
4.186569e-02,1.329884e+02,1.343495e+02,1.272647e+02,1.298975e+02,1.289220e+02,1.305469e+02
4.186569e-02,1.329884e+02,1.343495e+02,1.272647e+02,1.298975e+02,1.289220e+02,1.305469e+02
4.186569e-02,1.329884e+02,1.343495e+02,1.272647e+02,1.298975e+02,1.289220e+02,1.305469e+02
5.653431e-02,1.339040e+02,1.349082e+02,1.283452e+02,1.291982e+02,1.296511e+02,1.288491e+02
5.653431e-02,1.339040e+02,1.349082e+02,1.283452e+02,1.291982e+02,1.296511e+02,1.288491e+02
6.560001e-02,1.343326e+02,1.350042e+02,1.291797e+02,1.291093e+02,1.298349e+02,1.286173e+02
7.466571e-02,1.343920e+02,1.350827e+02,1.300511e+02,1.296859e+02,1.297887e+02,1.297592e+02
7.466571e-02,1.343920e+02,1.350827e+02,1.300511e+02,1.296859e+02,1.297887e+02,1.297592e+02
7.466571e-02,1.343920e+02,1.350827e+02,1.300511e+02,1.296859e+02,1.297887e+02,1.297592e+02
8.933431e-02,1.343907e+02,1.364446e+02,1.302969e+02,1.299856e+02,1.286130e+02,1.309124e+02
8.933431e-02,1.343907e+02,1.364446e+02,1.302969e+02,1.299856e+02,1.286130e+02,1.309124e+02
9.840000e-02,1.343582e+02,1.381472e+02,1.299406e+02,1.300175e+02,1.285486e+02,1.313040e+02
1.074657e-01,1.343174e+02,1.398772e+02,1.293261e+02,1.301558e+02,1.294214e+02,1.318823e+02
1.074657e-01,1.343174e+02,1.398772e+02,1.293261e+02,1.301558e+02,1.294214e+02,1.318823e+02
1.074657e-01,1.343174e+02,1.398772e+02,1.293261e+02,1.301558e+02,1.294214e+02,1.318823e+02
1.221343e-01,1.340629e+02,1.422044e+02,1.277186e+02,1.295694e+02,1.296891e+02,1.317044e+02
1.221343e-01,1.340629e+02,1.422044e+02,1.277186e+02,1.295694e+02,1.296891e+02,1.317044e+02
1.312000e-01,1.337597e+02,1.436274e+02,1.270639e+02,1.292096e+02,1.292987e+02,1.313801e+02
1.402657e-01,1.332731e+02,1.442516e+02,1.270558e+02,1.293038e+02,1.287105e+02,1.299673e+02
1.402657e-01,1.332731e+02,1.442516e+02,1.270558e+02,1.293038e+02,1.287105e+02,1.299673e+02
1.402657e-01,1.332731e+02,1.442516e+02,1.270558e+02,1.293038e+02,1.287105e+02,1.299673e+02
1.549343e-01,1.321543e+02,1.449792e+02,1.282227e+02,1.297623e+02,1.283695e+02,1.257242e+02
1.549343e-01,1.321543e+02,1.449792e+02,1.282227e+02,1.297623e+02,1.283695e+02,1.257242e+02
1.640000e-01,1.313842e+02,1.455779e+02,1.291815e+02,1.301550e+02,1.293668e+02,1.262143e+02
1.730657e-01,1.307083e+02,1.464668e+02,1.300068e+02,1.305055e+02,1.306761e+02,1.294594e+02
1.730657e-01,1.307083e+02,1.464668e+02,1.300068e+02,1.305055e+02,1.306761e+02,1.294594e+02
1.730657e-01,1.307083e+02,1.464668e+02,1.300068e+02,1.305055e+02,1.306761e+02,1.294594e+02
1.877343e-01,1.295407e+02,1.490912e+02,1.306693e+02,1.303110e+02,1.316208e+02,1.325834e+02
1.877343e-01,1.295407e+02,1.490912e+02,1.306693e+02,1.303110e+02,1.316208e+02,1.325834e+02
1.968000e-01,1.289467e+02,1.514618e+02,1.307720e+02,1.299626e+02,1.315754e+02,1.333915e+02
2.058657e-01,1.285759e+02,1.538674e+02,1.307157e+02,1.297050e+02,1.312724e+02,1.337884e+02
2.058657e-01,1.285759e+02,1.538674e+02,1.307157e+02,1.297050e+02,1.312724e+02,1.337884e+02
2.058657e-01,1.285759e+02,1.538674e+02,1.307157e+02,1.297050e+02,1.312724e+02,1.337884e+02
2.205343e-01,1.278355e+02,1.577591e+02,1.302269e+02,1.289686e+02,1.294996e+02,1.331962e+02
2.205343e-01,1.278355e+02,1.577591e+02,1.302269e+02,1.289686e+02,1.294996e+02,1.331962e+02
2.296000e-01,1.277283e+02,1.601498e+02,1.298916e+02,1.288044e+02,1.282399e+02,1.328812e+02
2.386657e-01,1.275559e+02,1.621346e+02,1.296467e+02,1.288214e+02,1.265357e+02,1.324661e+02
2.386657e-01,1.275559e+02,1.621346e+02,1.296467e+02,1.288214e+02,1.265357e+02,1.324661e+02
2.386657e-01,1.275559e+02,1.621346e+02,1.296467e+02,1.288214e+02,1.265357e+02,1.324661e+02
2.533343e-01,1.275474e+02,1.653536e+02,1.291992e+02,1.287566e+02,1.233500e+02,1.314102e+02
2.533343e-01,1.275474e+02,1.653536e+02,1.291992e+02,1.287566e+02,1.233500e+02,1.314102e+02
2.624000e-01,1.276198e+02,1.671976e+02,1.290166e+02,1.287198e+02,1.219877e+02,1.307572e+02
2.714657e-01,1.277490e+02,1.688277e+02,1.289548e+02,1.287972e+02,1.220929e+02,1.303375e+02
2.714657e-01,1.277490e+02,1.688277e+02,1.289548e+02,1.287972e+02,1.220929e+02,1.303375e+02
2.714657e-01,1.277490e+02,1.688277e+02,1.289548e+02,1.287972e+02,1.220929e+02,1.303375e+02
2.861343e-01,1.276870e+02,1.714274e+02,1.286793e+02,1.284959e+02,1.230377e+02,1.288747e+02
2.861343e-01,1.276870e+02,1.714274e+02,1.286793e+02,1.284959e+02,1.230377e+02,1.288747e+02
2.952000e-01,1.276572e+02,1.729878e+02,1.285252e+02,1.283729e+02,1.238726e+02,1.281385e+02
3.042657e-01,1.275161e+02,1.744066e+02,1.284841e+02,1.284950e+02,1.248013e+02,1.278454e+02
3.042657e-01,1.275161e+02,1.744066e+02,1.284841e+02,1.284950e+02,1.248013e+02,1.278454e+02
3.042657e-01,1.275161e+02,1.744066e+02,1.284841e+02,1.284950e+02,1.248013e+02,1.278454e+02
3.189343e-01,1.275051e+02,1.768268e+02,1.280051e+02,1.284501e+02,1.254733e+02,1.264394e+02
3.189343e-01,1.275051e+02,1.768268e+02,1.280051e+02,1.284501e+02,1.254733e+02,1.264394e+02
3.280000e-01,1.275045e+02,1.788945e+02,1.277556e+02,1.284675e+02,1.256324e+02,1.259523e+02
3.370657e-01,1.275492e+02,1.804989e+02,1.274775e+02,1.284699e+02,1.257948e+02,1.250166e+02
3.370657e-01,1.275492e+02,1.804989e+02,1.274775e+02,1.284699e+02,1.257948e+02,1.250166e+02
3.370657e-01,1.275492e+02,1.804989e+02,1.274775e+02,1.284699e+02,1.257948e+02,1.250166e+02
3.517343e-01,1.273342e+02,1.838992e+02,1.269151e+02,1.280868e+02,1.251848e+02,1.235318e+02
3.517343e-01,1.273342e+02,1.838992e+02,1.269151e+02,1.280868e+02,1.251848e+02,1.235318e+02
3.608000e-01,1.271576e+02,1.863341e+02,1.266636e+02,1.278836e+02,1.245567e+02,1.229449e+02
3.698657e-01,1.269597e+02,1.887454e+02,1.265939e+02,1.279640e+02,1.240025e+02,1.227890e+02
3.698657e-01,1.269597e+02,1.887454e+02,1.265939e+02,1.279640e+02,1.240025e+02,1.227890e+02
3.698657e-01,1.269597e+02,1.887454e+02,1.265939e+02,1.279640e+02,1.240025e+02,1.227890e+02
3.845343e-01,1.265699e+02,1.924023e+02,1.264844e+02,1.279362e+02,1.227419e+02,1.210653e+02
3.845343e-01,1.265699e+02,1.924023e+02,1.264844e+02,1.279362e+02,1.227419e+02,1.210653e+02
3.936000e-01,1.264670e+02,1.945620e+02,1.264988e+02,1.279795e+02,1.223487e+02,1.199505e+02
4.026657e-01,1.267988e+02,1.965498e+02,1.265749e+02,1.281052e+02,1.225171e+02,1.197021e+02
4.026657e-01,1.267988e+02,1.965498e+02,1.265749e+02,1.281052e+02,1.225171e+02,1.197021e+02
4.026657e-01,1.267988e+02,1.965498e+02,1.265749e+02,1.281052e+02,1.225171e+02,1.197021e+02
4.173343e-01,1.266742e+02,1.998949e+02,1.263973e+02,1.277397e+02,1.222760e+02,1.189359e+02
4.173343e-01,1.266742e+02,1.998949e+02,1.263973e+02,1.277397e+02,1.222760e+02,1.189359e+02
4.264000e-01,1.269840e+02,2.016284e+02,1.262822e+02,1.275042e+02,1.220533e+02,1.187085e+02
4.354657e-01,1.267172e+02,2.031882e+02,1.259925e+02,1.274409e+02,1.217023e+02,1.177487e+02
4.354657e-01,1.267172e+02,2.031882e+02,1.259925e+02,1.274409e+02,1.217023e+02,1.177487e+02
4.354657e-01,1.267172e+02,2.031882e+02,1.259925e+02,1.274409e+02,1.217023e+02,1.177487e+02
4.501343e-01,1.264054e+02,2.063175e+02,1.251682e+02,1.273793e+02,1.209622e+02,1.155386e+02
4.501343e-01,1.264054e+02,2.063175e+02,1.251682e+02,1.273793e+02,1.209622e+02,1.155386e+02
4.592000e-01,1.265851e+02,2.088915e+02,1.247444e+02,1.275520e+02,1.211243e+02,1.153638e+02
4.682657e-01,1.265144e+02,2.099980e+02,1.243075e+02,1.277206e+02,1.219024e+02,1.156526e+02
4.682657e-01,1.265144e+02,2.099980e+02,1.243075e+02,1.277206e+02,1.219024e+02,1.156526e+02
4.682657e-01,1.265144e+02,2.099980e+02,1.243075e+02,1.277206e+02,1.219024e+02,1.156526e+02
4.829343e-01,1.264789e+02,2.121471e+02,1.237802e+02,1.274333e+02,1.225906e+02,1.147950e+02
4.829343e-01,1.264789e+02,2.121471e+02,1.237802e+02,1.274333e+02,1.225906e+02,1.147950e+02
4.920000e-01,1.264217e+02,2.141865e+02,1.237614e+02,1.270998e+02,1.224884e+02,1.131973e+02
4.920000e-01,1.264217e+02,2.141865e+02,1.237614e+02,1.270998e+02,1.224884e+02,1.131973e+02
5.010657e-01,1.258730e+02,2.163574e+02,1.240339e+02,1.269586e+02,1.218929e+02,1.117926e+02
5.010657e-01,1.258730e+02,2.163574e+02,1.240339e+02,1.269586e+02,1.218929e+02,1.117926e+02
5.157343e-01,1.251268e+02,2.188049e+02,1.244425e+02,1.267688e+02,1.189164e+02,1.112809e+02
5.157343e-01,1.251268e+02,2.188049e+02,1.244425e+02,1.267688e+02,1.189164e+02,1.112809e+02
5.248000e-01,1.237024e+02,2.216863e+02,1.246316e+02,1.270081e+02,1.175588e+02,1.123632e+02
5.248000e-01,1.237024e+02,2.216863e+02,1.246316e+02,1.270081e+02,1.175588e+02,1.123632e+02
5.338657e-01,1.234613e+02,2.241104e+02,1.247148e+02,1.273440e+02,1.189616e+02,1.123150e+02
5.338657e-01,1.234613e+02,2.241104e+02,1.247148e+02,1.273440e+02,1.189616e+02,1.123150e+02
5.485343e-01,1.235437e+02,2.264473e+02,1.242874e+02,1.272655e+02,1.219444e+02,1.088443e+02
5.485343e-01,1.235437e+02,2.264473e+02,1.242874e+02,1.272655e+02,1.219444e+02,1.088443e+02
5.576000e-01,1.235571e+02,2.253264e+02,1.238515e+02,1.269642e+02,1.226529e+02,1.059515e+02
5.576000e-01,1.235571e+02,2.253264e+02,1.238515e+02,1.269642e+02,1.226529e+02,1.059515e+02
5.666657e-01,1.246144e+02,2.275434e+02,1.231499e+02,1.265258e+02,1.221364e+02,1.068274e+02
5.666657e-01,1.246144e+02,2.275434e+02,1.231499e+02,1.265258e+02,1.221364e+02,1.068274e+02
5.813343e-01,1.262030e+02,2.312796e+02,1.215362e+02,1.257343e+02,1.178581e+02,1.100999e+02
5.813343e-01,1.262030e+02,2.312796e+02,1.215362e+02,1.257343e+02,1.178581e+02,1.100999e+02
5.904000e-01,1.270320e+02,2.317572e+02,1.205719e+02,1.257201e+02,1.129292e+02,1.103048e+02
5.904000e-01,1.270320e+02,2.317572e+02,1.205719e+02,1.257201e+02,1.129292e+02,1.103048e+02
5.994657e-01,1.272568e+02,2.293101e+02,1.201187e+02,1.261995e+02,1.134856e+02,1.093651e+02
5.994657e-01,1.272568e+02,2.293101e+02,1.201187e+02,1.261995e+02,1.134856e+02,1.093651e+02
6.141343e-01,1.278072e+02,2.286790e+02,1.197790e+02,1.267340e+02,1.191234e+02,1.031267e+02
6.141343e-01,1.278072e+02,2.286790e+02,1.197790e+02,1.267340e+02,1.191234e+02,1.031267e+02
6.232000e-01,1.279139e+02,2.290606e+02,1.200402e+02,1.269620e+02,1.206498e+02,9.653132e+01
6.232000e-01,1.279139e+02,2.290606e+02,1.200402e+02,1.269620e+02,1.206498e+02,9.653132e+01
6.322657e-01,1.281934e+02,2.263215e+02,1.203396e+02,1.271764e+02,1.216500e+02,1.007679e+02
6.322657e-01,1.281934e+02,2.263215e+02,1.203396e+02,1.271764e+02,1.216500e+02,1.007679e+02
6.469343e-01,1.282215e+02,2.220948e+02,1.206229e+02,1.270584e+02,1.217528e+02,1.075976e+02
6.469343e-01,1.282215e+02,2.220948e+02,1.206229e+02,1.270584e+02,1.217528e+02,1.075976e+02
6.560000e-01,1.284215e+02,2.206118e+02,1.207716e+02,1.270201e+02,1.214978e+02,1.090588e+02
6.560000e-01,1.284215e+02,2.206118e+02,1.207716e+02,1.270201e+02,1.214978e+02,1.090588e+02
6.650657e-01,1.282496e+02,2.212148e+02,1.208753e+02,1.270823e+02,1.212488e+02,1.100017e+02
6.650657e-01,1.282496e+02,2.212148e+02,1.208753e+02,1.270823e+02,1.212488e+02,1.100017e+02
6.797343e-01,1.279114e+02,2.225084e+02,1.208054e+02,1.269908e+02,1.204996e+02,1.093314e+02
6.797343e-01,1.279114e+02,2.225084e+02,1.208054e+02,1.269908e+02,1.204996e+02,1.093314e+02
6.888000e-01,1.277436e+02,2.227436e+02,1.207578e+02,1.269816e+02,1.202254e+02,1.080137e+02
6.888000e-01,1.277436e+02,2.227436e+02,1.207578e+02,1.269816e+02,1.202254e+02,1.080137e+02
6.978657e-01,1.278491e+02,2.217601e+02,1.207776e+02,1.271165e+02,1.203638e+02,1.060983e+02
6.978657e-01,1.278491e+02,2.217601e+02,1.207776e+02,1.271165e+02,1.203638e+02,1.060983e+02
7.125343e-01,1.277569e+02,2.206867e+02,1.207368e+02,1.269614e+02,1.203187e+02,1.000169e+02
7.125343e-01,1.277569e+02,2.206867e+02,1.207368e+02,1.269614e+02,1.203187e+02,1.000169e+02
7.216000e-01,1.279142e+02,2.209504e+02,1.207189e+02,1.269448e+02,1.204950e+02,9.806034e+01
7.216000e-01,1.279142e+02,2.209504e+02,1.207189e+02,1.269448e+02,1.204950e+02,9.806034e+01
7.306657e-01,1.278647e+02,2.195193e+02,1.208386e+02,1.270126e+02,1.206348e+02,1.009602e+02
7.306657e-01,1.278647e+02,2.195193e+02,1.208386e+02,1.270126e+02,1.206348e+02,1.009602e+02
7.453343e-01,1.278995e+02,2.170632e+02,1.208483e+02,1.269335e+02,1.204879e+02,1.048732e+02
7.453343e-01,1.278995e+02,2.170632e+02,1.208483e+02,1.269335e+02,1.204879e+02,1.048732e+02
7.544000e-01,1.277060e+02,2.170853e+02,1.208848e+02,1.269864e+02,1.205068e+02,1.060806e+02
7.544000e-01,1.277060e+02,2.170853e+02,1.208848e+02,1.269864e+02,1.205068e+02,1.060806e+02
7.634657e-01,1.278342e+02,2.156000e+02,1.209097e+02,1.271180e+02,1.206684e+02,1.066284e+02
7.634657e-01,1.278342e+02,2.156000e+02,1.209097e+02,1.271180e+02,1.206684e+02,1.066284e+02
7.781343e-01,1.280531e+02,2.142929e+02,1.207894e+02,1.270196e+02,1.205519e+02,1.059791e+02
7.781343e-01,1.280531e+02,2.142929e+02,1.207894e+02,1.270196e+02,1.205519e+02,1.059791e+02
7.872000e-01,1.278181e+02,2.141154e+02,1.209023e+02,1.268993e+02,1.205001e+02,1.053029e+02
7.872000e-01,1.278181e+02,2.141154e+02,1.209023e+02,1.268993e+02,1.205001e+02,1.053029e+02
7.962657e-01,1.281511e+02,2.135522e+02,1.211424e+02,1.270943e+02,1.206900e+02,1.047062e+02
8.030422e-01,1.282634e+02,2.132358e+02,1.211077e+02,1.269065e+02,1.204446e+02,1.039695e+02
8.109343e-01,1.284574e+02,2.129967e+02,1.211770e+02,1.267643e+02,1.202741e+02,1.035946e+02
8.109343e-01,1.284574e+02,2.129967e+02,1.211770e+02,1.267643e+02,1.202741e+02,1.035946e+02
