x(m),SPL1,SPL2,SPL3,SPL4,SPL5,SPL6
0.000000e+00,1.300340e+02,1.299480e+02,1.302670e+02,1.299290e+02,1.303380e+02,1.302590e+02
9.065694e-03,1.307578e+02,1.296252e+02,1.293254e+02,1.297961e+02,1.297876e+02,1.298640e+02
9.065694e-03,1.307578e+02,1.296252e+02,1.293254e+02,1.297961e+02,1.297876e+02,1.298640e+02
1.685536e-02,1.313028e+02,1.291463e+02,1.285013e+02,1.299968e+02,1.293149e+02,1.301073e+02
2.373430e-02,1.317728e+02,1.285343e+02,1.278160e+02,1.302137e+02,1.289629e+02,1.307256e+02
2.373430e-02,1.317728e+02,1.285343e+02,1.278160e+02,1.302137e+02,1.289629e+02,1.307256e+02
3.279999e-02,1.324121e+02,1.276811e+02,1.273137e+02,1.304013e+02,1.287845e+02,1.311125e+02
4.186569e-02,1.330614e+02,1.263833e+02,1.273840e+02,1.301080e+02,1.289015e+02,1.304790e+02
4.186569e-02,1.330614e+02,1.263833e+02,1.273840e+02,1.301080e+02,1.289015e+02,1.304790e+02
4.186569e-02,1.330614e+02,1.263833e+02,1.273840e+02,1.301080e+02,1.289015e+02,1.304790e+02
5.653431e-02,1.340023e+02,1.231724e+02,1.281960e+02,1.293632e+02,1.296251e+02,1.287631e+02
5.653431e-02,1.340023e+02,1.231724e+02,1.281960e+02,1.293632e+02,1.296251e+02,1.287631e+02
6.560001e-02,1.344364e+02,1.203040e+02,1.289514e+02,1.291843e+02,1.298224e+02,1.286821e+02
7.466571e-02,1.344585e+02,1.169996e+02,1.298605e+02,1.297248e+02,1.298048e+02,1.299540e+02
7.466571e-02,1.344585e+02,1.169996e+02,1.298605e+02,1.297248e+02,1.298048e+02,1.299540e+02
7.466571e-02,1.344585e+02,1.169996e+02,1.298605e+02,1.297248e+02,1.298048e+02,1.299540e+02
8.933431e-02,1.344555e+02,1.195444e+02,1.301789e+02,1.299980e+02,1.285994e+02,1.310571e+02
8.933431e-02,1.344555e+02,1.195444e+02,1.301789e+02,1.299980e+02,1.285994e+02,1.310571e+02
9.840000e-02,1.344321e+02,1.226732e+02,1.298959e+02,1.300775e+02,1.285115e+02,1.313669e+02
1.074657e-01,1.344215e+02,1.249451e+02,1.293695e+02,1.302974e+02,1.294104e+02,1.318915e+02
1.074657e-01,1.344215e+02,1.249451e+02,1.293695e+02,1.302974e+02,1.294104e+02,1.318915e+02
1.074657e-01,1.344215e+02,1.249451e+02,1.293695e+02,1.302974e+02,1.294104e+02,1.318915e+02
1.221343e-01,1.341589e+02,1.275738e+02,1.279421e+02,1.297828e+02,1.296984e+02,1.316176e+02
1.221343e-01,1.341589e+02,1.275738e+02,1.279421e+02,1.297828e+02,1.296984e+02,1.316176e+02
1.312000e-01,1.338307e+02,1.285922e+02,1.273316e+02,1.293916e+02,1.293186e+02,1.312488e+02
1.402657e-01,1.333109e+02,1.292193e+02,1.272137e+02,1.293907e+02,1.287214e+02,1.297442e+02
1.402657e-01,1.333109e+02,1.292193e+02,1.272137e+02,1.293907e+02,1.287214e+02,1.297442e+02
1.402657e-01,1.333109e+02,1.292193e+02,1.272137e+02,1.293907e+02,1.287214e+02,1.297442e+02
1.549343e-01,1.321514e+02,1.294973e+02,1.281111e+02,1.297196e+02,1.283190e+02,1.255705e+02
1.549343e-01,1.321514e+02,1.294973e+02,1.281111e+02,1.297196e+02,1.283190e+02,1.255705e+02
1.640000e-01,1.313640e+02,1.293822e+02,1.289727e+02,1.301082e+02,1.292964e+02,1.265105e+02
1.730657e-01,1.307272e+02,1.291089e+02,1.297802e+02,1.305112e+02,1.306180e+02,1.297712e+02
1.730657e-01,1.307272e+02,1.291089e+02,1.297802e+02,1.305112e+02,1.306180e+02,1.297712e+02
1.730657e-01,1.307272e+02,1.291089e+02,1.297802e+02,1.305112e+02,1.306180e+02,1.297712e+02
1.877343e-01,1.295471e+02,1.280053e+02,1.304603e+02,1.304484e+02,1.315902e+02,1.327463e+02
1.877343e-01,1.295471e+02,1.280053e+02,1.304603e+02,1.304484e+02,1.315902e+02,1.327463e+02
1.968000e-01,1.289287e+02,1.271554e+02,1.305867e+02,1.301873e+02,1.315659e+02,1.334899e+02
2.058657e-01,1.285221e+02,1.261319e+02,1.305536e+02,1.300255e+02,1.313011e+02,1.338553e+02
2.058657e-01,1.285221e+02,1.261319e+02,1.305536e+02,1.300255e+02,1.313011e+02,1.338553e+02
2.058657e-01,1.285221e+02,1.261319e+02,1.305536e+02,1.300255e+02,1.313011e+02,1.338553e+02
2.205343e-01,1.277504e+02,1.244714e+02,1.301070e+02,1.293883e+02,1.296066e+02,1.332440e+02
2.205343e-01,1.277504e+02,1.244714e+02,1.301070e+02,1.293883e+02,1.296066e+02,1.332440e+02
2.296000e-01,1.276554e+02,1.234687e+02,1.297978e+02,1.292412e+02,1.284226e+02,1.329385e+02
2.386657e-01,1.275114e+02,1.223018e+02,1.295629e+02,1.292334e+02,1.268011e+02,1.325024e+02
2.386657e-01,1.275114e+02,1.223018e+02,1.295629e+02,1.292334e+02,1.268011e+02,1.325024e+02
2.386657e-01,1.275114e+02,1.223018e+02,1.295629e+02,1.292334e+02,1.268011e+02,1.325024e+02
2.533343e-01,1.275307e+02,1.204686e+02,1.291228e+02,1.290672e+02,1.237110e+02,1.313785e+02
2.533343e-01,1.275307e+02,1.204686e+02,1.291228e+02,1.290672e+02,1.237110e+02,1.313785e+02
2.624000e-01,1.276083e+02,1.194711e+02,1.289547e+02,1.289606e+02,1.222504e+02,1.306763e+02
2.714657e-01,1.277396e+02,1.192351e+02,1.289516e+02,1.290016e+02,1.221477e+02,1.302335e+02
2.714657e-01,1.277396e+02,1.192351e+02,1.289516e+02,1.290016e+02,1.221477e+02,1.302335e+02
2.714657e-01,1.277396e+02,1.192351e+02,1.289516e+02,1.290016e+02,1.221477e+02,1.302335e+02
2.861343e-01,1.276358e+02,1.180559e+02,1.287845e+02,1.286894e+02,1.227247e+02,1.286786e+02
2.861343e-01,1.276358e+02,1.180559e+02,1.287845e+02,1.286894e+02,1.227247e+02,1.286786e+02
2.952000e-01,1.275832e+02,1.171163e+02,1.287064e+02,1.285809e+02,1.234446e+02,1.278217e+02
3.042657e-01,1.274630e+02,1.162830e+02,1.287360e+02,1.287257e+02,1.243457e+02,1.273919e+02
3.042657e-01,1.274630e+02,1.162830e+02,1.287360e+02,1.287257e+02,1.243457e+02,1.273919e+02
3.042657e-01,1.274630e+02,1.162830e+02,1.287360e+02,1.287257e+02,1.243457e+02,1.273919e+02
3.189343e-01,1.274879e+02,1.147922e+02,1.283754e+02,1.286452e+02,1.249766e+02,1.257242e+02
3.189343e-01,1.274879e+02,1.147922e+02,1.283754e+02,1.286452e+02,1.249766e+02,1.257242e+02
3.280000e-01,1.275324e+02,1.150196e+02,1.281691e+02,1.286357e+02,1.251496e+02,1.251736e+02
3.370657e-01,1.275745e+02,1.150031e+02,1.279169e+02,1.286057e+02,1.253632e+02,1.240461e+02
3.370657e-01,1.275745e+02,1.150031e+02,1.279169e+02,1.286057e+02,1.253632e+02,1.240461e+02
3.370657e-01,1.275745e+02,1.150031e+02,1.279169e+02,1.286057e+02,1.253632e+02,1.240461e+02
3.517343e-01,1.273646e+02,1.149893e+02,1.273476e+02,1.282043e+02,1.248633e+02,1.221333e+02
3.517343e-01,1.273646e+02,1.149893e+02,1.273476e+02,1.282043e+02,1.248633e+02,1.221333e+02
3.608000e-01,1.271852e+02,1.145655e+02,1.270752e+02,1.280095e+02,1.243157e+02,1.212167e+02
3.698657e-01,1.269588e+02,1.124644e+02,1.270047e+02,1.281127e+02,1.238358e+02,1.208817e+02
3.698657e-01,1.269588e+02,1.124644e+02,1.270047e+02,1.281127e+02,1.238358e+02,1.208817e+02
3.698657e-01,1.269588e+02,1.124644e+02,1.270047e+02,1.281127e+02,1.238358e+02,1.208817e+02
3.845343e-01,1.266233e+02,1.131679e+02,1.269162e+02,1.280633e+02,1.225730e+02,1.187955e+02
3.845343e-01,1.266233e+02,1.131679e+02,1.269162e+02,1.280633e+02,1.225730e+02,1.187955e+02
3.936000e-01,1.265524e+02,1.141718e+02,1.269736e+02,1.280697e+02,1.220977e+02,1.173820e+02
4.026657e-01,1.268995e+02,1.148492e+02,1.271221e+02,1.281740e+02,1.222027e+02,1.168385e+02
4.026657e-01,1.268995e+02,1.148492e+02,1.271221e+02,1.281740e+02,1.222027e+02,1.168385e+02
4.026657e-01,1.268995e+02,1.148492e+02,1.271221e+02,1.281740e+02,1.222027e+02,1.168385e+02
4.173343e-01,1.267744e+02,1.134709e+02,1.270807e+02,1.277866e+02,1.219260e+02,1.154729e+02
4.173343e-01,1.267744e+02,1.134709e+02,1.270807e+02,1.277866e+02,1.219260e+02,1.154729e+02
4.264000e-01,1.270366e+02,1.103166e+02,1.270450e+02,1.275629e+02,1.217430e+02,1.151301e+02
4.354657e-01,1.267691e+02,1.092354e+02,1.268258e+02,1.274935e+02,1.213678e+02,1.140116e+02
4.354657e-01,1.267691e+02,1.092354e+02,1.268258e+02,1.274935e+02,1.213678e+02,1.140116e+02
4.354657e-01,1.267691e+02,1.092354e+02,1.268258e+02,1.274935e+02,1.213678e+02,1.140116e+02
4.501343e-01,1.264637e+02,1.101019e+02,1.260871e+02,1.273923e+02,1.204109e+02,1.112635e+02
4.501343e-01,1.264637e+02,1.101019e+02,1.260871e+02,1.273923e+02,1.204109e+02,1.112635e+02
4.592000e-01,1.267461e+02,1.104944e+02,1.256869e+02,1.275448e+02,1.204202e+02,1.106945e+02
4.682657e-01,1.266941e+02,1.024972e+02,1.252494e+02,1.276964e+02,1.211314e+02,1.108401e+02
4.682657e-01,1.266941e+02,1.024972e+02,1.252494e+02,1.276964e+02,1.211314e+02,1.108401e+02
4.682657e-01,1.266941e+02,1.024972e+02,1.252494e+02,1.276964e+02,1.211314e+02,1.108401e+02
4.829343e-01,1.266238e+02,1.083277e+02,1.246765e+02,1.274160e+02,1.219079e+02,1.099001e+02
4.829343e-01,1.266238e+02,1.083277e+02,1.246765e+02,1.274160e+02,1.219079e+02,1.099001e+02
4.920000e-01,1.265239e+02,1.116367e+02,1.246284e+02,1.270917e+02,1.218973e+02,1.081129e+02
4.920000e-01,1.265239e+02,1.116367e+02,1.246284e+02,1.270917e+02,1.218973e+02,1.081129e+02
5.010657e-01,1.259621e+02,1.105356e+02,1.249047e+02,1.269523e+02,1.214070e+02,1.063647e+02
5.010657e-01,1.259621e+02,1.105356e+02,1.249047e+02,1.269523e+02,1.214070e+02,1.063647e+02
5.157343e-01,1.251282e+02,1.068764e+02,1.253634e+02,1.266647e+02,1.185296e+02,1.054370e+02
5.157343e-01,1.251282e+02,1.068764e+02,1.253634e+02,1.266647e+02,1.185296e+02,1.054370e+02
5.248000e-01,1.237183e+02,1.183211e+02,1.255937e+02,1.268392e+02,1.170525e+02,1.067052e+02
5.248000e-01,1.237183e+02,1.183211e+02,1.255937e+02,1.268392e+02,1.170525e+02,1.067052e+02
5.338657e-01,1.234728e+02,1.206520e+02,1.257410e+02,1.271636e+02,1.181993e+02,1.067815e+02
5.338657e-01,1.234728e+02,1.206520e+02,1.257410e+02,1.271636e+02,1.181993e+02,1.067815e+02
5.485343e-01,1.235693e+02,1.211311e+02,1.254253e+02,1.271644e+02,1.211663e+02,1.029485e+02
5.485343e-01,1.235693e+02,1.211311e+02,1.254253e+02,1.271644e+02,1.211663e+02,1.029485e+02
5.576000e-01,1.235477e+02,1.193857e+02,1.250707e+02,1.269628e+02,1.219460e+02,9.908754e+01
5.576000e-01,1.235477e+02,1.193857e+02,1.250707e+02,1.269628e+02,1.219460e+02,9.908754e+01
5.666657e-01,1.245921e+02,1.235908e+02,1.244585e+02,1.265945e+02,1.215072e+02,1.002201e+02
5.666657e-01,1.245921e+02,1.235908e+02,1.244585e+02,1.265945e+02,1.215072e+02,1.002201e+02
5.813343e-01,1.262406e+02,1.271552e+02,1.230171e+02,1.257334e+02,1.174087e+02,1.041964e+02
5.813343e-01,1.262406e+02,1.271552e+02,1.230171e+02,1.257334e+02,1.174087e+02,1.041964e+02
5.904000e-01,1.270943e+02,1.267002e+02,1.221615e+02,1.255318e+02,1.124575e+02,1.043259e+02
5.904000e-01,1.270943e+02,1.267002e+02,1.221615e+02,1.255318e+02,1.124575e+02,1.043259e+02
5.994657e-01,1.272688e+02,1.219009e+02,1.217883e+02,1.258490e+02,1.123555e+02,1.033143e+02
5.994657e-01,1.272688e+02,1.219009e+02,1.217883e+02,1.258490e+02,1.123555e+02,1.033143e+02
6.141343e-01,1.279395e+02,1.226086e+02,1.214377e+02,1.262250e+02,1.180900e+02,9.721141e+01
6.141343e-01,1.279395e+02,1.226086e+02,1.214377e+02,1.262250e+02,1.180900e+02,9.721141e+01
6.232000e-01,1.280162e+02,1.249442e+02,1.216426e+02,1.264527e+02,1.196938e+02,9.414269e+01
6.232000e-01,1.280162e+02,1.249442e+02,1.216426e+02,1.264527e+02,1.196938e+02,9.414269e+01
6.322657e-01,1.283571e+02,1.232695e+02,1.218949e+02,1.266842e+02,1.207671e+02,9.811475e+01
6.322657e-01,1.283571e+02,1.232695e+02,1.218949e+02,1.266842e+02,1.207671e+02,9.811475e+01
6.469343e-01,1.284147e+02,1.192925e+02,1.221243e+02,1.266070e+02,1.209279e+02,1.029652e+02
6.469343e-01,1.284147e+02,1.192925e+02,1.221243e+02,1.266070e+02,1.209279e+02,1.029652e+02
6.560000e-01,1.285292e+02,1.080550e+02,1.222532e+02,1.265893e+02,1.206939e+02,1.039661e+02
6.560000e-01,1.285292e+02,1.080550e+02,1.222532e+02,1.265893e+02,1.206939e+02,1.039661e+02
6.650657e-01,1.283865e+02,1.132412e+02,1.223583e+02,1.266719e+02,1.204596e+02,1.045630e+02
6.650657e-01,1.283865e+02,1.132412e+02,1.223583e+02,1.266719e+02,1.204596e+02,1.045630e+02
6.797343e-01,1.280664e+02,1.207836e+02,1.222743e+02,1.265894e+02,1.197050e+02,1.034277e+02
6.797343e-01,1.280664e+02,1.207836e+02,1.222743e+02,1.265894e+02,1.197050e+02,1.034277e+02
6.888000e-01,1.279110e+02,1.214964e+02,1.222267e+02,1.265760e+02,1.194133e+02,1.017781e+02
6.888000e-01,1.279110e+02,1.214964e+02,1.222267e+02,1.265760e+02,1.194133e+02,1.017781e+02
6.978657e-01,1.280993e+02,1.162581e+02,1.222577e+02,1.267146e+02,1.195496e+02,9.957560e+01
6.978657e-01,1.280993e+02,1.162581e+02,1.222577e+02,1.267146e+02,1.195496e+02,9.957560e+01
7.125343e-01,1.279482e+02,1.085614e+02,1.221976e+02,1.265526e+02,1.194873e+02,9.343743e+01
7.125343e-01,1.279482e+02,1.085614e+02,1.221976e+02,1.265526e+02,1.194873e+02,9.343743e+01
7.216000e-01,1.281534e+02,1.051746e+02,1.221953e+02,1.265385e+02,1.196642e+02,9.315731e+01
7.216000e-01,1.281534e+02,1.051746e+02,1.221953e+02,1.265385e+02,1.196642e+02,9.315731e+01
7.306657e-01,1.280142e+02,1.145397e+02,1.223116e+02,1.266030e+02,1.198022e+02,9.666284e+01
7.306657e-01,1.280142e+02,1.145397e+02,1.223116e+02,1.266030e+02,1.198022e+02,9.666284e+01
7.453343e-01,1.279570e+02,1.211204e+02,1.223027e+02,1.265196e+02,1.196557e+02,9.981034e+01
7.453343e-01,1.279570e+02,1.211204e+02,1.223027e+02,1.265196e+02,1.196557e+02,9.981034e+01
7.544000e-01,1.278559e+02,1.212794e+02,1.223466e+02,1.265714e+02,1.196817e+02,1.007576e+02
7.544000e-01,1.278559e+02,1.212794e+02,1.223466e+02,1.265714e+02,1.196817e+02,1.007576e+02
7.634657e-01,1.279443e+02,1.192458e+02,1.223809e+02,1.267051e+02,1.198435e+02,1.009692e+02
7.634657e-01,1.279443e+02,1.192458e+02,1.223809e+02,1.267051e+02,1.198435e+02,1.009692e+02
7.781343e-01,1.281349e+02,1.138397e+02,1.222488e+02,1.266024e+02,1.197212e+02,9.991807e+01
7.781343e-01,1.281349e+02,1.138397e+02,1.222488e+02,1.266024e+02,1.197212e+02,9.991807e+01
7.872000e-01,1.279226e+02,1.176611e+02,1.221081e+02,1.264577e+02,1.196505e+02,9.901137e+01
7.872000e-01,1.279226e+02,1.176611e+02,1.221081e+02,1.264577e+02,1.196505e+02,9.901137e+01
7.962657e-01,1.281501e+02,1.193457e+02,1.223453e+02,1.266723e+02,1.198628e+02,9.821949e+01
8.030422e-01,1.282305e+02,1.179103e+02,1.222309e+02,1.264894e+02,1.196195e+02,9.741465e+01
8.109343e-01,1.283866e+02,1.173080e+02,1.221413e+02,1.263536e+02,1.194540e+02,9.703656e+01
8.109343e-01,1.283866e+02,1.173080e+02,1.221413e+02,1.263536e+02,1.194540e+02,9.703656e+01
