Freq(kHz),Re(z),Im(z),|beta|,phase(beta)(deg)
4.000000e-01,4.890000e-01,-3.768000e+00,9.385309e-01,-2.928553e+01
6.000000e-01,3.160000e-01,-2.384000e+00,9.107919e-01,-4.490815e+01
8.000000e-01,2.280000e-01,-1.552000e+00,8.758711e-01,-6.479915e+01
1.000000e+00,2.070000e-01,-1.071000e+00,8.258415e-01,-8.493393e+01
1.200000e+00,2.310000e-01,-6.780000e-01,7.294947e-01,-1.097538e+02
1.400000e+00,2.830000e-01,-2.580000e-01,5.822690e-01,-1.488396e+02
1.600000e+00,2.030000e-01,-1.060000e-01,6.657647e-01,-1.673887e+02
1.800000e+00,1.870000e-01,1.060000e-01,6.879793e-01,1.674686e+02
2.000000e+00,2.050000e-01,3.260000e-01,6.883211e-01,1.425649e+02
2.200000e+00,2.510000e-01,5.630000e-01,6.830201e-01,1.188393e+02
2.400000e+00,2.750000e-01,7.440000e-01,7.037177e-01,1.039942e+02
2.600000e+00,3.180000e-01,9.460000e-01,7.188356e-01,9.011992e+01
