Freq(kHz),Re(z),Im(z),|beta|,phase(beta)(deg)
0.000000e+00,2.977275e+01,0.000000e+00,9.350074e-01,0.000000e+00
1.001001e-02,2.889407e+01,-5.037647e+00,9.350088e-01,-6.718051e-01
2.002002e-02,2.654309e+01,-9.256637e+00,9.350129e-01,-1.343779e+00
3.003003e-02,2.337130e+01,-1.222822e+01,9.350196e-01,-2.016089e+00
4.004004e-02,2.001854e+01,-1.396921e+01,9.350287e-01,-2.688905e+00
5.005005e-02,1.689730e+01,-1.474409e+01,9.350400e-01,-3.362394e+00
6.006006e-02,1.418850e+01,-1.486272e+01,9.350531e-01,-4.036722e+00
7.007007e-02,1.192446e+01,-1.457985e+01,9.350677e-01,-4.712055e+00
8.008008e-02,1.006650e+01,-1.407384e+01,9.350834e-01,-5.388559e+00
9.009009e-02,8.552186e+00,-1.345891e+01,9.350995e-01,-6.066397e+00
1.001001e-01,7.318147e+00,-1.280416e+01,9.351155e-01,-6.745732e+00
1.101101e-01,6.308802e+00,-1.214948e+01,9.351307e-01,-7.426725e+00
1.201201e-01,5.478464e+00,-1.151674e+01,9.351445e-01,-8.109534e+00
1.301301e-01,4.790723e+00,-1.091697e+01,9.351560e-01,-8.794318e+00
1.401401e-01,4.216963e+00,-1.035486e+01,9.351644e-01,-9.481231e+00
1.501502e-01,3.734807e+00,-9.831470e+00,9.351688e-01,-1.017043e+01
1.601602e-01,3.326748e+00,-9.345827e+00,9.351682e-01,-1.086206e+01
1.701702e-01,2.979046e+00,-8.895927e+00,9.351616e-01,-1.155627e+01
1.801802e-01,2.680859e+00,-8.479286e+00,9.351481e-01,-1.225322e+01
1.901902e-01,2.423582e+00,-8.093264e+00,9.351264e-01,-1.295304e+01
2.002002e-01,2.200340e+00,-7.735256e+00,9.350953e-01,-1.365587e+01
2.102102e-01,2.005601e+00,-7.402785e+00,9.350538e-01,-1.436186e+01
2.202202e-01,1.834884e+00,-7.093548e+00,9.350006e-01,-1.507114e+01
2.302302e-01,1.684537e+00,-6.805438e+00,9.349343e-01,-1.578384e+01
2.402402e-01,1.551561e+00,-6.536543e+00,9.348536e-01,-1.650009e+01
2.502503e-01,1.433479e+00,-6.285137e+00,9.347573e-01,-1.722003e+01
2.602603e-01,1.328234e+00,-6.049664e+00,9.346438e-01,-1.794376e+01
2.702703e-01,1.234106e+00,-5.828732e+00,9.345119e-01,-1.867143e+01
2.802803e-01,1.149650e+00,-5.621087e+00,9.343600e-01,-1.940313e+01
2.902903e-01,1.073645e+00,-5.425606e+00,9.341868e-01,-2.013899e+01
3.003003e-01,1.005054e+00,-5.241280e+00,9.339907e-01,-2.087913e+01
3.103103e-01,9.429942e-01,-5.067200e+00,9.337702e-01,-2.162364e+01
3.203203e-01,8.867066e-01,-4.902551e+00,9.335240e-01,-2.237263e+01
3.303303e-01,8.355390e-01,-4.746596e+00,9.332503e-01,-2.312620e+01
3.403403e-01,7.889277e-01,-4.598672e+00,9.329478e-01,-2.388446e+01
3.503504e-01,7.463833e-01,-4.458175e+00,9.326149e-01,-2.464750e+01
3.603604e-01,7.074798e-01,-4.324564e+00,9.322501e-01,-2.541542e+01
3.703704e-01,6.718446e-01,-4.197342e+00,9.318519e-01,-2.618829e+01
3.803804e-01,6.391508e-01,-4.076062e+00,9.314188e-01,-2.696621e+01
3.903904e-01,6.091109e-01,-3.960315e+00,9.309494e-01,-2.774927e+01
4.004004e-01,5.814710e-01,-3.849727e+00,9.304420e-01,-2.853753e+01
4.104104e-01,5.560063e-01,-3.743957e+00,9.298953e-01,-2.933109e+01
4.204204e-01,5.325171e-01,-3.642694e+00,9.293078e-01,-3.013001e+01
4.304304e-01,5.108258e-01,-3.545652e+00,9.286782e-01,-3.093437e+01
4.404404e-01,4.907734e-01,-3.452568e+00,9.280050e-01,-3.174423e+01
4.504505e-01,4.722181e-01,-3.363200e+00,9.272868e-01,-3.255967e+01
4.604605e-01,4.550323e-01,-3.277327e+00,9.265224e-01,-3.338075e+01
4.704705e-01,4.391015e-01,-3.194741e+00,9.257104e-01,-3.420753e+01
4.804805e-01,4.243223e-01,-3.115254e+00,9.248496e-01,-3.504006e+01
4.904905e-01,4.106015e-01,-3.038691e+00,9.239388e-01,-3.587842e+01
5.005005e-01,3.978546e-01,-2.964888e+00,9.229768e-01,-3.672264e+01
5.105105e-01,3.860050e-01,-2.893694e+00,9.219624e-01,-3.757279e+01
5.205205e-01,3.749833e-01,-2.824970e+00,9.208947e-01,-3.842891e+01
5.305305e-01,3.647261e-01,-2.758584e+00,9.197725e-01,-3.929105e+01
5.405405e-01,3.551757e-01,-2.694416e+00,9.185949e-01,-4.015926e+01
5.505506e-01,3.462794e-01,-2.632351e+00,9.173611e-01,-4.103358e+01
5.605606e-01,3.379891e-01,-2.572285e+00,9.160700e-01,-4.191407e+01
5.705706e-01,3.302606e-01,-2.514117e+00,9.147209e-01,-4.280075e+01
5.805806e-01,3.230535e-01,-2.457756e+00,9.133132e-01,-4.369366e+01
5.905906e-01,3.163305e-01,-2.403115e+00,9.118460e-01,-4.459286e+01
6.006006e-01,3.100575e-01,-2.350111e+00,9.103188e-01,-4.549837e+01
6.106106e-01,3.042030e-01,-2.298670e+00,9.087311e-01,-4.641023e+01
6.206206e-01,2.987379e-01,-2.248719e+00,9.070823e-01,-4.732847e+01
6.306306e-01,2.936355e-01,-2.200190e+00,9.053721e-01,-4.825313e+01
6.406406e-01,2.888710e-01,-2.153020e+00,9.036001e-01,-4.918424e+01
6.506507e-01,2.844216e-01,-2.107149e+00,9.017661e-01,-5.012183e+01
6.606607e-01,2.802659e-01,-2.062521e+00,8.998699e-01,-5.106593e+01
6.706707e-01,2.763844e-01,-2.019082e+00,8.979114e-01,-5.201657e+01
6.806807e-01,2.727588e-01,-1.976781e+00,8.958904e-01,-5.297378e+01
6.906907e-01,2.693722e-01,-1.935571e+00,8.938072e-01,-5.393759e+01
7.007007e-01,2.662089e-01,-1.895408e+00,8.916617e-01,-5.490802e+01
7.107107e-01,2.632542e-01,-1.856247e+00,8.894542e-01,-5.588510e+01
7.207207e-01,2.604945e-01,-1.818049e+00,8.871849e-01,-5.686887e+01
7.307307e-01,2.579172e-01,-1.780775e+00,8.848543e-01,-5.785933e+01
7.407407e-01,2.555104e-01,-1.744389e+00,8.824627e-01,-5.885653e+01
7.507508e-01,2.532631e-01,-1.708855e+00,8.800107e-01,-5.986047e+01
7.607608e-01,2.511651e-01,-1.674142e+00,8.774988e-01,-6.087120e+01
7.707708e-01,2.492066e-01,-1.640218e+00,8.749277e-01,-6.188873e+01
7.807808e-01,2.473788e-01,-1.607053e+00,8.722983e-01,-6.291308e+01
7.907908e-01,2.456732e-01,-1.574618e+00,8.696112e-01,-6.394428e+01
8.008008e-01,2.440821e-01,-1.542887e+00,8.668675e-01,-6.498235e+01
8.108108e-01,2.425980e-01,-1.511834e+00,8.640680e-01,-6.602732e+01
8.208208e-01,2.412142e-01,-1.481434e+00,8.612140e-01,-6.707921e+01
8.308308e-01,2.399241e-01,-1.451664e+00,8.583065e-01,-6.813803e+01
8.408408e-01,2.387217e-01,-1.422501e+00,8.553468e-01,-6.920382e+01
8.508509e-01,2.376014e-01,-1.393925e+00,8.523362e-01,-7.027658e+01
8.608609e-01,2.365579e-01,-1.365913e+00,8.492760e-01,-7.135635e+01
8.708709e-01,2.355863e-01,-1.338448e+00,8.461678e-01,-7.244314e+01
8.808809e-01,2.346818e-01,-1.311509e+00,8.430130e-01,-7.353698e+01
8.908909e-01,2.338401e-01,-1.285080e+00,8.398132e-01,-7.463787e+01
9.009009e-01,2.330571e-01,-1.259143e+00,8.365702e-01,-7.574585e+01
9.109109e-01,2.323290e-01,-1.233682e+00,8.332856e-01,-7.686092e+01
9.209209e-01,2.316520e-01,-1.208680e+00,8.299613e-01,-7.798311e+01
9.309309e-01,2.310229e-01,-1.184123e+00,8.265992e-01,-7.911243e+01
9.409409e-01,2.304384e-01,-1.159997e+00,8.232012e-01,-8.024889e+01
9.509510e-01,2.298956e-01,-1.136286e+00,8.197692e-01,-8.139251e+01
9.609610e-01,2.293915e-01,-1.112978e+00,8.163055e-01,-8.254331e+01
9.709710e-01,2.289237e-01,-1.090061e+00,8.128121e-01,-8.370128e+01
9.809810e-01,2.284895e-01,-1.067521e+00,8.092912e-01,-8.486645e+01
9.909910e-01,2.280866e-01,-1.045346e+00,8.057450e-01,-8.603882e+01
1.001001e+00,2.277129e-01,-1.023526e+00,8.021759e-01,-8.721839e+01
1.011011e+00,2.273663e-01,-1.002050e+00,7.985862e-01,-8.840517e+01
1.021021e+00,2.270449e-01,-9.809056e-01,7.949782e-01,-8.959916e+01
1.031031e+00,2.267468e-01,-9.600842e-01,7.913545e-01,-9.080035e+01
1.041041e+00,2.264703e-01,-9.395756e-01,7.877176e-01,-9.200876e+01
1.051051e+00,2.262138e-01,-9.193703e-01,7.840698e-01,-9.322435e+01
1.061061e+00,2.259758e-01,-8.994592e-01,7.804139e-01,-9.444714e+01
1.071071e+00,2.257549e-01,-8.798335e-01,7.767524e-01,-9.567710e+01
1.081081e+00,2.255497e-01,-8.604848e-01,7.730879e-01,-9.691421e+01
1.091091e+00,2.253591e-01,-8.414049e-01,7.694231e-01,-9.815845e+01
1.101101e+00,2.251818e-01,-8.225858e-01,7.657607e-01,-9.940981e+01
1.111111e+00,2.250167e-01,-8.040200e-01,7.621034e-01,-1.006682e+02
1.121121e+00,2.248629e-01,-7.857002e-01,7.584539e-01,-1.019337e+02
1.131131e+00,2.247194e-01,-7.676191e-01,7.548149e-01,-1.032062e+02
1.141141e+00,2.245852e-01,-7.497701e-01,7.511893e-01,-1.044856e+02
1.151151e+00,2.244595e-01,-7.321463e-01,7.475798e-01,-1.057720e+02
1.161161e+00,2.243416e-01,-7.147415e-01,7.439891e-01,-1.070652e+02
1.171171e+00,2.242307e-01,-6.975494e-01,7.404200e-01,-1.083652e+02
1.181181e+00,2.241261e-01,-6.805641e-01,7.368752e-01,-1.096718e+02
1.191191e+00,2.240272e-01,-6.637797e-01,7.333576e-01,-1.109852e+02
1.201201e+00,2.239334e-01,-6.471905e-01,7.298699e-01,-1.123051e+02
1.211211e+00,2.238441e-01,-6.307913e-01,7.264147e-01,-1.136314e+02
1.221221e+00,2.237589e-01,-6.145766e-01,7.229949e-01,-1.149641e+02
1.231231e+00,2.236772e-01,-5.985415e-01,7.196130e-01,-1.163031e+02
1.241241e+00,2.235987e-01,-5.826809e-01,7.162718e-01,-1.176483e+02
1.251251e+00,2.235230e-01,-5.669900e-01,7.129739e-01,-1.189994e+02
1.261261e+00,2.234496e-01,-5.514643e-01,7.097218e-01,-1.203564e+02
1.271271e+00,2.233782e-01,-5.360992e-01,7.065181e-01,-1.217192e+02
1.281281e+00,2.233086e-01,-5.208904e-01,7.033654e-01,-1.230876e+02
1.291291e+00,2.232404e-01,-5.058336e-01,7.002660e-01,-1.244614e+02
1.301301e+00,2.231734e-01,-4.909247e-01,6.972223e-01,-1.258405e+02
1.311311e+00,2.231074e-01,-4.761596e-01,6.942368e-01,-1.272246e+02
1.321321e+00,2.230422e-01,-4.615346e-01,6.913116e-01,-1.286137e+02
1.331331e+00,2.229775e-01,-4.470459e-01,6.884490e-01,-1.300075e+02
1.341341e+00,2.229133e-01,-4.326898e-01,6.856511e-01,-1.314058e+02
1.351351e+00,2.228494e-01,-4.184627e-01,6.829199e-01,-1.328083e+02
1.361361e+00,2.227858e-01,-4.043613e-01,6.802576e-01,-1.342149e+02
1.371371e+00,2.227222e-01,-3.903821e-01,6.776658e-01,-1.356254e+02
1.381381e+00,2.226586e-01,-3.765219e-01,6.751466e-01,-1.370394e+02
1.391391e+00,2.225950e-01,-3.627774e-01,6.727015e-01,-1.384567e+02
1.401401e+00,2.225314e-01,-3.491457e-01,6.703322e-01,-1.398772e+02
1.411411e+00,2.224676e-01,-3.356238e-01,6.680403e-01,-1.413004e+02
1.421421e+00,2.224038e-01,-3.222086e-01,6.658272e-01,-1.427261e+02
1.431431e+00,2.223398e-01,-3.088974e-01,6.636941e-01,-1.441541e+02
1.441441e+00,2.222759e-01,-2.956873e-01,6.616424e-01,-1.455840e+02
1.451451e+00,2.222119e-01,-2.825758e-01,6.596731e-01,-1.470155e+02
1.461461e+00,2.221479e-01,-2.695601e-01,6.577872e-01,-1.484484e+02
1.471471e+00,2.220840e-01,-2.566376e-01,6.559857e-01,-1.498823e+02
1.481481e+00,2.220204e-01,-2.438060e-01,6.542692e-01,-1.513169e+02
1.491491e+00,2.219570e-01,-2.310628e-01,6.526385e-01,-1.527519e+02
1.501502e+00,2.218939e-01,-2.184055e-01,6.510942e-01,-1.541869e+02
1.511512e+00,2.218314e-01,-2.058320e-01,6.496365e-01,-1.556217e+02
1.521522e+00,2.217695e-01,-1.933399e-01,6.482659e-01,-1.570559e+02
1.531532e+00,2.217084e-01,-1.809270e-01,6.469825e-01,-1.584892e+02
1.541542e+00,2.216483e-01,-1.685912e-01,6.457864e-01,-1.599212e+02
1.551552e+00,2.215892e-01,-1.563304e-01,6.446776e-01,-1.613515e+02
1.561562e+00,2.215314e-01,-1.441425e-01,6.436560e-01,-1.627800e+02
1.571572e+00,2.214750e-01,-1.320257e-01,6.427211e-01,-1.642061e+02
1.581582e+00,2.214203e-01,-1.199778e-01,6.418727e-01,-1.656297e+02
1.591592e+00,2.213675e-01,-1.079971e-01,6.411103e-01,-1.670503e+02
1.601602e+00,2.213167e-01,-9.608163e-02,6.404333e-01,-1.684676e+02
1.611612e+00,2.212683e-01,-8.422962e-02,6.398409e-01,-1.698814e+02
1.621622e+00,2.212224e-01,-7.243929e-02,6.393323e-01,-1.712912e+02
1.631632e+00,2.211793e-01,-6.070892e-02,6.389067e-01,-1.726968e+02
1.641642e+00,2.211393e-01,-4.903681e-02,6.385630e-01,-1.740979e+02
1.651652e+00,2.211026e-01,-3.742132e-02,6.383000e-01,-1.754941e+02
1.661662e+00,2.210696e-01,-2.586083e-02,6.381167e-01,-1.768852e+02
1.671672e+00,2.210404e-01,-1.435376e-02,6.380117e-01,-1.782708e+02
1.681682e+00,2.210154e-01,-2.898571e-03,6.379836e-01,-1.796508e+02
1.691692e+00,2.209949e-01,8.506240e-03,6.380310e-01,1.789752e+02
1.701702e+00,2.209792e-01,1.986215e-02,6.381524e-01,1.776075e+02
1.711712e+00,2.209687e-01,3.117060e-02,6.383462e-01,1.762463e+02
1.721722e+00,2.209637e-01,4.243299e-02,6.386106e-01,1.748918e+02
1.731732e+00,2.209645e-01,5.365071e-02,6.389440e-01,1.735443e+02
1.741742e+00,2.209715e-01,6.482510e-02,6.393445e-01,1.722041e+02
1.751752e+00,2.209851e-01,7.595748e-02,6.398104e-01,1.708712e+02
1.761762e+00,2.210056e-01,8.704914e-02,6.403398e-01,1.695460e+02
1.771772e+00,2.210335e-01,9.810133e-02,6.409306e-01,1.682286e+02
1.781782e+00,2.210691e-01,1.091153e-01,6.415810e-01,1.669193e+02
1.791792e+00,2.211128e-01,1.200922e-01,6.422889e-01,1.656181e+02
1.801802e+00,2.211651e-01,1.310333e-01,6.430522e-01,1.643253e+02
1.811812e+00,2.212264e-01,1.419397e-01,6.438689e-01,1.630410e+02
1.821822e+00,2.212971e-01,1.528125e-01,6.447369e-01,1.617654e+02
1.831832e+00,2.213777e-01,1.636528e-01,6.456541e-01,1.604986e+02
1.841842e+00,2.214686e-01,1.744617e-01,6.466183e-01,1.592407e+02
1.851852e+00,2.215704e-01,1.852403e-01,6.476273e-01,1.579918e+02
1.861862e+00,2.216834e-01,1.959896e-01,6.486791e-01,1.567520e+02
1.871872e+00,2.218083e-01,2.067105e-01,6.497715e-01,1.555215e+02
1.881882e+00,2.219454e-01,2.174040e-01,6.509023e-01,1.543003e+02
1.891892e+00,2.220954e-01,2.280712e-01,6.520693e-01,1.530885e+02
1.901902e+00,2.222587e-01,2.387129e-01,6.532703e-01,1.518861e+02
1.911912e+00,2.224358e-01,2.493301e-01,6.545034e-01,1.506933e+02
1.921922e+00,2.226275e-01,2.599236e-01,6.557662e-01,1.495100e+02
1.931932e+00,2.228341e-01,2.704943e-01,6.570566e-01,1.483363e+02
1.941942e+00,2.230563e-01,2.810430e-01,6.583727e-01,1.471723e+02
1.951952e+00,2.232946e-01,2.915705e-01,6.597122e-01,1.460179e+02
1.961962e+00,2.235498e-01,3.020777e-01,6.610730e-01,1.448733e+02
1.971972e+00,2.238223e-01,3.125653e-01,6.624533e-01,1.437383e+02
1.981982e+00,2.241128e-01,3.230341e-01,6.638508e-01,1.426131e+02
1.991992e+00,2.244219e-01,3.334847e-01,6.652637e-01,1.414976e+02
2.002002e+00,2.247503e-01,3.439180e-01,6.666900e-01,1.403918e+02
2.012012e+00,2.250987e-01,3.543345e-01,6.681276e-01,1.392957e+02
2.022022e+00,2.254677e-01,3.647350e-01,6.695748e-01,1.382092e+02
2.032032e+00,2.258581e-01,3.751200e-01,6.710296e-01,1.371325e+02
2.042042e+00,2.262704e-01,3.854902e-01,6.724902e-01,1.360654e+02
2.052052e+00,2.267055e-01,3.958461e-01,6.739547e-01,1.350079e+02
2.062062e+00,2.271641e-01,4.061884e-01,6.754215e-01,1.339600e+02
2.072072e+00,2.276469e-01,4.165176e-01,6.768887e-01,1.329216e+02
2.082082e+00,2.281547e-01,4.268342e-01,6.783547e-01,1.318928e+02
2.092092e+00,2.286882e-01,4.371387e-01,6.798177e-01,1.308734e+02
2.102102e+00,2.292482e-01,4.474315e-01,6.812763e-01,1.298634e+02
2.112112e+00,2.298356e-01,4.577131e-01,6.827287e-01,1.288628e+02
2.122122e+00,2.304511e-01,4.679839e-01,6.841735e-01,1.278715e+02
2.132132e+00,2.310955e-01,4.782444e-01,6.856091e-01,1.268895e+02
2.142142e+00,2.317698e-01,4.884949e-01,6.870340e-01,1.259167e+02
2.152152e+00,2.324747e-01,4.987356e-01,6.884469e-01,1.249530e+02
2.162162e+00,2.332112e-01,5.089670e-01,6.898463e-01,1.239984e+02
2.172172e+00,2.339800e-01,5.191894e-01,6.912309e-01,1.230529e+02
2.182182e+00,2.347822e-01,5.294029e-01,6.925994e-01,1.221164e+02
2.192192e+00,2.356186e-01,5.396078e-01,6.939505e-01,1.211888e+02
2.202202e+00,2.364901e-01,5.498043e-01,6.952829e-01,1.202700e+02
2.212212e+00,2.373978e-01,5.599926e-01,6.965955e-01,1.193600e+02
2.222222e+00,2.383424e-01,5.701728e-01,6.978872e-01,1.184588e+02
2.232232e+00,2.393251e-01,5.803451e-01,6.991568e-01,1.175662e+02
2.242242e+00,2.403467e-01,5.905094e-01,7.004032e-01,1.166822e+02
2.252252e+00,2.414082e-01,6.006659e-01,7.016254e-01,1.158068e+02
2.262262e+00,2.425108e-01,6.108145e-01,7.028224e-01,1.149398e+02
2.272272e+00,2.436553e-01,6.209552e-01,7.039933e-01,1.140813e+02
2.282282e+00,2.448428e-01,6.310880e-01,7.051371e-01,1.132311e+02
2.292292e+00,2.460744e-01,6.412128e-01,7.062529e-01,1.123891e+02
2.302302e+00,2.473511e-01,6.513293e-01,7.073399e-01,1.115554e+02
2.312312e+00,2.486739e-01,6.614376e-01,7.083973e-01,1.107299e+02
2.322322e+00,2.500439e-01,6.715372e-01,7.094244e-01,1.099124e+02
2.332332e+00,2.514622e-01,6.816281e-01,7.104202e-01,1.091030e+02
2.342342e+00,2.529300e-01,6.917098e-01,7.113842e-01,1.083016e+02
2.352352e+00,2.544482e-01,7.017821e-01,7.123158e-01,1.075080e+02
2.362362e+00,2.560180e-01,7.118445e-01,7.132141e-01,1.067223e+02
2.372372e+00,2.576405e-01,7.218967e-01,7.140787e-01,1.059444e+02
2.382382e+00,2.593168e-01,7.319382e-01,7.149090e-01,1.051743e+02
2.392392e+00,2.610480e-01,7.419685e-01,7.157045e-01,1.044118e+02
2.402402e+00,2.628353e-01,7.519870e-01,7.164645e-01,1.036570e+02
2.412412e+00,2.646798e-01,7.619931e-01,7.171888e-01,1.029097e+02
2.422422e+00,2.665826e-01,7.719861e-01,7.178768e-01,1.021700e+02
2.432432e+00,2.685449e-01,7.819653e-01,7.185281e-01,1.014377e+02
2.442442e+00,2.705678e-01,7.919301e-01,7.191423e-01,1.007128e+02
2.452452e+00,2.726523e-01,8.018794e-01,7.197192e-01,9.999529e+01
2.462462e+00,2.747997e-01,8.118126e-01,7.202583e-01,9.928510e+01
2.472472e+00,2.770111e-01,8.217287e-01,7.207594e-01,9.858218e+01
2.482482e+00,2.792875e-01,8.316266e-01,7.212223e-01,9.788649e+01
2.492492e+00,2.816301e-01,8.415055e-01,7.216466e-01,9.719797e+01
2.502503e+00,2.840400e-01,8.513640e-01,7.220323e-01,9.651658e+01
2.512513e+00,2.865182e-01,8.612012e-01,7.223790e-01,9.584229e+01
2.522523e+00,2.890658e-01,8.710159e-01,7.226868e-01,9.517505e+01
2.532533e+00,2.916839e-01,8.808066e-01,7.229554e-01,9.451481e+01
2.542543e+00,2.943735e-01,8.905722e-01,7.231848e-01,9.386155e+01
2.552553e+00,2.971356e-01,9.003111e-01,7.233749e-01,9.321522e+01
2.562563e+00,2.999713e-01,9.100220e-01,7.235256e-01,9.257579e+01
2.572573e+00,3.028814e-01,9.197034e-01,7.236370e-01,9.194322e+01
2.582583e+00,3.058669e-01,9.293536e-01,7.237090e-01,9.131748e+01
2.592593e+00,3.089288e-01,9.389710e-01,7.237417e-01,9.069854e+01
2.602603e+00,3.120678e-01,9.485538e-01,7.237351e-01,9.008635e+01
2.612613e+00,3.152849e-01,9.581004e-01,7.236894e-01,8.948091e+01
2.622623e+00,3.185809e-01,9.676088e-01,7.236046e-01,8.888217e+01
2.632633e+00,3.219564e-01,9.770772e-01,7.234808e-01,8.829010e+01
2.642643e+00,3.254122e-01,9.865035e-01,7.233182e-01,8.770469e+01
2.652653e+00,3.289490e-01,9.958857e-01,7.231170e-01,8.712591e+01
2.662663e+00,3.325674e-01,1.005222e+00,7.228774e-01,8.655373e+01
2.672673e+00,3.362679e-01,1.014509e+00,7.225995e-01,8.598812e+01
2.682683e+00,3.400510e-01,1.023746e+00,7.222837e-01,8.542908e+01
2.692693e+00,3.439172e-01,1.032931e+00,7.219302e-01,8.487657e+01
2.702703e+00,3.478668e-01,1.042059e+00,7.215393e-01,8.433059e+01
2.712713e+00,3.519001e-01,1.051131e+00,7.211112e-01,8.379110e+01
2.722723e+00,3.560174e-01,1.060141e+00,7.206463e-01,8.325810e+01
2.732733e+00,3.602187e-01,1.069090e+00,7.201450e-01,8.273156e+01
2.742743e+00,3.645041e-01,1.077972e+00,7.196076e-01,8.221147e+01
2.752753e+00,3.688737e-01,1.086787e+00,7.190345e-01,8.169783e+01
2.762763e+00,3.733272e-01,1.095531e+00,7.184261e-01,8.119061e+01
2.772773e+00,3.778645e-01,1.104202e+00,7.177828e-01,8.068980e+01
2.782783e+00,3.824853e-01,1.112796e+00,7.171051e-01,8.019540e+01
2.792793e+00,3.871891e-01,1.121311e+00,7.163935e-01,7.970740e+01
2.802803e+00,3.919755e-01,1.129744e+00,7.156483e-01,7.922577e+01
2.812813e+00,3.968438e-01,1.138093e+00,7.148702e-01,7.875053e+01
2.822823e+00,4.017932e-01,1.146353e+00,7.140596e-01,7.828165e+01
2.832833e+00,4.068230e-01,1.154522e+00,7.132170e-01,7.781914e+01
2.842843e+00,4.119321e-01,1.162597e+00,7.123431e-01,7.736298e+01
2.852853e+00,4.171194e-01,1.170575e+00,7.114384e-01,7.691318e+01
2.862863e+00,4.223837e-01,1.178453e+00,7.105035e-01,7.646973e+01
2.872873e+00,4.277236e-01,1.186228e+00,7.095389e-01,7.603263e+01
2.882883e+00,4.331377e-01,1.193897e+00,7.085454e-01,7.560188e+01
2.892893e+00,4.386243e-01,1.201456e+00,7.075235e-01,7.517746e+01
2.902903e+00,4.441817e-01,1.208903e+00,7.064739e-01,7.475939e+01
2.912913e+00,4.498078e-01,1.216234e+00,7.053974e-01,7.434766e+01
2.922923e+00,4.555008e-01,1.223447e+00,7.042945e-01,7.394228e+01
2.932933e+00,4.612583e-01,1.230539e+00,7.031660e-01,7.354324e+01
2.942943e+00,4.670780e-01,1.237506e+00,7.020126e-01,7.315054e+01
2.952953e+00,4.729574e-01,1.244345e+00,7.008350e-01,7.276419e+01
2.962963e+00,4.788940e-01,1.251054e+00,6.996341e-01,7.238419e+01
2.972973e+00,4.848848e-01,1.257630e+00,6.984105e-01,7.201054e+01
2.982983e+00,4.909270e-01,1.264070e+00,6.971651e-01,7.164324e+01
2.992993e+00,4.970175e-01,1.270371e+00,6.958987e-01,7.128231e+01
3.003003e+00,5.031530e-01,1.276530e+00,6.946120e-01,7.092773e+01
3.013013e+00,5.093303e-01,1.282546e+00,6.933059e-01,7.057952e+01
3.023023e+00,5.155456e-01,1.288416e+00,6.919813e-01,7.023768e+01
3.033033e+00,5.217955e-01,1.294137e+00,6.906390e-01,6.990221e+01
3.043043e+00,5.280761e-01,1.299707e+00,6.892798e-01,6.957311e+01
3.053053e+00,5.343834e-01,1.305124e+00,6.879047e-01,6.925040e+01
3.063063e+00,5.407135e-01,1.310386e+00,6.865146e-01,6.893407e+01
3.073073e+00,5.470621e-01,1.315491e+00,6.851104e-01,6.862412e+01
3.083083e+00,5.534250e-01,1.320437e+00,6.836929e-01,6.832057e+01
3.093093e+00,5.597977e-01,1.325223e+00,6.822632e-01,6.802341e+01
3.103103e+00,5.661757e-01,1.329848e+00,6.808222e-01,6.773265e+01
3.113113e+00,5.725544e-01,1.334310e+00,6.793708e-01,6.744828e+01
3.123123e+00,5.789291e-01,1.338608e+00,6.779101e-01,6.717032e+01
3.133133e+00,5.852949e-01,1.342741e+00,6.764409e-01,6.689876e+01
3.143143e+00,5.916470e-01,1.346709e+00,6.749644e-01,6.663360e+01
3.153153e+00,5.979805e-01,1.350511e+00,6.734815e-01,6.637484e+01
3.163163e+00,6.042903e-01,1.354146e+00,6.719932e-01,6.612248e+01
3.173173e+00,6.105714e-01,1.357615e+00,6.705006e-01,6.587653e+01
3.183183e+00,6.168187e-01,1.360918e+00,6.690048e-01,6.563696e+01
3.193193e+00,6.230270e-01,1.364054e+00,6.675066e-01,6.540380e+01
3.203203e+00,6.291912e-01,1.367025e+00,6.660073e-01,6.517702e+01
3.213213e+00,6.353061e-01,1.369831e+00,6.645078e-01,6.495662e+01
3.223223e+00,6.413665e-01,1.372473e+00,6.630093e-01,6.474260e+01
3.233233e+00,6.473674e-01,1.374953e+00,6.615129e-01,6.453494e+01
3.243243e+00,6.533036e-01,1.377270e+00,6.600196e-01,6.433364e+01
3.253253e+00,6.591699e-01,1.379428e+00,6.585304e-01,6.413869e+01
3.263263e+00,6.649614e-01,1.381428e+00,6.570466e-01,6.395007e+01
3.273273e+00,6.706730e-01,1.383271e+00,6.555693e-01,6.376776e+01
3.283283e+00,6.762999e-01,1.384961e+00,6.540995e-01,6.359175e+01
3.293293e+00,6.818371e-01,1.386499e+00,6.526383e-01,6.342203e+01
3.303303e+00,6.872800e-01,1.387888e+00,6.511869e-01,6.325856e+01
3.313313e+00,6.926238e-01,1.389130e+00,6.497465e-01,6.310133e+01
3.323323e+00,6.978640e-01,1.390230e+00,6.483180e-01,6.295032e+01
3.333333e+00,7.029963e-01,1.391189e+00,6.469028e-01,6.280549e+01
3.343343e+00,7.080161e-01,1.392012e+00,6.455018e-01,6.266681e+01
3.353353e+00,7.129195e-01,1.392702e+00,6.441163e-01,6.253426e+01
3.363363e+00,7.177025e-01,1.393262e+00,6.427473e-01,6.240780e+01
3.373373e+00,7.223610e-01,1.393697e+00,6.413961e-01,6.228740e+01
3.383383e+00,7.268915e-01,1.394010e+00,6.400636e-01,6.217300e+01
3.393393e+00,7.312904e-01,1.394206e+00,6.387511e-01,6.206458e+01
3.403403e+00,7.355544e-01,1.394288e+00,6.374597e-01,6.196209e+01
3.413413e+00,7.396803e-01,1.394262e+00,6.361905e-01,6.186547e+01
3.423423e+00,7.436651e-01,1.394132e+00,6.349446e-01,6.177467e+01
3.433433e+00,7.475060e-01,1.393902e+00,6.337231e-01,6.168965e+01
3.443443e+00,7.512005e-01,1.393577e+00,6.325271e-01,6.161034e+01
3.453453e+00,7.547461e-01,1.393161e+00,6.313578e-01,6.153669e+01
3.463463e+00,7.581406e-01,1.392661e+00,6.302161e-01,6.146863e+01
3.473473e+00,7.613821e-01,1.392080e+00,6.291033e-01,6.140609e+01
3.483483e+00,7.644687e-01,1.391424e+00,6.280203e-01,6.134900e+01
3.493493e+00,7.673990e-01,1.390697e+00,6.269682e-01,6.129730e+01
3.503504e+00,7.701714e-01,1.389905e+00,6.259480e-01,6.125089e+01
3.513514e+00,7.727849e-01,1.389052e+00,6.249609e-01,6.120972e+01
3.523524e+00,7.752384e-01,1.388144e+00,6.240077e-01,6.117367e+01
3.533534e+00,7.775313e-01,1.387186e+00,6.230896e-01,6.114269e+01
3.543544e+00,7.796629e-01,1.386183e+00,6.222074e-01,6.111666e+01
3.553554e+00,7.816328e-01,1.385139e+00,6.213622e-01,6.109550e+01
3.563564e+00,7.834409e-01,1.384060e+00,6.205548e-01,6.107911e+01
3.573574e+00,7.850873e-01,1.382950e+00,6.197864e-01,6.106739e+01
3.583584e+00,7.865720e-01,1.381815e+00,6.190576e-01,6.106024e+01
3.593594e+00,7.878955e-01,1.380660e+00,6.183695e-01,6.105755e+01
3.603604e+00,7.890583e-01,1.379488e+00,6.177228e-01,6.105921e+01
3.613614e+00,7.900612e-01,1.378306e+00,6.171185e-01,6.106510e+01
3.623624e+00,7.909049e-01,1.377116e+00,6.165574e-01,6.107511e+01
3.633634e+00,7.915906e-01,1.375925e+00,6.160402e-01,6.108912e+01
3.643644e+00,7.921194e-01,1.374736e+00,6.155677e-01,6.110700e+01
3.653654e+00,7.924926e-01,1.373553e+00,6.151406e-01,6.112864e+01
3.663664e+00,7.927118e-01,1.372382e+00,6.147597e-01,6.115390e+01
3.673674e+00,7.927784e-01,1.371225e+00,6.144257e-01,6.118265e+01
3.683684e+00,7.926943e-01,1.370088e+00,6.141391e-01,6.121477e+01
3.693694e+00,7.924612e-01,1.368973e+00,6.139007e-01,6.125010e+01
3.703704e+00,7.920811e-01,1.367885e+00,6.137110e-01,6.128853e+01
3.713714e+00,7.915560e-01,1.366828e+00,6.135705e-01,6.132990e+01
3.723724e+00,7.908880e-01,1.365804e+00,6.134799e-01,6.137407e+01
3.733734e+00,7.900794e-01,1.364818e+00,6.134395e-01,6.142091e+01
3.743744e+00,7.891325e-01,1.363872e+00,6.134499e-01,6.147026e+01
3.753754e+00,7.880496e-01,1.362971e+00,6.135115e-01,6.152199e+01
3.763764e+00,7.868331e-01,1.362116e+00,6.136246e-01,6.157594e+01
3.773774e+00,7.854857e-01,1.361310e+00,6.137897e-01,6.163196e+01
3.783784e+00,7.840097e-01,1.360557e+00,6.140070e-01,6.168991e+01
3.793794e+00,7.824078e-01,1.359860e+00,6.142768e-01,6.174963e+01
3.803804e+00,7.806827e-01,1.359220e+00,6.145994e-01,6.181098e+01
3.813814e+00,7.788370e-01,1.358640e+00,6.149751e-01,6.187380e+01
3.823824e+00,7.768733e-01,1.358122e+00,6.154039e-01,6.193795e+01
3.833834e+00,7.747945e-01,1.357669e+00,6.158860e-01,6.200327e+01
3.843844e+00,7.726032e-01,1.357283e+00,6.164215e-01,6.206960e+01
3.853854e+00,7.703023e-01,1.356965e+00,6.170105e-01,6.213682e+01
3.863864e+00,7.678943e-01,1.356718e+00,6.176530e-01,6.220475e+01
3.873874e+00,7.653822e-01,1.356542e+00,6.183490e-01,6.227326e+01
3.883884e+00,7.627686e-01,1.356440e+00,6.190985e-01,6.234220e+01
3.893894e+00,7.600564e-01,1.356414e+00,6.199013e-01,6.241142e+01
3.903904e+00,7.572482e-01,1.356463e+00,6.207574e-01,6.248077e+01
3.913914e+00,7.543467e-01,1.356591e+00,6.216666e-01,6.255012e+01
3.923924e+00,7.513548e-01,1.356797e+00,6.226288e-01,6.261933e+01
3.933934e+00,7.482750e-01,1.357083e+00,6.236437e-01,6.268825e+01
3.943944e+00,7.451100e-01,1.357451e+00,6.247110e-01,6.275675e+01
3.953954e+00,7.418625e-01,1.357900e+00,6.258305e-01,6.282469e+01
3.963964e+00,7.385351e-01,1.358432e+00,6.270019e-01,6.289195e+01
3.973974e+00,7.351303e-01,1.359047e+00,6.282247e-01,6.295839e+01
3.983984e+00,7.316507e-01,1.359746e+00,6.294987e-01,6.302389e+01
3.993994e+00,7.280988e-01,1.360530e+00,6.308233e-01,6.308832e+01
4.004004e+00,7.244771e-01,1.361399e+00,6.321982e-01,6.315156e+01
4.014014e+00,7.207879e-01,1.362354e+00,6.336229e-01,6.321350e+01
4.024024e+00,7.170338e-01,1.363394e+00,6.350968e-01,6.327402e+01
4.034034e+00,7.132170e-01,1.364521e+00,6.366195e-01,6.333301e+01
4.044044e+00,7.093398e-01,1.365734e+00,6.381904e-01,6.339037e+01
4.054054e+00,7.054045e-01,1.367033e+00,6.398089e-01,6.344598e+01
4.064064e+00,7.014134e-01,1.368419e+00,6.414743e-01,6.349975e+01
4.074074e+00,6.973685e-01,1.369892e+00,6.431861e-01,6.355158e+01
4.084084e+00,6.932721e-01,1.371452e+00,6.449436e-01,6.360138e+01
4.094094e+00,6.891262e-01,1.373099e+00,6.467462e-01,6.364906e+01
4.104104e+00,6.849328e-01,1.374832e+00,6.485930e-01,6.369453e+01
4.114114e+00,6.806939e-01,1.376651e+00,6.504834e-01,6.373770e+01
4.124124e+00,6.764115e-01,1.378557e+00,6.524167e-01,6.377851e+01
4.134134e+00,6.720875e-01,1.380550e+00,6.543920e-01,6.381688e+01
4.144144e+00,6.677237e-01,1.382628e+00,6.564087e-01,6.385273e+01
4.154154e+00,6.633219e-01,1.384792e+00,6.584658e-01,6.388600e+01
4.164164e+00,6.588838e-01,1.387041e+00,6.605627e-01,6.391662e+01
4.174174e+00,6.544113e-01,1.389376e+00,6.626984e-01,6.394453e+01
4.184184e+00,6.499059e-01,1.391795e+00,6.648722e-01,6.396968e+01
4.194194e+00,6.453693e-01,1.394299e+00,6.670831e-01,6.399202e+01
4.204204e+00,6.408030e-01,1.396887e+00,6.693304e-01,6.401149e+01
4.214214e+00,6.362087e-01,1.399558e+00,6.716131e-01,6.402805e+01
4.224224e+00,6.315877e-01,1.402313e+00,6.739303e-01,6.404165e+01
4.234234e+00,6.269415e-01,1.405150e+00,6.762812e-01,6.405227e+01
4.244244e+00,6.222716e-01,1.408070e+00,6.786649e-01,6.405985e+01
4.254254e+00,6.175793e-01,1.411072e+00,6.810804e-01,6.406438e+01
4.264264e+00,6.128659e-01,1.414155e+00,6.835268e-01,6.406581e+01
4.274274e+00,6.081328e-01,1.417320e+00,6.860031e-01,6.406413e+01
4.284284e+00,6.033812e-01,1.420564e+00,6.885086e-01,6.405931e+01
4.294294e+00,5.986122e-01,1.423889e+00,6.910422e-01,6.405134e+01
4.304304e+00,5.938272e-01,1.427294e+00,6.936029e-01,6.404018e+01
4.314314e+00,5.890271e-01,1.430777e+00,6.961899e-01,6.402584e+01
4.324324e+00,5.842133e-01,1.434339e+00,6.988021e-01,6.400830e+01
4.334334e+00,5.793866e-01,1.437979e+00,7.014388e-01,6.398755e+01
4.344344e+00,5.745481e-01,1.441697e+00,7.040988e-01,6.396358e+01
4.354354e+00,5.696990e-01,1.445491e+00,7.067812e-01,6.393639e+01
4.364364e+00,5.648401e-01,1.449362e+00,7.094852e-01,6.390598e+01
4.374374e+00,5.599723e-01,1.453310e+00,7.122097e-01,6.387235e+01
4.384384e+00,5.550968e-01,1.457333e+00,7.149537e-01,6.383550e+01
4.394394e+00,5.502142e-01,1.461431e+00,7.177165e-01,6.379544e+01
4.404404e+00,5.453255e-01,1.465603e+00,7.204969e-01,6.375217e+01
4.414414e+00,5.404315e-01,1.469850e+00,7.232942e-01,6.370572e+01
4.424424e+00,5.355331e-01,1.474171e+00,7.261072e-01,6.365607e+01
4.434434e+00,5.306310e-01,1.478564e+00,7.289352e-01,6.360326e+01
4.444444e+00,5.257261e-01,1.483031e+00,7.317771e-01,6.354729e+01
4.454454e+00,5.208190e-01,1.487570e+00,7.346320e-01,6.348819e+01
4.464464e+00,5.159104e-01,1.492180e+00,7.374991e-01,6.342596e+01
4.474474e+00,5.110012e-01,1.496862e+00,7.403774e-01,6.336063e+01
4.484484e+00,5.060919e-01,1.501616e+00,7.432659e-01,6.329222e+01
4.494494e+00,5.011832e-01,1.506440e+00,7.461639e-01,6.322076e+01
4.504505e+00,4.962759e-01,1.511334e+00,7.490703e-01,6.314626e+01
4.514515e+00,4.913704e-01,1.516298e+00,7.519844e-01,6.306875e+01
4.524525e+00,4.864675e-01,1.521331e+00,7.549051e-01,6.298826e+01
4.534535e+00,4.815677e-01,1.526434e+00,7.578317e-01,6.290481e+01
4.544545e+00,4.766716e-01,1.531605e+00,7.607633e-01,6.281844e+01
4.554555e+00,4.717798e-01,1.536845e+00,7.636989e-01,6.272916e+01
4.564565e+00,4.668928e-01,1.542153e+00,7.666378e-01,6.263702e+01
4.574575e+00,4.620112e-01,1.547529e+00,7.695791e-01,6.254205e+01
4.584585e+00,4.571355e-01,1.552972e+00,7.725220e-01,6.244426e+01
4.594595e+00,4.522663e-01,1.558482e+00,7.754656e-01,6.234371e+01
4.604605e+00,4.474040e-01,1.564059e+00,7.784091e-01,6.224041e+01
4.614615e+00,4.425491e-01,1.569703e+00,7.813517e-01,6.213441e+01
4.624625e+00,4.377022e-01,1.575413e+00,7.842926e-01,6.202573e+01
4.634635e+00,4.328637e-01,1.581189e+00,7.872310e-01,6.191442e+01
4.644645e+00,4.280341e-01,1.587031e+00,7.901661e-01,6.180051e+01
4.654655e+00,4.232139e-01,1.592939e+00,7.930972e-01,6.168403e+01
4.664665e+00,4.184036e-01,1.598912e+00,7.960234e-01,6.156502e+01
4.674675e+00,4.136035e-01,1.604950e+00,7.989440e-01,6.144352e+01
4.684685e+00,4.088142e-01,1.611054e+00,8.018582e-01,6.131956e+01
4.694695e+00,4.040361e-01,1.617222e+00,8.047654e-01,6.119318e+01
4.704705e+00,3.992696e-01,1.623455e+00,8.076647e-01,6.106443e+01
4.714715e+00,3.945153e-01,1.629752e+00,8.105555e-01,6.093332e+01
4.724725e+00,3.897735e-01,1.636114e+00,8.134371e-01,6.079991e+01
4.734735e+00,3.850447e-01,1.642541e+00,8.163087e-01,6.066424e+01
4.744745e+00,3.803293e-01,1.649031e+00,8.191697e-01,6.052633e+01
4.754755e+00,3.756277e-01,1.655586e+00,8.220193e-01,6.038623e+01
4.764765e+00,3.709405e-01,1.662204e+00,8.248570e-01,6.024398e+01
4.774775e+00,3.662680e-01,1.668887e+00,8.276820e-01,6.009961e+01
4.784785e+00,3.616108e-01,1.675633e+00,8.304937e-01,5.995317e+01
4.794795e+00,3.569691e-01,1.682443e+00,8.332914e-01,5.980468e+01
4.804805e+00,3.523435e-01,1.689317e+00,8.360745e-01,5.965420e+01
4.814815e+00,3.477345e-01,1.696255e+00,8.388424e-01,5.950176e+01
4.824825e+00,3.431424e-01,1.703257e+00,8.415946e-01,5.934739e+01
4.834835e+00,3.385678e-01,1.710322e+00,8.443302e-01,5.919114e+01
4.844845e+00,3.340111e-01,1.717451e+00,8.470489e-01,5.903305e+01
4.854855e+00,3.294728e-01,1.724644e+00,8.497500e-01,5.887314e+01
4.864865e+00,3.249533e-01,1.731901e+00,8.524329e-01,5.871147e+01
4.874875e+00,3.204532e-01,1.739221e+00,8.550970e-01,5.854806e+01
4.884885e+00,3.159729e-01,1.746606e+00,8.577419e-01,5.838296e+01
4.894895e+00,3.115129e-01,1.754054e+00,8.603669e-01,5.821620e+01
4.904905e+00,3.070738e-01,1.761567e+00,8.629716e-01,5.804782e+01
4.914915e+00,3.026560e-01,1.769143e+00,8.655553e-01,5.787786e+01
4.924925e+00,2.982600e-01,1.776784e+00,8.681177e-01,5.770636e+01
4.934935e+00,2.938865e-01,1.784489e+00,8.706581e-01,5.753335e+01
4.944945e+00,2.895359e-01,1.792259e+00,8.731762e-01,5.735887e+01
4.954955e+00,2.852088e-01,1.800093e+00,8.756713e-01,5.718295e+01
4.964965e+00,2.809057e-01,1.807991e+00,8.781431e-01,5.700564e+01
4.974975e+00,2.766273e-01,1.815955e+00,8.805911e-01,5.682697e+01
4.984985e+00,2.723741e-01,1.823983e+00,8.830148e-01,5.664697e+01
4.994995e+00,2.681467e-01,1.832077e+00,8.854137e-01,5.646568e+01
5.005005e+00,2.639458e-01,1.840236e+00,8.877875e-01,5.628314e+01
5.015015e+00,2.597720e-01,1.848460e+00,8.901356e-01,5.609938e+01
5.025025e+00,2.556259e-01,1.856750e+00,8.924578e-01,5.591444e+01
5.035035e+00,2.515081e-01,1.865105e+00,8.947535e-01,5.572835e+01
5.045045e+00,2.474195e-01,1.873527e+00,8.970224e-01,5.554114e+01
5.055055e+00,2.433606e-01,1.882015e+00,8.992641e-01,5.535286e+01
5.065065e+00,2.393321e-01,1.890569e+00,9.014782e-01,5.516353e+01
5.075075e+00,2.353349e-01,1.899189e+00,9.036643e-01,5.497320e+01
5.085085e+00,2.313696e-01,1.907877e+00,9.058221e-01,5.478188e+01
5.095095e+00,2.274371e-01,1.916631e+00,9.079513e-01,5.458963e+01
5.105105e+00,2.235380e-01,1.925453e+00,9.100514e-01,5.439646e+01
5.115115e+00,2.196732e-01,1.934342e+00,9.121221e-01,5.420242e+01
5.125125e+00,2.158435e-01,1.943298e+00,9.141632e-01,5.400754e+01
5.135135e+00,2.120499e-01,1.952323e+00,9.161743e-01,5.381184e+01
5.145145e+00,2.082930e-01,1.961415e+00,9.181550e-01,5.361537e+01
5.155155e+00,2.045739e-01,1.970576e+00,9.201052e-01,5.341815e+01
5.165165e+00,2.008935e-01,1.979806e+00,9.220245e-01,5.322022e+01
5.175175e+00,1.972526e-01,1.989104e+00,9.239126e-01,5.302161e+01
5.185185e+00,1.936523e-01,1.998471e+00,9.257693e-01,5.282234e+01
5.195195e+00,1.900935e-01,2.007908e+00,9.275942e-01,5.262246e+01
5.205205e+00,1.865772e-01,2.017414e+00,9.293872e-01,5.242200e+01
5.215215e+00,1.831045e-01,2.026989e+00,9.311480e-01,5.222097e+01
5.225225e+00,1.796764e-01,2.036634e+00,9.328764e-01,5.201942e+01
5.235235e+00,1.762941e-01,2.046350e+00,9.345721e-01,5.181738e+01
5.245245e+00,1.729586e-01,2.056136e+00,9.362349e-01,5.161487e+01
5.255255e+00,1.696711e-01,2.065992e+00,9.378647e-01,5.141192e+01
5.265265e+00,1.664328e-01,2.075919e+00,9.394611e-01,5.120858e+01
5.275275e+00,1.632449e-01,2.085917e+00,9.410241e-01,5.100485e+01
5.285285e+00,1.601085e-01,2.095986e+00,9.425534e-01,5.080079e+01
5.295295e+00,1.570250e-01,2.106127e+00,9.440488e-01,5.059641e+01
5.305305e+00,1.539957e-01,2.116338e+00,9.455103e-01,5.039174e+01
5.315315e+00,1.510218e-01,2.126622e+00,9.469376e-01,5.018681e+01
5.325325e+00,1.481048e-01,2.136977e+00,9.483306e-01,4.998166e+01
5.335335e+00,1.452461e-01,2.147404e+00,9.496891e-01,4.977631e+01
5.345345e+00,1.424470e-01,2.157903e+00,9.510130e-01,4.957078e+01
5.355355e+00,1.397090e-01,2.168473e+00,9.523022e-01,4.936512e+01
5.365365e+00,1.370336e-01,2.179117e+00,9.535566e-01,4.915933e+01
5.375375e+00,1.344224e-01,2.189832e+00,9.547761e-01,4.895347e+01
5.385385e+00,1.318769e-01,2.200619e+00,9.559605e-01,4.874754e+01
5.395395e+00,1.293987e-01,2.211479e+00,9.571098e-01,4.854159e+01
5.405405e+00,1.269894e-01,2.222411e+00,9.582239e-01,4.833563e+01
5.415415e+00,1.246507e-01,2.233415e+00,9.593027e-01,4.812969e+01
5.425425e+00,1.223844e-01,2.244492e+00,9.603461e-01,4.792381e+01
5.435435e+00,1.201921e-01,2.255640e+00,9.613542e-01,4.771800e+01
5.445445e+00,1.180756e-01,2.266861e+00,9.623268e-01,4.751231e+01
5.455455e+00,1.160368e-01,2.278153e+00,9.632639e-01,4.730674e+01
5.465465e+00,1.140775e-01,2.289517e+00,9.641654e-01,4.710133e+01
5.475475e+00,1.121997e-01,2.300953e+00,9.650314e-01,4.689611e+01
5.485485e+00,1.104052e-01,2.312460e+00,9.658619e-01,4.669110e+01
5.495495e+00,1.086960e-01,2.324038e+00,9.666567e-01,4.648634e+01
5.505506e+00,1.070742e-01,2.335686e+00,9.674160e-01,4.628183e+01
5.515516e+00,1.055418e-01,2.347405e+00,9.681397e-01,4.607762e+01
5.525526e+00,1.041008e-01,2.359194e+00,9.688278e-01,4.587372e+01
5.535536e+00,1.027535e-01,2.371053e+00,9.694804e-01,4.567017e+01
5.545546e+00,1.015019e-01,2.382980e+00,9.700975e-01,4.546699e+01
5.555556e+00,1.003483e-01,2.394976e+00,9.706791e-01,4.526420e+01
5.565566e+00,9.929500e-02,2.407040e+00,9.712253e-01,4.506183e+01
5.575576e+00,9.834418e-02,2.419171e+00,9.717361e-01,4.485991e+01
5.585586e+00,9.749818e-02,2.431369e+00,9.722116e-01,4.465846e+01
5.595596e+00,9.675937e-02,2.443632e+00,9.726519e-01,4.445750e+01
5.605606e+00,9.613013e-02,2.455961e+00,9.730569e-01,4.425707e+01
5.615616e+00,9.561290e-02,2.468353e+00,9.734270e-01,4.405718e+01
5.625626e+00,9.521014e-02,2.480809e+00,9.737620e-01,4.385787e+01
5.635636e+00,9.492433e-02,2.493327e+00,9.740621e-01,4.365915e+01
5.645646e+00,9.475801e-02,2.505906e+00,9.743275e-01,4.346105e+01
5.655656e+00,9.471373e-02,2.518544e+00,9.745582e-01,4.326360e+01
5.665666e+00,9.479409e-02,2.531242e+00,9.747544e-01,4.306683e+01
5.675676e+00,9.500169e-02,2.543996e+00,9.749162e-01,4.287074e+01
5.685686e+00,9.533919e-02,2.556807e+00,9.750437e-01,4.267538e+01
5.695696e+00,9.580925e-02,2.569671e+00,9.751371e-01,4.248076e+01
5.705706e+00,9.641456e-02,2.582589e+00,9.751965e-01,4.228692e+01
5.715716e+00,9.715785e-02,2.595557e+00,9.752221e-01,4.209386e+01
5.725726e+00,9.804183e-02,2.608575e+00,9.752141e-01,4.190163e+01
5.735736e+00,9.906927e-02,2.621641e+00,9.751726e-01,4.171023e+01
5.745746e+00,1.002429e-01,2.634751e+00,9.750978e-01,4.151970e+01
5.755756e+00,1.015656e-01,2.647906e+00,9.749900e-01,4.133007e+01
5.765766e+00,1.030400e-01,2.661101e+00,9.748493e-01,4.114134e+01
5.775776e+00,1.046689e-01,2.674335e+00,9.746759e-01,4.095356e+01
5.785786e+00,1.064553e-01,2.687605e+00,9.744700e-01,4.076674e+01
5.795796e+00,1.084017e-01,2.700910e+00,9.742319e-01,4.058090e+01
5.805806e+00,1.105111e-01,2.714245e+00,9.739618e-01,4.039607e+01
5.815816e+00,1.127862e-01,2.727610e+00,9.736599e-01,4.021228e+01
5.825826e+00,1.152298e-01,2.740999e+00,9.733265e-01,4.002954e+01
5.835836e+00,1.178446e-01,2.754411e+00,9.729618e-01,3.984789e+01
5.845846e+00,1.206333e-01,2.767843e+00,9.725661e-01,3.966734e+01
5.855856e+00,1.235986e-01,2.781290e+00,9.721396e-01,3.948791e+01
5.865866e+00,1.267432e-01,2.794750e+00,9.716826e-01,3.930964e+01
5.875876e+00,1.300697e-01,2.808219e+00,9.711954e-01,3.913254e+01
5.885886e+00,1.335807e-01,2.821693e+00,9.706783e-01,3.895664e+01
5.895896e+00,1.372787e-01,2.835169e+00,9.701316e-01,3.878195e+01
5.905906e+00,1.411662e-01,2.848642e+00,9.695555e-01,3.860852e+01
5.915916e+00,1.452456e-01,2.862108e+00,9.689504e-01,3.843635e+01
5.925926e+00,1.495192e-01,2.875563e+00,9.683166e-01,3.826546e+01
5.935936e+00,1.539894e-01,2.889003e+00,9.676544e-01,3.809589e+01
5.945946e+00,1.586582e-01,2.902423e+00,9.669642e-01,3.792766e+01
5.955956e+00,1.635278e-01,2.915818e+00,9.662462e-01,3.776078e+01
5.965966e+00,1.686001e-01,2.929182e+00,9.655009e-01,3.759529e+01
5.975976e+00,1.738771e-01,2.942513e+00,9.647286e-01,3.743120e+01
5.985986e+00,1.793605e-01,2.955803e+00,9.639295e-01,3.726853e+01
5.995996e+00,1.850520e-01,2.969048e+00,9.631042e-01,3.710731e+01
6.006006e+00,1.909531e-01,2.982241e+00,9.622529e-01,3.694756e+01
6.016016e+00,1.970652e-01,2.995379e+00,9.613761e-01,3.678930e+01
6.026026e+00,2.033895e-01,3.008454e+00,9.604741e-01,3.663256e+01
6.036036e+00,2.099270e-01,3.021461e+00,9.595473e-01,3.647735e+01
6.046046e+00,2.166787e-01,3.034394e+00,9.585961e-01,3.632370e+01
6.056056e+00,2.236454e-01,3.047246e+00,9.576210e-01,3.617163e+01
6.066066e+00,2.308275e-01,3.060011e+00,9.566222e-01,3.602116e+01
6.076076e+00,2.382254e-01,3.072683e+00,9.556003e-01,3.587231e+01
6.086086e+00,2.458393e-01,3.085255e+00,9.545557e-01,3.572511e+01
6.096096e+00,2.536691e-01,3.097721e+00,9.534887e-01,3.557957e+01
6.106106e+00,2.617145e-01,3.110073e+00,9.523999e-01,3.543572e+01
6.116116e+00,2.699750e-01,3.122305e+00,9.512896e-01,3.529358e+01
6.126126e+00,2.784499e-01,3.134410e+00,9.501584e-01,3.515316e+01
6.136136e+00,2.871381e-01,3.146381e+00,9.490066e-01,3.501449e+01
6.146146e+00,2.960385e-01,3.158210e+00,9.478348e-01,3.487759e+01
6.156156e+00,3.051494e-01,3.169890e+00,9.466434e-01,3.474247e+01
6.166166e+00,3.144691e-01,3.181415e+00,9.454328e-01,3.460917e+01
6.176176e+00,3.239955e-01,3.192776e+00,9.442036e-01,3.447769e+01
6.186186e+00,3.337263e-01,3.203966e+00,9.429562e-01,3.434806e+01
6.196196e+00,3.436588e-01,3.214978e+00,9.416911e-01,3.422030e+01
6.206206e+00,3.537900e-01,3.225805e+00,9.404089e-01,3.409442e+01
6.216216e+00,3.641167e-01,3.236440e+00,9.391099e-01,3.397045e+01
6.226226e+00,3.746353e-01,3.246873e+00,9.377948e-01,3.384840e+01
6.236236e+00,3.853420e-01,3.257100e+00,9.364640e-01,3.372830e+01
6.246246e+00,3.962325e-01,3.267111e+00,9.351181e-01,3.361015e+01
6.256256e+00,4.073023e-01,3.276901e+00,9.337576e-01,3.349398e+01
6.266266e+00,4.185465e-01,3.286461e+00,9.323829e-01,3.337981e+01
6.276276e+00,4.299601e-01,3.295785e+00,9.309947e-01,3.326765e+01
6.286286e+00,4.415374e-01,3.304866e+00,9.295935e-01,3.315752e+01
6.296296e+00,4.532727e-01,3.313696e+00,9.281798e-01,3.304943e+01
6.306306e+00,4.651598e-01,3.322270e+00,9.267541e-01,3.294341e+01
6.316316e+00,4.771923e-01,3.330581e+00,9.253171e-01,3.283947e+01
6.326326e+00,4.893633e-01,3.338621e+00,9.238693e-01,3.273762e+01
6.336336e+00,5.016658e-01,3.346387e+00,9.224112e-01,3.263787e+01
6.346346e+00,5.140924e-01,3.353870e+00,9.209433e-01,3.254026e+01
6.356356e+00,5.266354e-01,3.361066e+00,9.194664e-01,3.244478e+01
6.366366e+00,5.392867e-01,3.367969e+00,9.179809e-01,3.235145e+01
6.376376e+00,5.520381e-01,3.374575e+00,9.164875e-01,3.226029e+01
6.386386e+00,5.648810e-01,3.380877e+00,9.149866e-01,3.217130e+01
6.396396e+00,5.778067e-01,3.386872e+00,9.134789e-01,3.208451e+01
6.406406e+00,5.908060e-01,3.392555e+00,9.119651e-01,3.199992e+01
6.416416e+00,6.038697e-01,3.397922e+00,9.104456e-01,3.191754e+01
6.426426e+00,6.169883e-01,3.402969e+00,9.089210e-01,3.183740e+01
6.436436e+00,6.301519e-01,3.407694e+00,9.073921e-01,3.175948e+01
6.446446e+00,6.433508e-01,3.412094e+00,9.058593e-01,3.168382e+01
6.456456e+00,6.565748e-01,3.416165e+00,9.043233e-01,3.161041e+01
6.466466e+00,6.698136e-01,3.419906e+00,9.027847e-01,3.153926e+01
6.476476e+00,6.830569e-01,3.423316e+00,9.012441e-01,3.147039e+01
6.486486e+00,6.962943e-01,3.426392e+00,8.997021e-01,3.140380e+01
6.496496e+00,7.095150e-01,3.429134e+00,8.981593e-01,3.133950e+01
6.506507e+00,7.227084e-01,3.431541e+00,8.966163e-01,3.127750e+01
6.516517e+00,7.358638e-01,3.433614e+00,8.950739e-01,3.121779e+01
6.526527e+00,7.489705e-01,3.435352e+00,8.935324e-01,3.116039e+01
6.536537e+00,7.620177e-01,3.436758e+00,8.919927e-01,3.110530e+01
6.546547e+00,7.749947e-01,3.437831e+00,8.904554e-01,3.105252e+01
6.556557e+00,7.878906e-01,3.438574e+00,8.889209e-01,3.100206e+01
6.566567e+00,8.006950e-01,3.438989e+00,8.873901e-01,3.095392e+01
6.576577e+00,8.133971e-01,3.439079e+00,8.858634e-01,3.090810e+01
6.586587e+00,8.259866e-01,3.438846e+00,8.843415e-01,3.086460e+01
6.596597e+00,8.384530e-01,3.438294e+00,8.828251e-01,3.082342e+01
6.606607e+00,8.507863e-01,3.437427e+00,8.813148e-01,3.078457e+01
6.616617e+00,8.629763e-01,3.436249e+00,8.798111e-01,3.074803e+01
6.626627e+00,8.750132e-01,3.434765e+00,8.783148e-01,3.071380e+01
6.636637e+00,8.868874e-01,3.432981e+00,8.768264e-01,3.068189e+01
6.646647e+00,8.985894e-01,3.430901e+00,8.753466e-01,3.065229e+01
6.656657e+00,9.101102e-01,3.428531e+00,8.738759e-01,3.062499e+01
6.666667e+00,9.214407e-01,3.425878e+00,8.724150e-01,3.059999e+01
6.676677e+00,9.325725e-01,3.422948e+00,8.709646e-01,3.057727e+01
6.686687e+00,9.434971e-01,3.419748e+00,8.695251e-01,3.055684e+01
6.696697e+00,9.542066e-01,3.416285e+00,8.680973e-01,3.053869e+01
6.706707e+00,9.646933e-01,3.412567e+00,8.666818e-01,3.052279e+01
6.716717e+00,9.749498e-01,3.408601e+00,8.652791e-01,3.050915e+01
6.726727e+00,9.849692e-01,3.404396e+00,8.638898e-01,3.049774e+01
6.736737e+00,9.947448e-01,3.399959e+00,8.625146e-01,3.048857e+01
6.746747e+00,1.004270e+00,3.395299e+00,8.611541e-01,3.048161e+01
6.756757e+00,1.013540e+00,3.390425e+00,8.598087e-01,3.047684e+01
6.766767e+00,1.022548e+00,3.385345e+00,8.584792e-01,3.047426e+01
6.776777e+00,1.031289e+00,3.380069e+00,8.571661e-01,3.047385e+01
6.786787e+00,1.039759e+00,3.374605e+00,8.558699e-01,3.047558e+01
6.796797e+00,1.047953e+00,3.368963e+00,8.545913e-01,3.047945e+01
6.806807e+00,1.055868e+00,3.363151e+00,8.533308e-01,3.048542e+01
6.816817e+00,1.063499e+00,3.357180e+00,8.520890e-01,3.049348e+01
6.826827e+00,1.070844e+00,3.351059e+00,8.508663e-01,3.050360e+01
6.836837e+00,1.077900e+00,3.344796e+00,8.496634e-01,3.051577e+01
6.846847e+00,1.084664e+00,3.338403e+00,8.484808e-01,3.052995e+01
6.856857e+00,1.091134e+00,3.331887e+00,8.473191e-01,3.054613e+01
6.866867e+00,1.097309e+00,3.325258e+00,8.461786e-01,3.056428e+01
6.876877e+00,1.103187e+00,3.318527e+00,8.450601e-01,3.058436e+01
6.886887e+00,1.108767e+00,3.311701e+00,8.439638e-01,3.060635e+01
6.896897e+00,1.114050e+00,3.304791e+00,8.428905e-01,3.063022e+01
6.906907e+00,1.119034e+00,3.297805e+00,8.418405e-01,3.065595e+01
6.916917e+00,1.123720e+00,3.290753e+00,8.408143e-01,3.068349e+01
6.926927e+00,1.128107e+00,3.283643e+00,8.398124e-01,3.071281e+01
6.936937e+00,1.132198e+00,3.276485e+00,8.388352e-01,3.074389e+01
6.946947e+00,1.135993e+00,3.269287e+00,8.378833e-01,3.077668e+01
6.956957e+00,1.139493e+00,3.262057e+00,8.369569e-01,3.081116e+01
6.966967e+00,1.142699e+00,3.254804e+00,8.360567e-01,3.084728e+01
6.976977e+00,1.145615e+00,3.247536e+00,8.351829e-01,3.088500e+01
6.986987e+00,1.148241e+00,3.240261e+00,8.343360e-01,3.092430e+01
6.996997e+00,1.150581e+00,3.232987e+00,8.335164e-01,3.096512e+01
7.007007e+00,1.152636e+00,3.225722e+00,8.327244e-01,3.100743e+01
7.017017e+00,1.154411e+00,3.218472e+00,8.319604e-01,3.105119e+01
7.027027e+00,1.155906e+00,3.211246e+00,8.312249e-01,3.109635e+01
7.037037e+00,1.157127e+00,3.204050e+00,8.305180e-01,3.114288e+01
7.047047e+00,1.158076e+00,3.196890e+00,8.298402e-01,3.119072e+01
7.057057e+00,1.158757e+00,3.189775e+00,8.291918e-01,3.123983e+01
7.067067e+00,1.159174e+00,3.182709e+00,8.285730e-01,3.129017e+01
7.077077e+00,1.159330e+00,3.175699e+00,8.279842e-01,3.134170e+01
7.087087e+00,1.159229e+00,3.168751e+00,8.274257e-01,3.139436e+01
7.097097e+00,1.158876e+00,3.161871e+00,8.268976e-01,3.144810e+01
7.107107e+00,1.158275e+00,3.155064e+00,8.264003e-01,3.150289e+01
7.117117e+00,1.157430e+00,3.148335e+00,8.259340e-01,3.155866e+01
7.127127e+00,1.156345e+00,3.141689e+00,8.254989e-01,3.161538e+01
7.137137e+00,1.155026e+00,3.135132e+00,8.250951e-01,3.167299e+01
7.147147e+00,1.153475e+00,3.128668e+00,8.247230e-01,3.173144e+01
7.157157e+00,1.151699e+00,3.122300e+00,8.243826e-01,3.179068e+01
7.167167e+00,1.149701e+00,3.116034e+00,8.240742e-01,3.185066e+01
7.177177e+00,1.147487e+00,3.109873e+00,8.237978e-01,3.191133e+01
7.187187e+00,1.145061e+00,3.103822e+00,8.235537e-01,3.197263e+01
7.197197e+00,1.142427e+00,3.097883e+00,8.233418e-01,3.203452e+01
7.207207e+00,1.139591e+00,3.092059e+00,8.231623e-01,3.209694e+01
7.217217e+00,1.136557e+00,3.086355e+00,8.230154e-01,3.215984e+01
7.227227e+00,1.133330e+00,3.080773e+00,8.229009e-01,3.222317e+01
7.237237e+00,1.129915e+00,3.075316e+00,8.228191e-01,3.228687e+01
7.247247e+00,1.126315e+00,3.069987e+00,8.227699e-01,3.235089e+01
7.257257e+00,1.122537e+00,3.064787e+00,8.227534e-01,3.241518e+01
7.267267e+00,1.118584e+00,3.059720e+00,8.227695e-01,3.247969e+01
7.277277e+00,1.114462e+00,3.054786e+00,8.228183e-01,3.254435e+01
7.287287e+00,1.110174e+00,3.049990e+00,8.228997e-01,3.260913e+01
7.297297e+00,1.105726e+00,3.045331e+00,8.230137e-01,3.267397e+01
7.307307e+00,1.101121e+00,3.040812e+00,8.231602e-01,3.273880e+01
7.317317e+00,1.096365e+00,3.036434e+00,8.233391e-01,3.280360e+01
7.327327e+00,1.091461e+00,3.032199e+00,8.235504e-01,3.286829e+01
7.337337e+00,1.086415e+00,3.028108e+00,8.237939e-01,3.293283e+01
7.347347e+00,1.081229e+00,3.024161e+00,8.240696e-01,3.299717e+01
7.357357e+00,1.075909e+00,3.020361e+00,8.243772e-01,3.306125e+01
7.367367e+00,1.070459e+00,3.016708e+00,8.247167e-01,3.312503e+01
7.377377e+00,1.064882e+00,3.013202e+00,8.250878e-01,3.318846e+01
7.387387e+00,1.059182e+00,3.009845e+00,8.254905e-01,3.325149e+01
7.397397e+00,1.053365e+00,3.006636e+00,8.259244e-01,3.331406e+01
7.407407e+00,1.047433e+00,3.003577e+00,8.263894e-01,3.337613e+01
7.417417e+00,1.041390e+00,3.000668e+00,8.268853e-01,3.343765e+01
7.427427e+00,1.035240e+00,2.997909e+00,8.274118e-01,3.349858e+01
7.437437e+00,1.028986e+00,2.995300e+00,8.279687e-01,3.355887e+01
7.447447e+00,1.022633e+00,2.992842e+00,8.285558e-01,3.361847e+01
7.457457e+00,1.016184e+00,2.990534e+00,8.291726e-01,3.367733e+01
7.467467e+00,1.009642e+00,2.988376e+00,8.298191e-01,3.373542e+01
7.477477e+00,1.003010e+00,2.986369e+00,8.304947e-01,3.379269e+01
7.487487e+00,9.962926e-01,2.984513e+00,8.311993e-01,3.384910e+01
7.497497e+00,9.894919e-01,2.982806e+00,8.319326e-01,3.390461e+01
7.507508e+00,9.826114e-01,2.981249e+00,8.326940e-01,3.395916e+01
7.517518e+00,9.756541e-01,2.979842e+00,8.334835e-01,3.401274e+01
7.527528e+00,9.686231e-01,2.978584e+00,8.343004e-01,3.406529e+01
7.537538e+00,9.615213e-01,2.977475e+00,8.351446e-01,3.411677e+01
7.547548e+00,9.543514e-01,2.976514e+00,8.360156e-01,3.416716e+01
7.557558e+00,9.471165e-01,2.975702e+00,8.369130e-01,3.421641e+01
7.567568e+00,9.398190e-01,2.975037e+00,8.378364e-01,3.426449e+01
7.577578e+00,9.324618e-01,2.974519e+00,8.387854e-01,3.431137e+01
7.587588e+00,9.250473e-01,2.974147e+00,8.397595e-01,3.435701e+01
7.597598e+00,9.175781e-01,2.973921e+00,8.407585e-01,3.440138e+01
7.607608e+00,9.100566e-01,2.973840e+00,8.417817e-01,3.444445e+01
7.617618e+00,9.024853e-01,2.973905e+00,8.428288e-01,3.448618e+01
7.627628e+00,8.948665e-01,2.974113e+00,8.438992e-01,3.452656e+01
7.637638e+00,8.872024e-01,2.974464e+00,8.449926e-01,3.456555e+01
7.647648e+00,8.794952e-01,2.974958e+00,8.461085e-01,3.460312e+01
7.657658e+00,8.717472e-01,2.975595e+00,8.472464e-01,3.463926e+01
7.667668e+00,8.639603e-01,2.976372e+00,8.484057e-01,3.467393e+01
7.677678e+00,8.561367e-01,2.977291e+00,8.495861e-01,3.470711e+01
7.687688e+00,8.482782e-01,2.978349e+00,8.507869e-01,3.473877e+01
7.697698e+00,8.403870e-01,2.979546e+00,8.520078e-01,3.476891e+01
7.707708e+00,8.324647e-01,2.980882e+00,8.532481e-01,3.479749e+01
7.717718e+00,8.245133e-01,2.982356e+00,8.545075e-01,3.482450e+01
7.727728e+00,8.165346e-01,2.983967e+00,8.557852e-01,3.484992e+01
7.737738e+00,8.085303e-01,2.985715e+00,8.570809e-01,3.487373e+01
7.747748e+00,8.005020e-01,2.987598e+00,8.583940e-01,3.489591e+01
7.757758e+00,7.924515e-01,2.989616e+00,8.597240e-01,3.491646e+01
7.767768e+00,7.843803e-01,2.991768e+00,8.610703e-01,3.493535e+01
7.777778e+00,7.762899e-01,2.994055e+00,8.624324e-01,3.495258e+01
7.787788e+00,7.681820e-01,2.996474e+00,8.638097e-01,3.496812e+01
7.797798e+00,7.600581e-01,2.999025e+00,8.652017e-01,3.498198e+01
7.807808e+00,7.519194e-01,3.001708e+00,8.666079e-01,3.499414e+01
7.817818e+00,7.437675e-01,3.004522e+00,8.680276e-01,3.500459e+01
7.827828e+00,7.356038e-01,3.007466e+00,8.694604e-01,3.501331e+01
7.837838e+00,7.274296e-01,3.010540e+00,8.709057e-01,3.502032e+01
7.847848e+00,7.192461e-01,3.013743e+00,8.723630e-01,3.502559e+01
7.857858e+00,7.110547e-01,3.017075e+00,8.738316e-01,3.502913e+01
7.867868e+00,7.028567e-01,3.020534e+00,8.753110e-01,3.503093e+01
7.877878e+00,6.946533e-01,3.024121e+00,8.768007e-01,3.503098e+01
7.887888e+00,6.864456e-01,3.027835e+00,8.783001e-01,3.502929e+01
7.897898e+00,6.782348e-01,3.031674e+00,8.798087e-01,3.502585e+01
7.907908e+00,6.700222e-01,3.035639e+00,8.813258e-01,3.502065e+01
7.917918e+00,6.618087e-01,3.039730e+00,8.828510e-01,3.501371e+01
7.927928e+00,6.535956e-01,3.043945e+00,8.843836e-01,3.500502e+01
7.937938e+00,6.453839e-01,3.048284e+00,8.859232e-01,3.499458e+01
7.947948e+00,6.371747e-01,3.052747e+00,8.874691e-01,3.498239e+01
7.957958e+00,6.289690e-01,3.057333e+00,8.890208e-01,3.496847e+01
7.967968e+00,6.207679e-01,3.062041e+00,8.905778e-01,3.495280e+01
7.977978e+00,6.125723e-01,3.066872e+00,8.921395e-01,3.493540e+01
7.987988e+00,6.043834e-01,3.071825e+00,8.937054e-01,3.491627e+01
7.997998e+00,5.962020e-01,3.076900e+00,8.952748e-01,3.489541e+01
8.008008e+00,5.880291e-01,3.082096e+00,8.968474e-01,3.487284e+01
8.018018e+00,5.798658e-01,3.087413e+00,8.984224e-01,3.484856e+01
8.028028e+00,5.717129e-01,3.092850e+00,8.999995e-01,3.482258e+01
8.038038e+00,5.635715e-01,3.098407e+00,9.015780e-01,3.479490e+01
8.048048e+00,5.554424e-01,3.104085e+00,9.031574e-01,3.476554e+01
8.058058e+00,5.473266e-01,3.109882e+00,9.047372e-01,3.473451e+01
8.068068e+00,5.392250e-01,3.115798e+00,9.063169e-01,3.470181e+01
8.078078e+00,5.311386e-01,3.121834e+00,9.078960e-01,3.466745e+01
8.088088e+00,5.230682e-01,3.127988e+00,9.094739e-01,3.463145e+01
8.098098e+00,5.150148e-01,3.134262e+00,9.110501e-01,3.459383e+01
8.108108e+00,5.069793e-01,3.140654e+00,9.126241e-01,3.455458e+01
8.118118e+00,4.989626e-01,3.147164e+00,9.141954e-01,3.451373e+01
8.128128e+00,4.909657e-01,3.153793e+00,9.157635e-01,3.447128e+01
8.138138e+00,4.829893e-01,3.160540e+00,9.173279e-01,3.442726e+01
8.148148e+00,4.750346e-01,3.167404e+00,9.188881e-01,3.438167e+01
8.158158e+00,4.671023e-01,3.174387e+00,9.204436e-01,3.433453e+01
8.168168e+00,4.591934e-01,3.181488e+00,9.219940e-01,3.428585e+01
8.178178e+00,4.513089e-01,3.188706e+00,9.235387e-01,3.423566e+01
8.188188e+00,4.434496e-01,3.196043e+00,9.250773e-01,3.418395e+01
8.198198e+00,4.356166e-01,3.203497e+00,9.266094e-01,3.413077e+01
8.208208e+00,4.278107e-01,3.211069e+00,9.281344e-01,3.407610e+01
8.218218e+00,4.200331e-01,3.218758e+00,9.296518e-01,3.401999e+01
8.228228e+00,4.122845e-01,3.226566e+00,9.311614e-01,3.396243e+01
8.238238e+00,4.045661e-01,3.234491e+00,9.326625e-01,3.390346e+01
8.248248e+00,3.968787e-01,3.242534e+00,9.341548e-01,3.384308e+01
8.258258e+00,3.892235e-01,3.250695e+00,9.356379e-01,3.378132e+01
8.268268e+00,3.816015e-01,3.258975e+00,9.371112e-01,3.371819e+01
8.278278e+00,3.740136e-01,3.267372e+00,9.385744e-01,3.365371e+01
8.288288e+00,3.664610e-01,3.275888e+00,9.400270e-01,3.358790e+01
8.298298e+00,3.589447e-01,3.284522e+00,9.414687e-01,3.352078e+01
8.308308e+00,3.514658e-01,3.293275e+00,9.428990e-01,3.345237e+01
8.318318e+00,3.440255e-01,3.302147e+00,9.443176e-01,3.338268e+01
8.328328e+00,3.366249e-01,3.311137e+00,9.457240e-01,3.331175e+01
8.338338e+00,3.292650e-01,3.320247e+00,9.471178e-01,3.323958e+01
8.348348e+00,3.219472e-01,3.329476e+00,9.484987e-01,3.316620e+01
8.358358e+00,3.146726e-01,3.338824e+00,9.498663e-01,3.309163e+01
8.368368e+00,3.074424e-01,3.348292e+00,9.512203e-01,3.301588e+01
8.378378e+00,3.002578e-01,3.357880e+00,9.525602e-01,3.293898e+01
8.388388e+00,2.931202e-01,3.367589e+00,9.538857e-01,3.286095e+01
8.398398e+00,2.860309e-01,3.377417e+00,9.551965e-01,3.278181e+01
8.408408e+00,2.789912e-01,3.387367e+00,9.564922e-01,3.270159e+01
8.418418e+00,2.720023e-01,3.397437e+00,9.577725e-01,3.262029e+01
8.428428e+00,2.650659e-01,3.407629e+00,9.590370e-01,3.253794e+01
8.438438e+00,2.581831e-01,3.417942e+00,9.602854e-01,3.245457e+01
8.448448e+00,2.513556e-01,3.428376e+00,9.615175e-01,3.237020e+01
8.458458e+00,2.445848e-01,3.438933e+00,9.627328e-01,3.228484e+01
8.468468e+00,2.378722e-01,3.449612e+00,9.639312e-01,3.219852e+01
8.478478e+00,2.312194e-01,3.460414e+00,9.651122e-01,3.211127e+01
8.488488e+00,2.246279e-01,3.471339e+00,9.662757e-01,3.202309e+01
8.498498e+00,2.180994e-01,3.482386e+00,9.674213e-01,3.193402e+01
8.508509e+00,2.116356e-01,3.493557e+00,9.685487e-01,3.184407e+01
8.518519e+00,2.052381e-01,3.504852e+00,9.696577e-01,3.175327e+01
8.528529e+00,1.989088e-01,3.516271e+00,9.707480e-01,3.166164e+01
8.538539e+00,1.926494e-01,3.527814e+00,9.718194e-01,3.156920e+01
8.548549e+00,1.864617e-01,3.539482e+00,9.728716e-01,3.147597e+01
8.558559e+00,1.803477e-01,3.551274e+00,9.739043e-01,3.138198e+01
8.568569e+00,1.743091e-01,3.563192e+00,9.749174e-01,3.128725e+01
8.578579e+00,1.683481e-01,3.575235e+00,9.759106e-01,3.119180e+01
8.588589e+00,1.624666e-01,3.587403e+00,9.768836e-01,3.109565e+01
8.598599e+00,1.566667e-01,3.599697e+00,9.778364e-01,3.099882e+01
8.608609e+00,1.509504e-01,3.612117e+00,9.787685e-01,3.090134e+01
8.618619e+00,1.453200e-01,3.624663e+00,9.796800e-01,3.080323e+01
8.628629e+00,1.397776e-01,3.637335e+00,9.805705e-01,3.070451e+01
8.638639e+00,1.343256e-01,3.650134e+00,9.814398e-01,3.060520e+01
8.648649e+00,1.289661e-01,3.663060e+00,9.822879e-01,3.050533e+01
8.658659e+00,1.237017e-01,3.676112e+00,9.831144e-01,3.040491e+01
8.668669e+00,1.185346e-01,3.689290e+00,9.839193e-01,3.030398e+01
8.678679e+00,1.134675e-01,3.702596e+00,9.847024e-01,3.020255e+01
8.688689e+00,1.085027e-01,3.716028e+00,9.854635e-01,3.010064e+01
8.698699e+00,1.036429e-01,3.729588e+00,9.862026e-01,2.999828e+01
8.708709e+00,9.889078e-02,3.743274e+00,9.869193e-01,2.989549e+01
8.718719e+00,9.424898e-02,3.757087e+00,9.876137e-01,2.979229e+01
8.728729e+00,8.972027e-02,3.771026e+00,9.882855e-01,2.968870e+01
8.738739e+00,8.530747e-02,3.785092e+00,9.889348e-01,2.958475e+01
8.748749e+00,8.101346e-02,3.799284e+00,9.895613e-01,2.948045e+01
8.758759e+00,7.684119e-02,3.813601e+00,9.901649e-01,2.937584e+01
8.768769e+00,7.279364e-02,3.828045e+00,9.907456e-01,2.927093e+01
8.778779e+00,6.887388e-02,3.842614e+00,9.913033e-01,2.916574e+01
8.788789e+00,6.508503e-02,3.857308e+00,9.918378e-01,2.906029e+01
8.798799e+00,6.143028e-02,3.872126e+00,9.923491e-01,2.895462e+01
8.808809e+00,5.791286e-02,3.887068e+00,9.928372e-01,2.884873e+01
8.818819e+00,5.453608e-02,3.902134e+00,9.933019e-01,2.874266e+01
8.828829e+00,5.130332e-02,3.917322e+00,9.937432e-01,2.863642e+01
8.838839e+00,4.821800e-02,3.932632e+00,9.941611e-01,2.853004e+01
8.848849e+00,4.528361e-02,3.948064e+00,9.945554e-01,2.842353e+01
8.858859e+00,4.250370e-02,3.963615e+00,9.949263e-01,2.831692e+01
8.868869e+00,3.988189e-02,3.979286e+00,9.952736e-01,2.821024e+01
8.878879e+00,3.742185e-02,3.995075e+00,9.955973e-01,2.810349e+01
8.888889e+00,3.512731e-02,4.010981e+00,9.958974e-01,2.799671e+01
8.898899e+00,3.300205e-02,4.027003e+00,9.961738e-01,2.788992e+01
8.908909e+00,3.104994e-02,4.043140e+00,9.964267e-01,2.778313e+01
8.918919e+00,2.927486e-02,4.059390e+00,9.966560e-01,2.767637e+01
8.928929e+00,2.768078e-02,4.075751e+00,9.968616e-01,2.756967e+01
8.938939e+00,2.627170e-02,4.092222e+00,9.970437e-01,2.746303e+01
8.948949e+00,2.505170e-02,4.108801e+00,9.972022e-01,2.735649e+01
8.958959e+00,2.402487e-02,4.125486e+00,9.973371e-01,2.725006e+01
8.968969e+00,2.319537e-02,4.142276e+00,9.974486e-01,2.714376e+01
8.978979e+00,2.256742e-02,4.159167e+00,9.975365e-01,2.703763e+01
8.988989e+00,2.214524e-02,4.176158e+00,9.976011e-01,2.693167e+01
8.998999e+00,2.193313e-02,4.193247e+00,9.976423e-01,2.682591e+01
9.009009e+00,2.193541e-02,4.210430e+00,9.976602e-01,2.672036e+01
9.019019e+00,2.215643e-02,4.227705e+00,9.976549e-01,2.661506e+01
9.029029e+00,2.260056e-02,4.245070e+00,9.976265e-01,2.651002e+01
9.039039e+00,2.327221e-02,4.262520e+00,9.975749e-01,2.640527e+01
9.049049e+00,2.417582e-02,4.280054e+00,9.975004e-01,2.630081e+01
9.059059e+00,2.531582e-02,4.297667e+00,9.974030e-01,2.619668e+01
9.069069e+00,2.669667e-02,4.315356e+00,9.972827e-01,2.609289e+01
9.079079e+00,2.832282e-02,4.333117e+00,9.971398e-01,2.598947e+01
9.089089e+00,3.019874e-02,4.350947e+00,9.969743e-01,2.588643e+01
9.099099e+00,3.232888e-02,4.368841e+00,9.967864e-01,2.578380e+01
9.109109e+00,3.471769e-02,4.386795e+00,9.965761e-01,2.568159e+01
9.119119e+00,3.736960e-02,4.404805e+00,9.963437e-01,2.557983e+01
9.129129e+00,4.028899e-02,4.422865e+00,9.960891e-01,2.547853e+01
9.139139e+00,4.348024e-02,4.440972e+00,9.958127e-01,2.537772e+01
9.149149e+00,4.694768e-02,4.459119e+00,9.955144e-01,2.527741e+01
9.159159e+00,5.069558e-02,4.477302e+00,9.951946e-01,2.517763e+01
9.169169e+00,5.472817e-02,4.495515e+00,9.948533e-01,2.507839e+01
9.179179e+00,5.904961e-02,4.513752e+00,9.944907e-01,2.497972e+01
9.189189e+00,6.366396e-02,4.532008e+00,9.941070e-01,2.488164e+01
9.199199e+00,6.857524e-02,4.550276e+00,9.937024e-01,2.478415e+01
9.209209e+00,7.378734e-02,4.568550e+00,9.932770e-01,2.468729e+01
9.219219e+00,7.930405e-02,4.586823e+00,9.928310e-01,2.459107e+01
9.229229e+00,8.512906e-02,4.605088e+00,9.923647e-01,2.449551e+01
9.239239e+00,9.126591e-02,4.623338e+00,9.918783e-01,2.440063e+01
9.249249e+00,9.771802e-02,4.641566e+00,9.913718e-01,2.430646e+01
9.259259e+00,1.044887e-01,4.659764e+00,9.908457e-01,2.421299e+01
9.269269e+00,1.115809e-01,4.677924e+00,9.903000e-01,2.412027e+01
9.279279e+00,1.189977e-01,4.696039e+00,9.897351e-01,2.402830e+01
9.289289e+00,1.267418e-01,4.714100e+00,9.891511e-01,2.393710e+01
9.299299e+00,1.348156e-01,4.732098e+00,9.885482e-01,2.384670e+01
9.309309e+00,1.432216e-01,4.750025e+00,9.879268e-01,2.375710e+01
9.319319e+00,1.519618e-01,4.767871e+00,9.872871e-01,2.366833e+01
9.329329e+00,1.610381e-01,4.785628e+00,9.866293e-01,2.358041e+01
9.339339e+00,1.704520e-01,4.803287e+00,9.859536e-01,2.349335e+01
9.349349e+00,1.802048e-01,4.820837e+00,9.852604e-01,2.340717e+01
9.359359e+00,1.902976e-01,4.838268e+00,9.845499e-01,2.332189e+01
9.369369e+00,2.007311e-01,4.855572e+00,9.838224e-01,2.323753e+01
9.379379e+00,2.115058e-01,4.872736e+00,9.830782e-01,2.315410e+01
9.389389e+00,2.226216e-01,4.889752e+00,9.823175e-01,2.307162e+01
9.399399e+00,2.340784e-01,4.906609e+00,9.815407e-01,2.299010e+01
9.409409e+00,2.458756e-01,4.923295e+00,9.807479e-01,2.290957e+01
9.419419e+00,2.580121e-01,4.939801e+00,9.799397e-01,2.283003e+01
9.429429e+00,2.704866e-01,4.956114e+00,9.791161e-01,2.275151e+01
9.439439e+00,2.832974e-01,4.972225e+00,9.782776e-01,2.267403e+01
9.449449e+00,2.964422e-01,4.988121e+00,9.774245e-01,2.259759e+01
9.459459e+00,3.099185e-01,5.003792e+00,9.765570e-01,2.252221e+01
9.469469e+00,3.237233e-01,5.019225e+00,9.756756e-01,2.244791e+01
9.479479e+00,3.378530e-01,5.034411e+00,9.747805e-01,2.237471e+01
9.489489e+00,3.523039e-01,5.049336e+00,9.738720e-01,2.230261e+01
9.499499e+00,3.670714e-01,5.063990e+00,9.729506e-01,2.223164e+01
9.509510e+00,3.821508e-01,5.078362e+00,9.720164e-01,2.216180e+01
9.519520e+00,3.975368e-01,5.092440e+00,9.710700e-01,2.209312e+01
9.529530e+00,4.132234e-01,5.106211e+00,9.701116e-01,2.202560e+01
9.539540e+00,4.292045e-01,5.119667e+00,9.691416e-01,2.195927e+01
9.549550e+00,4.454732e-01,5.132794e+00,9.681603e-01,2.189413e+01
9.559560e+00,4.620222e-01,5.145582e+00,9.671682e-01,2.183019e+01
9.569570e+00,4.788438e-01,5.158020e+00,9.661655e-01,2.176748e+01
9.579580e+00,4.959296e-01,5.170097e+00,9.651527e-01,2.170600e+01
9.589590e+00,5.132709e-01,5.181802e+00,9.641300e-01,2.164576e+01
9.599600e+00,5.308585e-01,5.193126e+00,9.630980e-01,2.158678e+01
9.609610e+00,5.486825e-01,5.204058e+00,9.620569e-01,2.152907e+01
9.619620e+00,5.667327e-01,5.214589e+00,9.610072e-01,2.147265e+01
9.629630e+00,5.849984e-01,5.224708e+00,9.599492e-01,2.141751e+01
9.639640e+00,6.034684e-01,5.234407e+00,9.588834e-01,2.136368e+01
9.649650e+00,6.221311e-01,5.243676e+00,9.578101e-01,2.131116e+01
9.659660e+00,6.409743e-01,5.252508e+00,9.567297e-01,2.125997e+01
9.669670e+00,6.599856e-01,5.260895e+00,9.556426e-01,2.121012e+01
9.679680e+00,6.791521e-01,5.268827e+00,9.545492e-01,2.116160e+01
9.689690e+00,6.984604e-01,5.276300e+00,9.534499e-01,2.111444e+01
9.699700e+00,7.178968e-01,5.283305e+00,9.523452e-01,2.106865e+01
9.709710e+00,7.374473e-01,5.289837e+00,9.512354e-01,2.102422e+01
9.719720e+00,7.570976e-01,5.295890e+00,9.501210e-01,2.098118e+01
9.729730e+00,7.768328e-01,5.301458e+00,9.490023e-01,2.093952e+01
9.739740e+00,7.966381e-01,5.306538e+00,9.478799e-01,2.089926e+01
9.749750e+00,8.164983e-01,5.311126e+00,9.467540e-01,2.086040e+01
9.759760e+00,8.363978e-01,5.315217e+00,9.456251e-01,2.082294e+01
9.769770e+00,8.563211e-01,5.318810e+00,9.444937e-01,2.078690e+01
9.779780e+00,8.762522e-01,5.321901e+00,9.433601e-01,2.075229e+01
9.789790e+00,8.961753e-01,5.324491e+00,9.422248e-01,2.071909e+01
9.799800e+00,9.160743e-01,5.326577e+00,9.410883e-01,2.068733e+01
9.809810e+00,9.359330e-01,5.328160e+00,9.399508e-01,2.065701e+01
9.819820e+00,9.557352e-01,5.329239e+00,9.388130e-01,2.062812e+01
9.829830e+00,9.754648e-01,5.329817e+00,9.376751e-01,2.060068e+01
9.839840e+00,9.951056e-01,5.329894e+00,9.365377e-01,2.057468e+01
9.849850e+00,1.014641e+00,5.329474e+00,9.354011e-01,2.055013e+01
9.859860e+00,1.034056e+00,5.328560e+00,9.342658e-01,2.052703e+01
9.869870e+00,1.053334e+00,5.327154e+00,9.331322e-01,2.050538e+01
9.879880e+00,1.072460e+00,5.325262e+00,9.320008e-01,2.048519e+01
9.889890e+00,1.091417e+00,5.322889e+00,9.308719e-01,2.046645e+01
9.899900e+00,1.110191e+00,5.320040e+00,9.297461e-01,2.044916e+01
9.909910e+00,1.128767e+00,5.316721e+00,9.286237e-01,2.043333e+01
9.919920e+00,1.147129e+00,5.312939e+00,9.275052e-01,2.041895e+01
9.929930e+00,1.165264e+00,5.308703e+00,9.263910e-01,2.040602e+01
9.939940e+00,1.183156e+00,5.304019e+00,9.252815e-01,2.039454e+01
9.949950e+00,1.200793e+00,5.298897e+00,9.241772e-01,2.038451e+01
9.959960e+00,1.218162e+00,5.293345e+00,9.230785e-01,2.037592e+01
9.969970e+00,1.235248e+00,5.287373e+00,9.219858e-01,2.036876e+01
9.979980e+00,1.252040e+00,5.280992e+00,9.208995e-01,2.036305e+01
9.989990e+00,1.268526e+00,5.274210e+00,9.198201e-01,2.035876e+01
1.000000e+01,1.284694e+00,5.267041e+00,9.187480e-01,2.035590e+01
