$MeshFormat
2.2 0 8
$EndMeshFormat
$PhysicalNames
5
1 1 "bottom wall"
1 2 "right wall"
1 3 "top wall"
1 4 "left wall"
2 5 "air"
$EndPhysicalNames
$Nodes
402
1 0 0 0
2 1 0 0
3 1 0.01 0
4 0 0.01 0
5 0.004999999999990503 0 0
6 0.009999999999981052 0 0
7 0.01499999999997166 0 0
8 0.01999999999996226 0 0
9 0.02499999999995273 0 0
10 0.02999999999994291 0 0
11 0.03499999999993243 0 0
12 0.03999999999992165 0 0
13 0.04499999999991052 0 0
14 0.04999999999989939 0 0
15 0.05499999999988832 0 0
16 0.05999999999987805 0 0
17 0.06499999999986866 0 0
18 0.06999999999986013 0 0
19 0.07499999999985242 0 0
20 0.07999999999984476 0 0
21 0.08499999999983711 0 0
22 0.08999999999982944 0 0
23 0.0949999999998218 0 0
24 0.09999999999981413 0 0
25 0.1049999999998065 0 0
26 0.1099999999997988 0 0
27 0.1149999999997912 0 0
28 0.1199999999997825 0 0
29 0.1249999999997731 0 0
30 0.1299999999997603 0 0
31 0.1349999999997466 0 0
32 0.1399999999997321 0 0
33 0.1449999999997175 0 0
34 0.1499999999997028 0 0
35 0.1549999999996882 0 0
36 0.1599999999996737 0 0
37 0.1649999999996591 0 0
38 0.1699999999996445 0 0
39 0.1749999999996299 0 0
40 0.1799999999996153 0 0
41 0.1849999999996007 0 0
42 0.1899999999995861 0 0
43 0.1949999999995715 0 0
44 0.1999999999995569 0 0
45 0.2049999999995423 0 0
46 0.2099999999995277 0 0
47 0.2149999999995131 0 0
48 0.2199999999994985 0 0
49 0.2249999999994839 0 0
50 0.2299999999994693 0 0
51 0.2349999999994547 0 0
52 0.2399999999994402 0 0
53 0.2449999999994255 0 0
54 0.2499999999994109 0 0
55 0.2549999999993964 0 0
56 0.2599999999993817 0 0
57 0.2649999999993672 0 0
58 0.2699999999993525 0 0
59 0.2749999999993379 0 0
60 0.2799999999993234 0 0
61 0.2849999999993088 0 0
62 0.2899999999992942 0 0
63 0.2949999999992796 0 0
64 0.299999999999265 0 0
65 0.3049999999992504 0 0
66 0.3099999999992358 0 0
67 0.3149999999992212 0 0
68 0.3199999999992066 0 0
69 0.324999999999192 0 0
70 0.3299999999991775 0 0
71 0.3349999999991628 0 0
72 0.3399999999991483 0 0
73 0.3449999999991336 0 0
74 0.349999999999119 0 0
75 0.3549999999991045 0 0
76 0.3599999999990898 0 0
77 0.3649999999990753 0 0
78 0.3699999999990606 0 0
79 0.374999999999046 0 0
80 0.3799999999990315 0 0
81 0.3849999999990169 0 0
82 0.3899999999990023 0 0
83 0.3949999999989877 0 0
84 0.3999999999989731 0 0
85 0.4049999999989585 0 0
86 0.4099999999989439 0 0
87 0.4149999999989293 0 0
88 0.4199999999989147 0 0
89 0.4249999999989001 0 0
90 0.4299999999988856 0 0
91 0.4349999999988709 0 0
92 0.4399999999988564 0 0
93 0.4449999999988417 0 0
94 0.4499999999988272 0 0
95 0.4549999999988126 0 0
96 0.4599999999987979 0 0
97 0.4649999999987834 0 0
98 0.4699999999987687 0 0
99 0.4749999999987542 0 0
100 0.4799999999987396 0 0
101 0.484999999998725 0 0
102 0.4899999999987104 0 0
103 0.4949999999986997 0 0
104 0.4999999999986921 0 0
105 0.5049999999986983 0 0
106 0.5099999999987076 0 0
107 0.5149999999987207 0 0
108 0.5199999999987339 0 0
109 0.5249999999987471 0 0
110 0.5299999999987604 0 0
111 0.5349999999987735 0 0
112 0.5399999999987867 0 0
113 0.5449999999987999 0 0
114 0.549999999998813 0 0
115 0.5549999999988262 0 0
116 0.5599999999988394 0 0
117 0.5649999999988526 0 0
118 0.5699999999988659 0 0
119 0.5749999999988791 0 0
120 0.5799999999988923 0 0
121 0.5849999999989054 0 0
122 0.5899999999989186 0 0
123 0.5949999999989318 0 0
124 0.5999999999989449 0 0
125 0.6049999999989581 0 0
126 0.6099999999989714 0 0
127 0.6149999999989845 0 0
128 0.6199999999989977 0 0
129 0.6249999999990109 0 0
130 0.6299999999990241 0 0
131 0.6349999999990372 0 0
132 0.6399999999990504 0 0
133 0.6449999999990637 0 0
134 0.6499999999990768 0 0
135 0.65499999999909 0 0
136 0.6599999999991032 0 0
137 0.6649999999991164 0 0
138 0.6699999999991295 0 0
139 0.6749999999991427 0 0
140 0.6799999999991559 0 0
141 0.6849999999991691 0 0
142 0.6899999999991824 0 0
143 0.6949999999991956 0 0
144 0.6999999999992087 0 0
145 0.7049999999992219 0 0
146 0.7099999999992351 0 0
147 0.7149999999992483 0 0
148 0.7199999999992615 0 0
149 0.7249999999992747 0 0
150 0.7299999999992879 0 0
151 0.734999999999301 0 0
152 0.7399999999993142 0 0
153 0.7449999999993274 0 0
154 0.7499999999993405 0 0
155 0.7549999999993537 0 0
156 0.759999999999367 0 0
157 0.7649999999993802 0 0
158 0.7699999999993933 0 0
159 0.7749999999994065 0 0
160 0.7799999999994197 0 0
161 0.7849999999994328 0 0
162 0.789999999999446 0 0
163 0.7949999999994593 0 0
164 0.7999999999994724 0 0
165 0.8049999999994856 0 0
166 0.8099999999994988 0 0
167 0.8149999999995121 0 0
168 0.8199999999995252 0 0
169 0.8249999999995384 0 0
170 0.8299999999995517 0 0
171 0.8349999999995648 0 0
172 0.839999999999578 0 0
173 0.8449999999995912 0 0
174 0.8499999999996044 0 0
175 0.8549999999996175 0 0
176 0.8599999999996307 0 0
177 0.8649999999996439 0 0
178 0.869999999999657 0 0
179 0.8749999999996703 0 0
180 0.8799999999996835 0 0
181 0.8849999999996966 0 0
182 0.8899999999997098 0 0
183 0.894999999999723 0 0
184 0.8999999999997362 0 0
185 0.9049999999997493 0 0
186 0.9099999999997626 0 0
187 0.9149999999997758 0 0
188 0.9199999999997889 0 0
189 0.9249999999998021 0 0
190 0.9299999999998153 0 0
191 0.9349999999998284 0 0
192 0.9399999999998417 0 0
193 0.944999999999855 0 0
194 0.9499999999998682 0 0
195 0.9549999999998813 0 0
196 0.9599999999998945 0 0
197 0.9649999999999077 0 0
198 0.9699999999999208 0 0
199 0.974999999999934 0 0
200 0.9799999999999472 0 0
201 0.9849999999999605 0 0
202 0.9899999999999736 0 0
203 0.9949999999999868 0 0
204 0.9949999999999792 0.01 0
205 0.9899999999999584 0.01 0
206 0.9849999999999376 0.01 0
207 0.9799999999999167 0.01 0
208 0.9749999999998959 0.01 0
209 0.9699999999998751 0.01 0
210 0.9649999999998543 0.01 0
211 0.9599999999998334 0.01 0
212 0.9549999999998127 0.01 0
213 0.9499999999997918 0.01 0
214 0.944999999999771 0.01 0
215 0.9399999999997501 0.01 0
216 0.9349999999997294 0.01 0
217 0.9299999999997085 0.01 0
218 0.9249999999996877 0.01 0
219 0.9199999999996669 0.01 0
220 0.9149999999996461 0.01 0
221 0.9099999999996252 0.01 0
222 0.9049999999996045 0.01 0
223 0.8999999999995836 0.01 0
224 0.8949999999995628 0.01 0
225 0.8899999999995419 0.01 0
226 0.8849999999995212 0.01 0
227 0.8799999999995082 0.01 0
228 0.8749999999995012 0.01 0
229 0.869999999999522 0.01 0
230 0.8649999999995489 0.01 0
231 0.8599999999995835 0.01 0
232 0.8549999999996183 0.01 0
233 0.849999999999653 0.01 0
234 0.8449999999996878 0.01 0
235 0.8399999999997224 0.01 0
236 0.834999999999757 0.01 0
237 0.8299999999997918 0.01 0
238 0.8249999999998265 0.01 0
239 0.8199999999998612 0.01 0
240 0.8149999999998959 0.01 0
241 0.8099999999999306 0.01 0
242 0.8049999999999653 0.01 0
243 0.8 0.01 0
244 0.7950000000000347 0.01 0
245 0.7900000000000694 0.01 0
246 0.7850000000001041 0.01 0
247 0.7800000000001388 0.01 0
248 0.7750000000001736 0.01 0
249 0.7700000000002082 0.01 0
250 0.7650000000002429 0.01 0
251 0.7600000000002776 0.01 0
252 0.7550000000003123 0.01 0
253 0.7500000000003471 0.01 0
254 0.7450000000003817 0.01 0
255 0.7400000000004163 0.01 0
256 0.7350000000004511 0.01 0
257 0.7300000000004858 0.01 0
258 0.7250000000005203 0.01 0
259 0.7200000000005551 0.01 0
260 0.7150000000005897 0.01 0
261 0.7100000000006245 0.01 0
262 0.7050000000006591 0.01 0
263 0.7000000000006938 0.01 0
264 0.6950000000007285 0.01 0
265 0.6900000000007632 0.01 0
266 0.6850000000007979 0.01 0
267 0.6800000000008326 0.01 0
268 0.6750000000008672 0.01 0
269 0.6700000000009019 0.01 0
270 0.6650000000009366 0.01 0
271 0.6600000000009714 0.01 0
272 0.6550000000010059 0.01 0
273 0.6500000000010406 0.01 0
274 0.6450000000010754 0.01 0
275 0.64000000000111 0.01 0
276 0.6350000000011446 0.01 0
277 0.6300000000011794 0.01 0
278 0.625000000001214 0.01 0
279 0.6200000000012488 0.01 0
280 0.6150000000012834 0.01 0
281 0.6100000000013182 0.01 0
282 0.6050000000013528 0.01 0
283 0.6000000000013874 0.01 0
284 0.5950000000014222 0.01 0
285 0.5900000000014568 0.01 0
286 0.5850000000014914 0.01 0
287 0.5800000000015262 0.01 0
288 0.5750000000015609 0.01 0
289 0.5700000000015956 0.01 0
290 0.5650000000016302 0.01 0
291 0.5600000000016649 0.01 0
292 0.5550000000016996 0.01 0
293 0.5500000000017343 0.01 0
294 0.545000000001769 0.01 0
295 0.5400000000018037 0.01 0
296 0.5350000000018383 0.01 0
297 0.530000000001873 0.01 0
298 0.5250000000019077 0.01 0
299 0.5200000000019424 0.01 0
300 0.515000000001977 0.01 0
301 0.5100000000020117 0.01 0
302 0.5050000000020387 0.01 0
303 0.5000000000020595 0.01 0
304 0.4950000000020525 0.01 0
305 0.4900000000020395 0.01 0
306 0.4850000000020186 0.01 0
307 0.4800000000019978 0.01 0
308 0.475000000001977 0.01 0
309 0.4700000000019563 0.01 0
310 0.4650000000019354 0.01 0
311 0.4600000000019147 0.01 0
312 0.4550000000018938 0.01 0
313 0.450000000001873 0.01 0
314 0.4450000000018521 0.01 0
315 0.4400000000018314 0.01 0
316 0.4350000000018105 0.01 0
317 0.4300000000017897 0.01 0
318 0.425000000001769 0.01 0
319 0.4200000000017482 0.01 0
320 0.4150000000017273 0.01 0
321 0.4100000000017066 0.01 0
322 0.4050000000016857 0.01 0
323 0.4000000000016649 0.01 0
324 0.395000000001644 0.01 0
325 0.3900000000016233 0.01 0
326 0.3850000000016024 0.01 0
327 0.3800000000015817 0.01 0
328 0.3750000000015609 0.01 0
329 0.37000000000154 0.01 0
330 0.3650000000015192 0.01 0
331 0.3600000000014983 0.01 0
332 0.3550000000014776 0.01 0
333 0.3500000000014567 0.01 0
334 0.3450000000014359 0.01 0
335 0.3400000000014151 0.01 0
336 0.3350000000013944 0.01 0
337 0.3300000000013735 0.01 0
338 0.3250000000013528 0.01 0
339 0.3200000000013319 0.01 0
340 0.3150000000013111 0.01 0
341 0.3100000000012902 0.01 0
342 0.3050000000012695 0.01 0
343 0.3000000000012486 0.01 0
344 0.2950000000012278 0.01 0
345 0.2900000000012071 0.01 0
346 0.2850000000011863 0.01 0
347 0.2800000000011654 0.01 0
348 0.2750000000011447 0.01 0
349 0.2700000000011238 0.01 0
350 0.265000000001103 0.01 0
351 0.2600000000010821 0.01 0
352 0.2550000000010614 0.01 0
353 0.2500000000010405 0.01 0
354 0.2450000000010197 0.01 0
355 0.240000000000999 0.01 0
356 0.2350000000009781 0.01 0
357 0.2300000000009573 0.01 0
358 0.2250000000009365 0.01 0
359 0.2200000000009157 0.01 0
360 0.2150000000008948 0.01 0
361 0.210000000000874 0.01 0
362 0.2050000000008532 0.01 0
363 0.2000000000008325 0.01 0
364 0.1950000000008116 0.01 0
365 0.1900000000007909 0.01 0
366 0.18500000000077 0.01 0
367 0.1800000000007492 0.01 0
368 0.1750000000007284 0.01 0
369 0.1700000000007076 0.01 0
370 0.1650000000006867 0.01 0
371 0.1600000000006659 0.01 0
372 0.1550000000006451 0.01 0
373 0.1500000000006244 0.01 0
374 0.1450000000006035 0.01 0
375 0.1400000000005828 0.01 0
376 0.1350000000005619 0.01 0
377 0.1300000000005411 0.01 0
378 0.1250000000005203 0.01 0
379 0.1200000000004994 0.01 0
380 0.1150000000004786 0.01 0
381 0.1100000000004577 0.01 0
382 0.1050000000004371 0.01 0
383 0.1000000000004162 0.01 0
384 0.09500000000039543 0.01 0
385 0.09000000000037456 0.01 0
386 0.08500000000035379 0.01 0
387 0.08000000000033292 0.01 0
388 0.07500000000031215 0.01 0
389 0.07000000000029127 0.01 0
390 0.06500000000027051 0.01 0
391 0.06000000000024974 0.01 0
392 0.05500000000022898 0.01 0
393 0.0500000000002081 0.01 0
394 0.04500000000018733 0.01 0
395 0.04000000000016646 0.01 0
396 0.03500000000014569 0.01 0
397 0.03000000000012482 0.01 0
398 0.02500000000010405 0.01 0
399 0.02000000000008317 0.01 0
400 0.01500000000006252 0.01 0
401 0.01000000000004164 0.01 0
402 0.005000000000020877 0.01 0
$EndNodes
$Elements
802
1 1 2 1 1 1 5
2 1 2 1 1 5 6
3 1 2 1 1 6 7
4 1 2 1 1 7 8
5 1 2 1 1 8 9
6 1 2 1 1 9 10
7 1 2 1 1 10 11
8 1 2 1 1 11 12
9 1 2 1 1 12 13
10 1 2 1 1 13 14
11 1 2 1 1 14 15
12 1 2 1 1 15 16
13 1 2 1 1 16 17
14 1 2 1 1 17 18
15 1 2 1 1 18 19
16 1 2 1 1 19 20
17 1 2 1 1 20 21
18 1 2 1 1 21 22
19 1 2 1 1 22 23
20 1 2 1 1 23 24
21 1 2 1 1 24 25
22 1 2 1 1 25 26
23 1 2 1 1 26 27
24 1 2 1 1 27 28
25 1 2 1 1 28 29
26 1 2 1 1 29 30
27 1 2 1 1 30 31
28 1 2 1 1 31 32
29 1 2 1 1 32 33
30 1 2 1 1 33 34
31 1 2 1 1 34 35
32 1 2 1 1 35 36
33 1 2 1 1 36 37
34 1 2 1 1 37 38
35 1 2 1 1 38 39
36 1 2 1 1 39 40
37 1 2 1 1 40 41
38 1 2 1 1 41 42
39 1 2 1 1 42 43
40 1 2 1 1 43 44
41 1 2 1 1 44 45
42 1 2 1 1 45 46
43 1 2 1 1 46 47
44 1 2 1 1 47 48
45 1 2 1 1 48 49
46 1 2 1 1 49 50
47 1 2 1 1 50 51
48 1 2 1 1 51 52
49 1 2 1 1 52 53
50 1 2 1 1 53 54
51 1 2 1 1 54 55
52 1 2 1 1 55 56
53 1 2 1 1 56 57
54 1 2 1 1 57 58
55 1 2 1 1 58 59
56 1 2 1 1 59 60
57 1 2 1 1 60 61
58 1 2 1 1 61 62
59 1 2 1 1 62 63
60 1 2 1 1 63 64
61 1 2 1 1 64 65
62 1 2 1 1 65 66
63 1 2 1 1 66 67
64 1 2 1 1 67 68
65 1 2 1 1 68 69
66 1 2 1 1 69 70
67 1 2 1 1 70 71
68 1 2 1 1 71 72
69 1 2 1 1 72 73
70 1 2 1 1 73 74
71 1 2 1 1 74 75
72 1 2 1 1 75 76
73 1 2 1 1 76 77
74 1 2 1 1 77 78
75 1 2 1 1 78 79
76 1 2 1 1 79 80
77 1 2 1 1 80 81
78 1 2 1 1 81 82
79 1 2 1 1 82 83
80 1 2 1 1 83 84
81 1 2 1 1 84 85
82 1 2 1 1 85 86
83 1 2 1 1 86 87
84 1 2 1 1 87 88
85 1 2 1 1 88 89
86 1 2 1 1 89 90
87 1 2 1 1 90 91
88 1 2 1 1 91 92
89 1 2 1 1 92 93
90 1 2 1 1 93 94
91 1 2 1 1 94 95
92 1 2 1 1 95 96
93 1 2 1 1 96 97
94 1 2 1 1 97 98
95 1 2 1 1 98 99
96 1 2 1 1 99 100
97 1 2 1 1 100 101
98 1 2 1 1 101 102
99 1 2 1 1 102 103
100 1 2 1 1 103 104
101 1 2 1 1 104 105
102 1 2 1 1 105 106
103 1 2 1 1 106 107
104 1 2 1 1 107 108
105 1 2 1 1 108 109
106 1 2 1 1 109 110
107 1 2 1 1 110 111
108 1 2 1 1 111 112
109 1 2 1 1 112 113
110 1 2 1 1 113 114
111 1 2 1 1 114 115
112 1 2 1 1 115 116
113 1 2 1 1 116 117
114 1 2 1 1 117 118
115 1 2 1 1 118 119
116 1 2 1 1 119 120
117 1 2 1 1 120 121
118 1 2 1 1 121 122
119 1 2 1 1 122 123
120 1 2 1 1 123 124
121 1 2 1 1 124 125
122 1 2 1 1 125 126
123 1 2 1 1 126 127
124 1 2 1 1 127 128
125 1 2 1 1 128 129
126 1 2 1 1 129 130
127 1 2 1 1 130 131
128 1 2 1 1 131 132
129 1 2 1 1 132 133
130 1 2 1 1 133 134
131 1 2 1 1 134 135
132 1 2 1 1 135 136
133 1 2 1 1 136 137
134 1 2 1 1 137 138
135 1 2 1 1 138 139
136 1 2 1 1 139 140
137 1 2 1 1 140 141
138 1 2 1 1 141 142
139 1 2 1 1 142 143
140 1 2 1 1 143 144
141 1 2 1 1 144 145
142 1 2 1 1 145 146
143 1 2 1 1 146 147
144 1 2 1 1 147 148
145 1 2 1 1 148 149
146 1 2 1 1 149 150
147 1 2 1 1 150 151
148 1 2 1 1 151 152
149 1 2 1 1 152 153
150 1 2 1 1 153 154
151 1 2 1 1 154 155
152 1 2 1 1 155 156
153 1 2 1 1 156 157
154 1 2 1 1 157 158
155 1 2 1 1 158 159
156 1 2 1 1 159 160
157 1 2 1 1 160 161
158 1 2 1 1 161 162
159 1 2 1 1 162 163
160 1 2 1 1 163 164
161 1 2 1 1 164 165
162 1 2 1 1 165 166
163 1 2 1 1 166 167
164 1 2 1 1 167 168
165 1 2 1 1 168 169
166 1 2 1 1 169 170
167 1 2 1 1 170 171
168 1 2 1 1 171 172
169 1 2 1 1 172 173
170 1 2 1 1 173 174
171 1 2 1 1 174 175
172 1 2 1 1 175 176
173 1 2 1 1 176 177
174 1 2 1 1 177 178
175 1 2 1 1 178 179
176 1 2 1 1 179 180
177 1 2 1 1 180 181
178 1 2 1 1 181 182
179 1 2 1 1 182 183
180 1 2 1 1 183 184
181 1 2 1 1 184 185
182 1 2 1 1 185 186
183 1 2 1 1 186 187
184 1 2 1 1 187 188
185 1 2 1 1 188 189
186 1 2 1 1 189 190
187 1 2 1 1 190 191
188 1 2 1 1 191 192
189 1 2 1 1 192 193
190 1 2 1 1 193 194
191 1 2 1 1 194 195
192 1 2 1 1 195 196
193 1 2 1 1 196 197
194 1 2 1 1 197 198
195 1 2 1 1 198 199
196 1 2 1 1 199 200
197 1 2 1 1 200 201
198 1 2 1 1 201 202
199 1 2 1 1 202 203
200 1 2 1 1 203 2
201 1 2 2 2 3 2
202 1 2 3 3 3 204
203 1 2 3 3 204 205
204 1 2 3 3 205 206
205 1 2 3 3 206 207
206 1 2 3 3 207 208
207 1 2 3 3 208 209
208 1 2 3 3 209 210
209 1 2 3 3 210 211
210 1 2 3 3 211 212
211 1 2 3 3 212 213
212 1 2 3 3 213 214
213 1 2 3 3 214 215
214 1 2 3 3 215 216
215 1 2 3 3 216 217
216 1 2 3 3 217 218
217 1 2 3 3 218 219
218 1 2 3 3 219 220
219 1 2 3 3 220 221
220 1 2 3 3 221 222
221 1 2 3 3 222 223
222 1 2 3 3 223 224
223 1 2 3 3 224 225
224 1 2 3 3 225 226
225 1 2 3 3 226 227
226 1 2 3 3 227 228
227 1 2 3 3 228 229
228 1 2 3 3 229 230
229 1 2 3 3 230 231
230 1 2 3 3 231 232
231 1 2 3 3 232 233
232 1 2 3 3 233 234
233 1 2 3 3 234 235
234 1 2 3 3 235 236
235 1 2 3 3 236 237
236 1 2 3 3 237 238
237 1 2 3 3 238 239
238 1 2 3 3 239 240
239 1 2 3 3 240 241
240 1 2 3 3 241 242
241 1 2 3 3 242 243
242 1 2 3 3 243 244
243 1 2 3 3 244 245
244 1 2 3 3 245 246
245 1 2 3 3 246 247
246 1 2 3 3 247 248
247 1 2 3 3 248 249
248 1 2 3 3 249 250
249 1 2 3 3 250 251
250 1 2 3 3 251 252
251 1 2 3 3 252 253
252 1 2 3 3 253 254
253 1 2 3 3 254 255
254 1 2 3 3 255 256
255 1 2 3 3 256 257
256 1 2 3 3 257 258
257 1 2 3 3 258 259
258 1 2 3 3 259 260
259 1 2 3 3 260 261
260 1 2 3 3 261 262
261 1 2 3 3 262 263
262 1 2 3 3 263 264
263 1 2 3 3 264 265
264 1 2 3 3 265 266
265 1 2 3 3 266 267
266 1 2 3 3 267 268
267 1 2 3 3 268 269
268 1 2 3 3 269 270
269 1 2 3 3 270 271
270 1 2 3 3 271 272
271 1 2 3 3 272 273
272 1 2 3 3 273 274
273 1 2 3 3 274 275
274 1 2 3 3 275 276
275 1 2 3 3 276 277
276 1 2 3 3 277 278
277 1 2 3 3 278 279
278 1 2 3 3 279 280
279 1 2 3 3 280 281
280 1 2 3 3 281 282
281 1 2 3 3 282 283
282 1 2 3 3 283 284
283 1 2 3 3 284 285
284 1 2 3 3 285 286
285 1 2 3 3 286 287
286 1 2 3 3 287 288
287 1 2 3 3 288 289
288 1 2 3 3 289 290
289 1 2 3 3 290 291
290 1 2 3 3 291 292
291 1 2 3 3 292 293
292 1 2 3 3 293 294
293 1 2 3 3 294 295
294 1 2 3 3 295 296
295 1 2 3 3 296 297
296 1 2 3 3 297 298
297 1 2 3 3 298 299
298 1 2 3 3 299 300
299 1 2 3 3 300 301
300 1 2 3 3 301 302
301 1 2 3 3 302 303
302 1 2 3 3 303 304
303 1 2 3 3 304 305
304 1 2 3 3 305 306
305 1 2 3 3 306 307
306 1 2 3 3 307 308
307 1 2 3 3 308 309
308 1 2 3 3 309 310
309 1 2 3 3 310 311
310 1 2 3 3 311 312
311 1 2 3 3 312 313
312 1 2 3 3 313 314
313 1 2 3 3 314 315
314 1 2 3 3 315 316
315 1 2 3 3 316 317
316 1 2 3 3 317 318
317 1 2 3 3 318 319
318 1 2 3 3 319 320
319 1 2 3 3 320 321
320 1 2 3 3 321 322
321 1 2 3 3 322 323
322 1 2 3 3 323 324
323 1 2 3 3 324 325
324 1 2 3 3 325 326
325 1 2 3 3 326 327
326 1 2 3 3 327 328
327 1 2 3 3 328 329
328 1 2 3 3 329 330
329 1 2 3 3 330 331
330 1 2 3 3 331 332
331 1 2 3 3 332 333
332 1 2 3 3 333 334
333 1 2 3 3 334 335
334 1 2 3 3 335 336
335 1 2 3 3 336 337
336 1 2 3 3 337 338
337 1 2 3 3 338 339
338 1 2 3 3 339 340
339 1 2 3 3 340 341
340 1 2 3 3 341 342
341 1 2 3 3 342 343
342 1 2 3 3 343 344
343 1 2 3 3 344 345
344 1 2 3 3 345 346
345 1 2 3 3 346 347
346 1 2 3 3 347 348
347 1 2 3 3 348 349
348 1 2 3 3 349 350
349 1 2 3 3 350 351
350 1 2 3 3 351 352
351 1 2 3 3 352 353
352 1 2 3 3 353 354
353 1 2 3 3 354 355
354 1 2 3 3 355 356
355 1 2 3 3 356 357
356 1 2 3 3 357 358
357 1 2 3 3 358 359
358 1 2 3 3 359 360
359 1 2 3 3 360 361
360 1 2 3 3 361 362
361 1 2 3 3 362 363
362 1 2 3 3 363 364
363 1 2 3 3 364 365
364 1 2 3 3 365 366
365 1 2 3 3 366 367
366 1 2 3 3 367 368
367 1 2 3 3 368 369
368 1 2 3 3 369 370
369 1 2 3 3 370 371
370 1 2 3 3 371 372
371 1 2 3 3 372 373
372 1 2 3 3 373 374
373 1 2 3 3 374 375
374 1 2 3 3 375 376
375 1 2 3 3 376 377
376 1 2 3 3 377 378
377 1 2 3 3 378 379
378 1 2 3 3 379 380
379 1 2 3 3 380 381
380 1 2 3 3 381 382
381 1 2 3 3 382 383
382 1 2 3 3 383 384
383 1 2 3 3 384 385
384 1 2 3 3 385 386
385 1 2 3 3 386 387
386 1 2 3 3 387 388
387 1 2 3 3 388 389
388 1 2 3 3 389 390
389 1 2 3 3 390 391
390 1 2 3 3 391 392
391 1 2 3 3 392 393
392 1 2 3 3 393 394
393 1 2 3 3 394 395
394 1 2 3 3 395 396
395 1 2 3 3 396 397
396 1 2 3 3 397 398
397 1 2 3 3 398 399
398 1 2 3 3 399 400
399 1 2 3 3 400 401
400 1 2 3 3 401 402
401 1 2 3 3 402 4
402 1 2 4 4 4 1
403 2 2 5 6 1 5 402
404 2 2 5 6 402 4 1
405 2 2 5 6 5 6 401
406 2 2 5 6 401 402 5
407 2 2 5 6 6 7 400
408 2 2 5 6 400 401 6
409 2 2 5 6 7 8 399
410 2 2 5 6 399 400 7
411 2 2 5 6 8 9 398
412 2 2 5 6 398 399 8
413 2 2 5 6 9 10 397
414 2 2 5 6 397 398 9
415 2 2 5 6 10 11 396
416 2 2 5 6 396 397 10
417 2 2 5 6 11 12 395
418 2 2 5 6 395 396 11
419 2 2 5 6 12 13 394
420 2 2 5 6 394 395 12
421 2 2 5 6 13 14 393
422 2 2 5 6 393 394 13
423 2 2 5 6 14 15 392
424 2 2 5 6 392 393 14
425 2 2 5 6 15 16 391
426 2 2 5 6 391 392 15
427 2 2 5 6 16 17 390
428 2 2 5 6 390 391 16
429 2 2 5 6 17 18 389
430 2 2 5 6 389 390 17
431 2 2 5 6 18 19 388
432 2 2 5 6 388 389 18
433 2 2 5 6 19 20 387
434 2 2 5 6 387 388 19
435 2 2 5 6 20 21 386
436 2 2 5 6 386 387 20
437 2 2 5 6 21 22 385
438 2 2 5 6 385 386 21
439 2 2 5 6 22 23 384
440 2 2 5 6 384 385 22
441 2 2 5 6 23 24 383
442 2 2 5 6 383 384 23
443 2 2 5 6 24 25 382
444 2 2 5 6 382 383 24
445 2 2 5 6 25 26 381
446 2 2 5 6 381 382 25
447 2 2 5 6 26 27 380
448 2 2 5 6 380 381 26
449 2 2 5 6 27 28 379
450 2 2 5 6 379 380 27
451 2 2 5 6 28 29 378
452 2 2 5 6 378 379 28
453 2 2 5 6 29 30 377
454 2 2 5 6 377 378 29
455 2 2 5 6 30 31 376
456 2 2 5 6 376 377 30
457 2 2 5 6 31 32 375
458 2 2 5 6 375 376 31
459 2 2 5 6 32 33 374
460 2 2 5 6 374 375 32
461 2 2 5 6 33 34 373
462 2 2 5 6 373 374 33
463 2 2 5 6 34 35 372
464 2 2 5 6 372 373 34
465 2 2 5 6 35 36 371
466 2 2 5 6 371 372 35
467 2 2 5 6 36 37 370
468 2 2 5 6 370 371 36
469 2 2 5 6 37 38 369
470 2 2 5 6 369 370 37
471 2 2 5 6 38 39 368
472 2 2 5 6 368 369 38
473 2 2 5 6 39 40 367
474 2 2 5 6 367 368 39
475 2 2 5 6 40 41 366
476 2 2 5 6 366 367 40
477 2 2 5 6 41 42 365
478 2 2 5 6 365 366 41
479 2 2 5 6 42 43 364
480 2 2 5 6 364 365 42
481 2 2 5 6 43 44 363
482 2 2 5 6 363 364 43
483 2 2 5 6 44 45 362
484 2 2 5 6 362 363 44
485 2 2 5 6 45 46 361
486 2 2 5 6 361 362 45
487 2 2 5 6 46 47 360
488 2 2 5 6 360 361 46
489 2 2 5 6 47 48 359
490 2 2 5 6 359 360 47
491 2 2 5 6 48 49 358
492 2 2 5 6 358 359 48
493 2 2 5 6 49 50 357
494 2 2 5 6 357 358 49
495 2 2 5 6 50 51 356
496 2 2 5 6 356 357 50
497 2 2 5 6 51 52 355
498 2 2 5 6 355 356 51
499 2 2 5 6 52 53 354
500 2 2 5 6 354 355 52
501 2 2 5 6 53 54 353
502 2 2 5 6 353 354 53
503 2 2 5 6 54 55 352
504 2 2 5 6 352 353 54
505 2 2 5 6 55 56 351
506 2 2 5 6 351 352 55
507 2 2 5 6 56 57 350
508 2 2 5 6 350 351 56
509 2 2 5 6 57 58 349
510 2 2 5 6 349 350 57
511 2 2 5 6 58 59 348
512 2 2 5 6 348 349 58
513 2 2 5 6 59 60 347
514 2 2 5 6 347 348 59
515 2 2 5 6 60 61 346
516 2 2 5 6 346 347 60
517 2 2 5 6 61 62 345
518 2 2 5 6 345 346 61
519 2 2 5 6 62 63 344
520 2 2 5 6 344 345 62
521 2 2 5 6 63 64 343
522 2 2 5 6 343 344 63
523 2 2 5 6 64 65 342
524 2 2 5 6 342 343 64
525 2 2 5 6 65 66 341
526 2 2 5 6 341 342 65
527 2 2 5 6 66 67 340
528 2 2 5 6 340 341 66
529 2 2 5 6 67 68 339
530 2 2 5 6 339 340 67
531 2 2 5 6 68 69 338
532 2 2 5 6 338 339 68
533 2 2 5 6 69 70 337
534 2 2 5 6 337 338 69
535 2 2 5 6 70 71 336
536 2 2 5 6 336 337 70
537 2 2 5 6 71 72 335
538 2 2 5 6 335 336 71
539 2 2 5 6 72 73 334
540 2 2 5 6 334 335 72
541 2 2 5 6 73 74 333
542 2 2 5 6 333 334 73
543 2 2 5 6 74 75 332
544 2 2 5 6 332 333 74
545 2 2 5 6 75 76 331
546 2 2 5 6 331 332 75
547 2 2 5 6 76 77 330
548 2 2 5 6 330 331 76
549 2 2 5 6 77 78 329
550 2 2 5 6 329 330 77
551 2 2 5 6 78 79 328
552 2 2 5 6 328 329 78
553 2 2 5 6 79 80 327
554 2 2 5 6 327 328 79
555 2 2 5 6 80 81 326
556 2 2 5 6 326 327 80
557 2 2 5 6 81 82 325
558 2 2 5 6 325 326 81
559 2 2 5 6 82 83 324
560 2 2 5 6 324 325 82
561 2 2 5 6 83 84 323
562 2 2 5 6 323 324 83
563 2 2 5 6 84 85 322
564 2 2 5 6 322 323 84
565 2 2 5 6 85 86 321
566 2 2 5 6 321 322 85
567 2 2 5 6 86 87 320
568 2 2 5 6 320 321 86
569 2 2 5 6 87 88 319
570 2 2 5 6 319 320 87
571 2 2 5 6 88 89 318
572 2 2 5 6 318 319 88
573 2 2 5 6 89 90 317
574 2 2 5 6 317 318 89
575 2 2 5 6 90 91 316
576 2 2 5 6 316 317 90
577 2 2 5 6 91 92 315
578 2 2 5 6 315 316 91
579 2 2 5 6 92 93 314
580 2 2 5 6 314 315 92
581 2 2 5 6 93 94 313
582 2 2 5 6 313 314 93
583 2 2 5 6 94 95 312
584 2 2 5 6 312 313 94
585 2 2 5 6 95 96 311
586 2 2 5 6 311 312 95
587 2 2 5 6 96 97 310
588 2 2 5 6 310 311 96
589 2 2 5 6 97 98 309
590 2 2 5 6 309 310 97
591 2 2 5 6 98 99 308
592 2 2 5 6 308 309 98
593 2 2 5 6 99 100 307
594 2 2 5 6 307 308 99
595 2 2 5 6 100 101 306
596 2 2 5 6 306 307 100
597 2 2 5 6 101 102 305
598 2 2 5 6 305 306 101
599 2 2 5 6 102 103 304
600 2 2 5 6 304 305 102
601 2 2 5 6 103 104 303
602 2 2 5 6 303 304 103
603 2 2 5 6 104 105 302
604 2 2 5 6 302 303 104
605 2 2 5 6 105 106 301
606 2 2 5 6 301 302 105
607 2 2 5 6 106 107 300
608 2 2 5 6 300 301 106
609 2 2 5 6 107 108 299
610 2 2 5 6 299 300 107
611 2 2 5 6 108 109 298
612 2 2 5 6 298 299 108
613 2 2 5 6 109 110 297
614 2 2 5 6 297 298 109
615 2 2 5 6 110 111 296
616 2 2 5 6 296 297 110
617 2 2 5 6 111 112 295
618 2 2 5 6 295 296 111
619 2 2 5 6 112 113 294
620 2 2 5 6 294 295 112
621 2 2 5 6 113 114 293
622 2 2 5 6 293 294 113
623 2 2 5 6 114 115 292
624 2 2 5 6 292 293 114
625 2 2 5 6 115 116 291
626 2 2 5 6 291 292 115
627 2 2 5 6 116 117 290
628 2 2 5 6 290 291 116
629 2 2 5 6 117 118 289
630 2 2 5 6 289 290 117
631 2 2 5 6 118 119 288
632 2 2 5 6 288 289 118
633 2 2 5 6 119 120 287
634 2 2 5 6 287 288 119
635 2 2 5 6 120 121 286
636 2 2 5 6 286 287 120
637 2 2 5 6 121 122 285
638 2 2 5 6 285 286 121
639 2 2 5 6 122 123 284
640 2 2 5 6 284 285 122
641 2 2 5 6 123 124 283
642 2 2 5 6 283 284 123
643 2 2 5 6 124 125 282
644 2 2 5 6 282 283 124
645 2 2 5 6 125 126 281
646 2 2 5 6 281 282 125
647 2 2 5 6 126 127 280
648 2 2 5 6 280 281 126
649 2 2 5 6 127 128 279
650 2 2 5 6 279 280 127
651 2 2 5 6 128 129 278
652 2 2 5 6 278 279 128
653 2 2 5 6 129 130 277
654 2 2 5 6 277 278 129
655 2 2 5 6 130 131 276
656 2 2 5 6 276 277 130
657 2 2 5 6 131 132 275
658 2 2 5 6 275 276 131
659 2 2 5 6 132 133 274
660 2 2 5 6 274 275 132
661 2 2 5 6 133 134 273
662 2 2 5 6 273 274 133
663 2 2 5 6 134 135 272
664 2 2 5 6 272 273 134
665 2 2 5 6 135 136 271
666 2 2 5 6 271 272 135
667 2 2 5 6 136 137 270
668 2 2 5 6 270 271 136
669 2 2 5 6 137 138 269
670 2 2 5 6 269 270 137
671 2 2 5 6 138 139 268
672 2 2 5 6 268 269 138
673 2 2 5 6 139 140 267
674 2 2 5 6 267 268 139
675 2 2 5 6 140 141 266
676 2 2 5 6 266 267 140
677 2 2 5 6 141 142 265
678 2 2 5 6 265 266 141
679 2 2 5 6 142 143 264
680 2 2 5 6 264 265 142
681 2 2 5 6 143 144 263
682 2 2 5 6 263 264 143
683 2 2 5 6 144 145 262
684 2 2 5 6 262 263 144
685 2 2 5 6 145 146 261
686 2 2 5 6 261 262 145
687 2 2 5 6 146 147 260
688 2 2 5 6 260 261 146
689 2 2 5 6 147 148 259
690 2 2 5 6 259 260 147
691 2 2 5 6 148 149 258
692 2 2 5 6 258 259 148
693 2 2 5 6 149 150 257
694 2 2 5 6 257 258 149
695 2 2 5 6 150 151 256
696 2 2 5 6 256 257 150
697 2 2 5 6 151 152 255
698 2 2 5 6 255 256 151
699 2 2 5 6 152 153 254
700 2 2 5 6 254 255 152
701 2 2 5 6 153 154 253
702 2 2 5 6 253 254 153
703 2 2 5 6 154 155 252
704 2 2 5 6 252 253 154
705 2 2 5 6 155 156 251
706 2 2 5 6 251 252 155
707 2 2 5 6 156 157 250
708 2 2 5 6 250 251 156
709 2 2 5 6 157 158 249
710 2 2 5 6 249 250 157
711 2 2 5 6 158 159 248
712 2 2 5 6 248 249 158
713 2 2 5 6 159 160 247
714 2 2 5 6 247 248 159
715 2 2 5 6 160 161 246
716 2 2 5 6 246 247 160
717 2 2 5 6 161 162 245
718 2 2 5 6 245 246 161
719 2 2 5 6 162 163 244
720 2 2 5 6 244 245 162
721 2 2 5 6 163 164 243
722 2 2 5 6 243 244 163
723 2 2 5 6 164 165 242
724 2 2 5 6 242 243 164
725 2 2 5 6 165 166 241
726 2 2 5 6 241 242 165
727 2 2 5 6 166 167 240
728 2 2 5 6 240 241 166
729 2 2 5 6 167 168 239
730 2 2 5 6 239 240 167
731 2 2 5 6 168 169 238
732 2 2 5 6 238 239 168
733 2 2 5 6 169 170 237
734 2 2 5 6 237 238 169
735 2 2 5 6 170 171 236
736 2 2 5 6 236 237 170
737 2 2 5 6 171 172 235
738 2 2 5 6 235 236 171
739 2 2 5 6 172 173 234
740 2 2 5 6 234 235 172
741 2 2 5 6 173 174 233
742 2 2 5 6 233 234 173
743 2 2 5 6 174 175 232
744 2 2 5 6 232 233 174
745 2 2 5 6 175 176 231
746 2 2 5 6 231 232 175
747 2 2 5 6 176 177 230
748 2 2 5 6 230 231 176
749 2 2 5 6 177 178 229
750 2 2 5 6 229 230 177
751 2 2 5 6 178 179 228
752 2 2 5 6 228 229 178
753 2 2 5 6 179 180 227
754 2 2 5 6 227 228 179
755 2 2 5 6 180 181 226
756 2 2 5 6 226 227 180
757 2 2 5 6 181 182 225
758 2 2 5 6 225 226 181
759 2 2 5 6 182 183 224
760 2 2 5 6 224 225 182
761 2 2 5 6 183 184 223
762 2 2 5 6 223 224 183
763 2 2 5 6 184 185 222
764 2 2 5 6 222 223 184
765 2 2 5 6 185 186 221
766 2 2 5 6 221 222 185
767 2 2 5 6 186 187 220
768 2 2 5 6 220 221 186
769 2 2 5 6 187 188 219
770 2 2 5 6 219 220 187
771 2 2 5 6 188 189 218
772 2 2 5 6 218 219 188
773 2 2 5 6 189 190 217
774 2 2 5 6 217 218 189
775 2 2 5 6 190 191 216
776 2 2 5 6 216 217 190
777 2 2 5 6 191 192 215
778 2 2 5 6 215 216 191
779 2 2 5 6 192 193 214
780 2 2 5 6 214 215 192
781 2 2 5 6 193 194 213
782 2 2 5 6 213 214 193
783 2 2 5 6 194 195 212
784 2 2 5 6 212 213 194
785 2 2 5 6 195 196 211
786 2 2 5 6 211 212 195
787 2 2 5 6 196 197 210
788 2 2 5 6 210 211 196
789 2 2 5 6 197 198 209
790 2 2 5 6 209 210 197
791 2 2 5 6 198 199 208
792 2 2 5 6 208 209 198
793 2 2 5 6 199 200 207
794 2 2 5 6 207 208 199
795 2 2 5 6 200 201 206
796 2 2 5 6 206 207 200
797 2 2 5 6 201 202 205
798 2 2 5 6 205 206 201
799 2 2 5 6 202 203 204
800 2 2 5 6 204 205 202
801 2 2 5 6 203 2 3
802 2 2 5 6 3 204 203
$EndElements
