$MeshFormat
2.2 0 8
$EndMeshFormat
$PhysicalNames
5
1 1 "bottom wall"
1 2 "right wall"
1 3 "top wall"
1 4 "left wall"
2 5 "air"
$EndPhysicalNames
$Nodes
602
1 0 0 0
2 1 0 0
3 1 0.01 0
4 0 0.01 0
5 0.003333333333327003 0 0
6 0.006666666666654005 0 0
7 0.009999999999981052 0 0
8 0.01333333333330812 0 0
9 0.0166666666666352 0 0
10 0.01999999999996226 0 0
11 0.02333333333328933 0 0
12 0.02666666666661613 0 0
13 0.02999999999994291 0 0
14 0.03333333333326933 0 0
15 0.03666666666659554 0 0
16 0.03999999999992165 0 0
17 0.04333333333324756 0 0
18 0.04666666666657349 0 0
19 0.0499999999998994 0 0
20 0.05333333333322531 0 0
21 0.05666666666655156 0 0
22 0.05999999999987805 0 0
23 0.06333333333320484 0 0
24 0.0666666666665325 0 0
25 0.06999999999986013 0 0
26 0.07333333333318831 0 0
27 0.07666666666651653 0 0
28 0.07999999999984476 0 0
29 0.08333333333317298 0 0
30 0.08666666666650122 0 0
31 0.08999999999982945 0 0
32 0.09333333333315769 0 0
33 0.09666666666648591 0 0
34 0.09999999999981414 0 0
35 0.1033333333331424 0 0
36 0.1066666666664706 0 0
37 0.1099999999997988 0 0
38 0.113333333333127 0 0
39 0.1166666666664553 0 0
40 0.1199999999997825 0 0
41 0.1233333333331096 0 0
42 0.1266666666664355 0 0
43 0.1299999999997603 0 0
44 0.1333333333330848 0 0
45 0.1366666666664084 0 0
46 0.1399999999997321 0 0
47 0.1433333333330557 0 0
48 0.1466666666663793 0 0
49 0.1499999999997029 0 0
50 0.1533333333330265 0 0
51 0.1566666666663501 0 0
52 0.1599999999996737 0 0
53 0.1633333333329973 0 0
54 0.1666666666663209 0 0
55 0.1699999999996445 0 0
56 0.1733333333329681 0 0
57 0.1766666666662917 0 0
58 0.1799999999996153 0 0
59 0.1833333333329389 0 0
60 0.1866666666662625 0 0
61 0.1899999999995861 0 0
62 0.1933333333329097 0 0
63 0.1966666666662333 0 0
64 0.1999999999995569 0 0
65 0.2033333333328805 0 0
66 0.2066666666662041 0 0
67 0.2099999999995277 0 0
68 0.2133333333328513 0 0
69 0.216666666666175 0 0
70 0.2199999999994985 0 0
71 0.2233333333328222 0 0
72 0.2266666666661457 0 0
73 0.2299999999994694 0 0
74 0.2333333333327929 0 0
75 0.2366666666661165 0 0
76 0.2399999999994402 0 0
77 0.2433333333327638 0 0
78 0.2466666666660873 0 0
79 0.2499999999994109 0 0
80 0.2533333333327346 0 0
81 0.2566666666660581 0 0
82 0.2599999999993817 0 0
83 0.2633333333327054 0 0
84 0.266666666666029 0 0
85 0.2699999999993525 0 0
86 0.2733333333326761 0 0
87 0.2766666666659998 0 0
88 0.2799999999993234 0 0
89 0.283333333332647 0 0
90 0.2866666666659706 0 0
91 0.2899999999992942 0 0
92 0.2933333333326178 0 0
93 0.2966666666659414 0 0
94 0.299999999999265 0 0
95 0.3033333333325886 0 0
96 0.3066666666659122 0 0
97 0.3099999999992358 0 0
98 0.3133333333325594 0 0
99 0.316666666665883 0 0
100 0.3199999999992066 0 0
101 0.3233333333325302 0 0
102 0.3266666666658539 0 0
103 0.3299999999991775 0 0
104 0.333333333332501 0 0
105 0.3366666666658247 0 0
106 0.3399999999991483 0 0
107 0.3433333333324718 0 0
108 0.3466666666657954 0 0
109 0.3499999999991191 0 0
110 0.3533333333324427 0 0
111 0.3566666666657662 0 0
112 0.3599999999990899 0 0
113 0.3633333333324135 0 0
114 0.3666666666657371 0 0
115 0.3699999999990606 0 0
116 0.3733333333323843 0 0
117 0.3766666666657079 0 0
118 0.3799999999990315 0 0
119 0.3833333333323551 0 0
120 0.3866666666656787 0 0
121 0.3899999999990023 0 0
122 0.3933333333323259 0 0
123 0.3966666666656495 0 0
124 0.3999999999989731 0 0
125 0.4033333333322967 0 0
126 0.4066666666656203 0 0
127 0.4099999999989439 0 0
128 0.4133333333322675 0 0
129 0.4166666666655911 0 0
130 0.4199999999989147 0 0
131 0.4233333333322383 0 0
132 0.426666666665562 0 0
133 0.4299999999988856 0 0
134 0.4333333333322092 0 0
135 0.4366666666655328 0 0
136 0.4399999999988564 0 0
137 0.4433333333321799 0 0
138 0.4466666666655036 0 0
139 0.4499999999988272 0 0
140 0.4533333333321508 0 0
141 0.4566666666654743 0 0
142 0.459999999998798 0 0
143 0.4633333333321216 0 0
144 0.4666666666654452 0 0
145 0.4699999999987688 0 0
146 0.4733333333320924 0 0
147 0.476666666665416 0 0
148 0.4799999999987396 0 0
149 0.4833333333320632 0 0
150 0.4866666666653868 0 0
151 0.4899999999987104 0 0
152 0.4933333333320356 0 0
153 0.4966666666653639 0 0
154 0.4999999999986921 0 0
155 0.5033333333320297 0 0
156 0.5066666666653671 0 0
157 0.5099999999987076 0 0
158 0.5133333333320497 0 0
159 0.5166666666653918 0 0
160 0.5199999999987339 0 0
161 0.5233333333320761 0 0
162 0.5266666666654183 0 0
163 0.5299999999987604 0 0
164 0.5333333333321025 0 0
165 0.5366666666654446 0 0
166 0.5399999999987867 0 0
167 0.5433333333321289 0 0
168 0.5466666666654709 0 0
169 0.5499999999988131 0 0
170 0.5533333333321553 0 0
171 0.5566666666654974 0 0
172 0.5599999999988394 0 0
173 0.5633333333321816 0 0
174 0.5666666666655237 0 0
175 0.5699999999988659 0 0
176 0.573333333332208 0 0
177 0.5766666666655501 0 0
178 0.5799999999988923 0 0
179 0.5833333333322344 0 0
180 0.5866666666655764 0 0
181 0.5899999999989186 0 0
182 0.5933333333322607 0 0
183 0.5966666666656028 0 0
184 0.599999999998945 0 0
185 0.6033333333322871 0 0
186 0.6066666666656293 0 0
187 0.6099999999989714 0 0
188 0.6133333333323134 0 0
189 0.6166666666656556 0 0
190 0.6199999999989977 0 0
191 0.6233333333323399 0 0
192 0.626666666665682 0 0
193 0.6299999999990241 0 0
194 0.6333333333323662 0 0
195 0.6366666666657084 0 0
196 0.6399999999990504 0 0
197 0.6433333333323925 0 0
198 0.6466666666657348 0 0
199 0.6499999999990769 0 0
200 0.6533333333324191 0 0
201 0.6566666666657611 0 0
202 0.6599999999991032 0 0
203 0.6633333333324454 0 0
204 0.6666666666657874 0 0
205 0.6699999999991295 0 0
206 0.6733333333324718 0 0
207 0.6766666666658139 0 0
208 0.6799999999991559 0 0
209 0.6833333333324981 0 0
210 0.6866666666658402 0 0
211 0.6899999999991824 0 0
212 0.6933333333325244 0 0
213 0.6966666666658666 0 0
214 0.6999999999992088 0 0
215 0.7033333333325509 0 0
216 0.706666666665893 0 0
217 0.7099999999992351 0 0
218 0.7133333333325772 0 0
219 0.7166666666659193 0 0
220 0.7199999999992616 0 0
221 0.7233333333326036 0 0
222 0.7266666666659457 0 0
223 0.7299999999992879 0 0
224 0.73333333333263 0 0
225 0.7366666666659721 0 0
226 0.7399999999993142 0 0
227 0.7433333333326563 0 0
228 0.7466666666659986 0 0
229 0.7499999999993406 0 0
230 0.7533333333326827 0 0
231 0.7566666666660249 0 0
232 0.759999999999367 0 0
233 0.763333333332709 0 0
234 0.7666666666660512 0 0
235 0.7699999999993934 0 0
236 0.7733333333327356 0 0
237 0.7766666666660776 0 0
238 0.7799999999994197 0 0
239 0.7833333333327619 0 0
240 0.786666666666104 0 0
241 0.789999999999446 0 0
242 0.7933333333327883 0 0
243 0.7966666666661304 0 0
244 0.7999999999994725 0 0
245 0.8033333333328146 0 0
246 0.8066666666661567 0 0
247 0.8099999999994988 0 0
248 0.813333333332841 0 0
249 0.816666666666183 0 0
250 0.8199999999995253 0 0
251 0.8233333333328674 0 0
252 0.8266666666662095 0 0
253 0.8299999999995517 0 0
254 0.8333333333328937 0 0
255 0.8366666666662358 0 0
256 0.839999999999578 0 0
257 0.8433333333329202 0 0
258 0.8466666666662622 0 0
259 0.8499999999996044 0 0
260 0.8533333333329465 0 0
261 0.8566666666662887 0 0
262 0.8599999999996307 0 0
263 0.8633333333329728 0 0
264 0.8666666666663151 0 0
265 0.8699999999996572 0 0
266 0.8733333333329992 0 0
267 0.8766666666663414 0 0
268 0.8799999999996835 0 0
269 0.8833333333330255 0 0
270 0.8866666666663677 0 0
271 0.8899999999997099 0 0
272 0.893333333333052 0 0
273 0.8966666666663942 0 0
274 0.8999999999997362 0 0
275 0.9033333333330784 0 0
276 0.9066666666664205 0 0
277 0.9099999999997626 0 0
278 0.9133333333331047 0 0
279 0.9166666666664469 0 0
280 0.919999999999789 0 0
281 0.9233333333331312 0 0
282 0.9266666666664732 0 0
283 0.9299999999998153 0 0
284 0.9333333333331575 0 0
285 0.9366666666664996 0 0
286 0.9399999999998419 0 0
287 0.9433333333331839 0 0
288 0.946666666666526 0 0
289 0.9499999999998682 0 0
290 0.9533333333332102 0 0
291 0.9566666666665523 0 0
292 0.9599999999998945 0 0
293 0.9633333333332367 0 0
294 0.9666666666665787 0 0
295 0.9699999999999209 0 0
296 0.973333333333263 0 0
297 0.9766666666666051 0 0
298 0.9799999999999472 0 0
299 0.9833333333332893 0 0
300 0.9866666666666315 0 0
301 0.9899999999999737 0 0
302 0.9933333333333157 0 0
303 0.9966666666666579 0 0
304 0.9966666666666528 0.01 0
305 0.9933333333333055 0.01 0
306 0.9899999999999584 0.01 0
307 0.9866666666666112 0.01 0
308 0.9833333333332639 0.01 0
309 0.9799999999999167 0.01 0
310 0.9766666666665695 0.01 0
311 0.9733333333332223 0.01 0
312 0.9699999999998751 0.01 0
313 0.9666666666665279 0.01 0
314 0.9633333333331806 0.01 0
315 0.9599999999998334 0.01 0
316 0.9566666666664863 0.01 0
317 0.9533333333331391 0.01 0
318 0.9499999999997918 0.01 0
319 0.9466666666664446 0.01 0
320 0.9433333333330974 0.01 0
321 0.9399999999997501 0.01 0
322 0.936666666666403 0.01 0
323 0.9333333333330558 0.01 0
324 0.9299999999997085 0.01 0
325 0.9266666666663613 0.01 0
326 0.9233333333330142 0.01 0
327 0.9199999999996669 0.01 0
328 0.9166666666663197 0.01 0
329 0.9133333333329725 0.01 0
330 0.9099999999996252 0.01 0
331 0.906666666666278 0.01 0
332 0.9033333333329309 0.01 0
333 0.8999999999995836 0.01 0
334 0.8966666666662364 0.01 0
335 0.8933333333328892 0.01 0
336 0.8899999999995419 0.01 0
337 0.8866666666661948 0.01 0
338 0.8833333333328476 0.01 0
339 0.8799999999995082 0.01 0
340 0.8766666666661702 0.01 0
341 0.8733333333328415 0.01 0
342 0.869999999999522 0.01 0
343 0.866666666666204 0.01 0
344 0.8633333333328937 0.01 0
345 0.8599999999995835 0.01 0
346 0.8566666666662734 0.01 0
347 0.8533333333329631 0.01 0
348 0.849999999999653 0.01 0
349 0.8466666666663428 0.01 0
350 0.8433333333330326 0.01 0
351 0.8399999999997224 0.01 0
352 0.8366666666664122 0.01 0
353 0.833333333333102 0.01 0
354 0.8299999999997918 0.01 0
355 0.8266666666664816 0.01 0
356 0.8233333333331714 0.01 0
357 0.8199999999998612 0.01 0
358 0.816666666666551 0.01 0
359 0.8133333333332408 0.01 0
360 0.8099999999999306 0.01 0
361 0.8066666666666203 0.01 0
362 0.8033333333333101 0.01 0
363 0.8 0.01 0
364 0.7966666666666897 0.01 0
365 0.7933333333333796 0.01 0
366 0.7900000000000694 0.01 0
367 0.7866666666667592 0.01 0
368 0.783333333333449 0.01 0
369 0.7800000000001388 0.01 0
370 0.7766666666668286 0.01 0
371 0.7733333333335184 0.01 0
372 0.7700000000002082 0.01 0
373 0.766666666666898 0.01 0
374 0.7633333333335878 0.01 0
375 0.7600000000002776 0.01 0
376 0.7566666666669674 0.01 0
377 0.7533333333336572 0.01 0
378 0.7500000000003469 0.01 0
379 0.7466666666670367 0.01 0
380 0.7433333333337266 0.01 0
381 0.7400000000004163 0.01 0
382 0.7366666666671062 0.01 0
383 0.7333333333337959 0.01 0
384 0.7300000000004858 0.01 0
385 0.7266666666671755 0.01 0
386 0.7233333333338653 0.01 0
387 0.7200000000005551 0.01 0
388 0.7166666666672449 0.01 0
389 0.7133333333339347 0.01 0
390 0.7100000000006244 0.01 0
391 0.7066666666673143 0.01 0
392 0.7033333333340039 0.01 0
393 0.7000000000006938 0.01 0
394 0.6966666666673835 0.01 0
395 0.6933333333340734 0.01 0
396 0.6900000000007631 0.01 0
397 0.686666666667453 0.01 0
398 0.6833333333341427 0.01 0
399 0.6800000000008326 0.01 0
400 0.6766666666675223 0.01 0
401 0.6733333333342122 0.01 0
402 0.6700000000009019 0.01 0
403 0.6666666666675918 0.01 0
404 0.6633333333342815 0.01 0
405 0.6600000000009714 0.01 0
406 0.656666666667661 0.01 0
407 0.6533333333343508 0.01 0
408 0.6500000000010406 0.01 0
409 0.6466666666677304 0.01 0
410 0.6433333333344202 0.01 0
411 0.6400000000011099 0.01 0
412 0.6366666666677998 0.01 0
413 0.6333333333344895 0.01 0
414 0.6300000000011794 0.01 0
415 0.6266666666678691 0.01 0
416 0.623333333334559 0.01 0
417 0.6200000000012487 0.01 0
418 0.6166666666679386 0.01 0
419 0.6133333333346283 0.01 0
420 0.6100000000013182 0.01 0
421 0.6066666666680078 0.01 0
422 0.6033333333346977 0.01 0
423 0.6000000000013874 0.01 0
424 0.5966666666680773 0.01 0
425 0.593333333334767 0.01 0
426 0.5900000000014568 0.01 0
427 0.5866666666681466 0.01 0
428 0.5833333333348364 0.01 0
429 0.5800000000015262 0.01 0
430 0.576666666668216 0.01 0
431 0.5733333333349058 0.01 0
432 0.5700000000015955 0.01 0
433 0.5666666666682854 0.01 0
434 0.563333333334975 0.01 0
435 0.5600000000016649 0.01 0
436 0.5566666666683546 0.01 0
437 0.5533333333350445 0.01 0
438 0.5500000000017342 0.01 0
439 0.5466666666684241 0.01 0
440 0.5433333333351138 0.01 0
441 0.5400000000018037 0.01 0
442 0.5366666666684934 0.01 0
443 0.5333333333351833 0.01 0
444 0.530000000001873 0.01 0
445 0.5266666666685629 0.01 0
446 0.5233333333352526 0.01 0
447 0.5200000000019424 0.01 0
448 0.5166666666686321 0.01 0
449 0.5133333333353219 0.01 0
450 0.5100000000020117 0.01 0
451 0.5066666666686983 0.01 0
452 0.5033333333353789 0.01 0
453 0.5000000000020595 0.01 0
454 0.4966666666687214 0.01 0
455 0.4933333333353834 0.01 0
456 0.4900000000020395 0.01 0
457 0.4866666666686923 0.01 0
458 0.483333333335345 0.01 0
459 0.4800000000019978 0.01 0
460 0.4766666666686507 0.01 0
461 0.4733333333353035 0.01 0
462 0.4700000000019562 0.01 0
463 0.466666666668609 0.01 0
464 0.4633333333352618 0.01 0
465 0.4600000000019147 0.01 0
466 0.4566666666685674 0.01 0
467 0.4533333333352202 0.01 0
468 0.450000000001873 0.01 0
469 0.4466666666685258 0.01 0
470 0.4433333333351785 0.01 0
471 0.4400000000018314 0.01 0
472 0.4366666666684842 0.01 0
473 0.433333333335137 0.01 0
474 0.4300000000017897 0.01 0
475 0.4266666666684426 0.01 0
476 0.4233333333350954 0.01 0
477 0.4200000000017481 0.01 0
478 0.4166666666684009 0.01 0
479 0.4133333333350537 0.01 0
480 0.4100000000017066 0.01 0
481 0.4066666666683593 0.01 0
482 0.4033333333350121 0.01 0
483 0.4000000000016649 0.01 0
484 0.3966666666683177 0.01 0
485 0.3933333333349704 0.01 0
486 0.3900000000016233 0.01 0
487 0.3866666666682761 0.01 0
488 0.3833333333349289 0.01 0
489 0.3800000000015816 0.01 0
490 0.3766666666682345 0.01 0
491 0.3733333333348872 0.01 0
492 0.37000000000154 0.01 0
493 0.3666666666681927 0.01 0
494 0.3633333333348455 0.01 0
495 0.3600000000014983 0.01 0
496 0.3566666666681511 0.01 0
497 0.3533333333348039 0.01 0
498 0.3500000000014567 0.01 0
499 0.3466666666681095 0.01 0
500 0.3433333333347622 0.01 0
501 0.3400000000014151 0.01 0
502 0.3366666666680679 0.01 0
503 0.3333333333347207 0.01 0
504 0.3300000000013734 0.01 0
505 0.3266666666680262 0.01 0
506 0.3233333333346791 0.01 0
507 0.3200000000013319 0.01 0
508 0.3166666666679846 0.01 0
509 0.3133333333346374 0.01 0
510 0.3100000000012902 0.01 0
511 0.3066666666679431 0.01 0
512 0.3033333333345958 0.01 0
513 0.3000000000012486 0.01 0
514 0.2966666666679014 0.01 0
515 0.2933333333345542 0.01 0
516 0.290000000001207 0.01 0
517 0.2866666666678598 0.01 0
518 0.2833333333345126 0.01 0
519 0.2800000000011653 0.01 0
520 0.2766666666678181 0.01 0
521 0.273333333334471 0.01 0
522 0.2700000000011238 0.01 0
523 0.2666666666677765 0.01 0
524 0.2633333333344293 0.01 0
525 0.2600000000010821 0.01 0
526 0.256666666667735 0.01 0
527 0.2533333333343877 0.01 0
528 0.2500000000010405 0.01 0
529 0.2466666666676933 0.01 0
530 0.2433333333343461 0.01 0
531 0.2400000000009989 0.01 0
532 0.2366666666676517 0.01 0
533 0.2333333333343045 0.01 0
534 0.2300000000009573 0.01 0
535 0.22666666666761 0.01 0
536 0.2233333333342629 0.01 0
537 0.2200000000009157 0.01 0
538 0.2166666666675684 0.01 0
539 0.2133333333342212 0.01 0
540 0.210000000000874 0.01 0
541 0.2066666666675269 0.01 0
542 0.2033333333341796 0.01 0
543 0.2000000000008324 0.01 0
544 0.1966666666674852 0.01 0
545 0.193333333334138 0.01 0
546 0.1900000000007908 0.01 0
547 0.1866666666674436 0.01 0
548 0.1833333333340964 0.01 0
549 0.1800000000007492 0.01 0
550 0.1766666666674019 0.01 0
551 0.1733333333340548 0.01 0
552 0.1700000000007076 0.01 0
553 0.1666666666673604 0.01 0
554 0.1633333333340131 0.01 0
555 0.1600000000006659 0.01 0
556 0.1566666666673188 0.01 0
557 0.1533333333339716 0.01 0
558 0.1500000000006243 0.01 0
559 0.1466666666672771 0.01 0
560 0.1433333333339299 0.01 0
561 0.1400000000005827 0.01 0
562 0.1366666666672355 0.01 0
563 0.1333333333338883 0.01 0
564 0.1300000000005411 0.01 0
565 0.1266666666671938 0.01 0
566 0.1233333333338466 0.01 0
567 0.1200000000004994 0.01 0
568 0.1166666666671522 0.01 0
569 0.1133333333338049 0.01 0
570 0.1100000000004577 0.01 0
571 0.1066666666671106 0.01 0
572 0.1033333333337634 0.01 0
573 0.1000000000004161 0.01 0
574 0.09666666666706891 0.01 0
575 0.09333333333372174 0.01 0
576 0.09000000000037456 0.01 0
577 0.08666666666702727 0.01 0
578 0.08333333333368009 0.01 0
579 0.08000000000033292 0.01 0
580 0.07666666666698574 0.01 0
581 0.07333333333363845 0.01 0
582 0.07000000000029127 0.01 0
583 0.0666666666669441 0.01 0
584 0.06333333333359681 0.01 0
585 0.06000000000024963 0.01 0
586 0.05666666666690245 0.01 0
587 0.05333333333355528 0.01 0
588 0.05000000000020799 0.01 0
589 0.04666666666686081 0.01 0
590 0.04333333333351364 0.01 0
591 0.04000000000016646 0.01 0
592 0.03666666666681917 0.01 0
593 0.03333333333347199 0.01 0
594 0.03000000000012482 0.01 0
595 0.02666666666677764 0.01 0
596 0.02333333333343035 0.01 0
597 0.02000000000008317 0.01 0
598 0.016666666666736 0.01 0
599 0.01333333333338882 0.01 0
600 0.01000000000004153 0.01 0
601 0.006666666666694354 0.01 0
602 0.003333333333347177 0.01 0
$EndNodes
$Elements
1202
1 1 2 1 1 1 5
2 1 2 1 1 5 6
3 1 2 1 1 6 7
4 1 2 1 1 7 8
5 1 2 1 1 8 9
6 1 2 1 1 9 10
7 1 2 1 1 10 11
8 1 2 1 1 11 12
9 1 2 1 1 12 13
10 1 2 1 1 13 14
11 1 2 1 1 14 15
12 1 2 1 1 15 16
13 1 2 1 1 16 17
14 1 2 1 1 17 18
15 1 2 1 1 18 19
16 1 2 1 1 19 20
17 1 2 1 1 20 21
18 1 2 1 1 21 22
19 1 2 1 1 22 23
20 1 2 1 1 23 24
21 1 2 1 1 24 25
22 1 2 1 1 25 26
23 1 2 1 1 26 27
24 1 2 1 1 27 28
25 1 2 1 1 28 29
26 1 2 1 1 29 30
27 1 2 1 1 30 31
28 1 2 1 1 31 32
29 1 2 1 1 32 33
30 1 2 1 1 33 34
31 1 2 1 1 34 35
32 1 2 1 1 35 36
33 1 2 1 1 36 37
34 1 2 1 1 37 38
35 1 2 1 1 38 39
36 1 2 1 1 39 40
37 1 2 1 1 40 41
38 1 2 1 1 41 42
39 1 2 1 1 42 43
40 1 2 1 1 43 44
41 1 2 1 1 44 45
42 1 2 1 1 45 46
43 1 2 1 1 46 47
44 1 2 1 1 47 48
45 1 2 1 1 48 49
46 1 2 1 1 49 50
47 1 2 1 1 50 51
48 1 2 1 1 51 52
49 1 2 1 1 52 53
50 1 2 1 1 53 54
51 1 2 1 1 54 55
52 1 2 1 1 55 56
53 1 2 1 1 56 57
54 1 2 1 1 57 58
55 1 2 1 1 58 59
56 1 2 1 1 59 60
57 1 2 1 1 60 61
58 1 2 1 1 61 62
59 1 2 1 1 62 63
60 1 2 1 1 63 64
61 1 2 1 1 64 65
62 1 2 1 1 65 66
63 1 2 1 1 66 67
64 1 2 1 1 67 68
65 1 2 1 1 68 69
66 1 2 1 1 69 70
67 1 2 1 1 70 71
68 1 2 1 1 71 72
69 1 2 1 1 72 73
70 1 2 1 1 73 74
71 1 2 1 1 74 75
72 1 2 1 1 75 76
73 1 2 1 1 76 77
74 1 2 1 1 77 78
75 1 2 1 1 78 79
76 1 2 1 1 79 80
77 1 2 1 1 80 81
78 1 2 1 1 81 82
79 1 2 1 1 82 83
80 1 2 1 1 83 84
81 1 2 1 1 84 85
82 1 2 1 1 85 86
83 1 2 1 1 86 87
84 1 2 1 1 87 88
85 1 2 1 1 88 89
86 1 2 1 1 89 90
87 1 2 1 1 90 91
88 1 2 1 1 91 92
89 1 2 1 1 92 93
90 1 2 1 1 93 94
91 1 2 1 1 94 95
92 1 2 1 1 95 96
93 1 2 1 1 96 97
94 1 2 1 1 97 98
95 1 2 1 1 98 99
96 1 2 1 1 99 100
97 1 2 1 1 100 101
98 1 2 1 1 101 102
99 1 2 1 1 102 103
100 1 2 1 1 103 104
101 1 2 1 1 104 105
102 1 2 1 1 105 106
103 1 2 1 1 106 107
104 1 2 1 1 107 108
105 1 2 1 1 108 109
106 1 2 1 1 109 110
107 1 2 1 1 110 111
108 1 2 1 1 111 112
109 1 2 1 1 112 113
110 1 2 1 1 113 114
111 1 2 1 1 114 115
112 1 2 1 1 115 116
113 1 2 1 1 116 117
114 1 2 1 1 117 118
115 1 2 1 1 118 119
116 1 2 1 1 119 120
117 1 2 1 1 120 121
118 1 2 1 1 121 122
119 1 2 1 1 122 123
120 1 2 1 1 123 124
121 1 2 1 1 124 125
122 1 2 1 1 125 126
123 1 2 1 1 126 127
124 1 2 1 1 127 128
125 1 2 1 1 128 129
126 1 2 1 1 129 130
127 1 2 1 1 130 131
128 1 2 1 1 131 132
129 1 2 1 1 132 133
130 1 2 1 1 133 134
131 1 2 1 1 134 135
132 1 2 1 1 135 136
133 1 2 1 1 136 137
134 1 2 1 1 137 138
135 1 2 1 1 138 139
136 1 2 1 1 139 140
137 1 2 1 1 140 141
138 1 2 1 1 141 142
139 1 2 1 1 142 143
140 1 2 1 1 143 144
141 1 2 1 1 144 145
142 1 2 1 1 145 146
143 1 2 1 1 146 147
144 1 2 1 1 147 148
145 1 2 1 1 148 149
146 1 2 1 1 149 150
147 1 2 1 1 150 151
148 1 2 1 1 151 152
149 1 2 1 1 152 153
150 1 2 1 1 153 154
151 1 2 1 1 154 155
152 1 2 1 1 155 156
153 1 2 1 1 156 157
154 1 2 1 1 157 158
155 1 2 1 1 158 159
156 1 2 1 1 159 160
157 1 2 1 1 160 161
158 1 2 1 1 161 162
159 1 2 1 1 162 163
160 1 2 1 1 163 164
161 1 2 1 1 164 165
162 1 2 1 1 165 166
163 1 2 1 1 166 167
164 1 2 1 1 167 168
165 1 2 1 1 168 169
166 1 2 1 1 169 170
167 1 2 1 1 170 171
168 1 2 1 1 171 172
169 1 2 1 1 172 173
170 1 2 1 1 173 174
171 1 2 1 1 174 175
172 1 2 1 1 175 176
173 1 2 1 1 176 177
174 1 2 1 1 177 178
175 1 2 1 1 178 179
176 1 2 1 1 179 180
177 1 2 1 1 180 181
178 1 2 1 1 181 182
179 1 2 1 1 182 183
180 1 2 1 1 183 184
181 1 2 1 1 184 185
182 1 2 1 1 185 186
183 1 2 1 1 186 187
184 1 2 1 1 187 188
185 1 2 1 1 188 189
186 1 2 1 1 189 190
187 1 2 1 1 190 191
188 1 2 1 1 191 192
189 1 2 1 1 192 193
190 1 2 1 1 193 194
191 1 2 1 1 194 195
192 1 2 1 1 195 196
193 1 2 1 1 196 197
194 1 2 1 1 197 198
195 1 2 1 1 198 199
196 1 2 1 1 199 200
197 1 2 1 1 200 201
198 1 2 1 1 201 202
199 1 2 1 1 202 203
200 1 2 1 1 203 204
201 1 2 1 1 204 205
202 1 2 1 1 205 206
203 1 2 1 1 206 207
204 1 2 1 1 207 208
205 1 2 1 1 208 209
206 1 2 1 1 209 210
207 1 2 1 1 210 211
208 1 2 1 1 211 212
209 1 2 1 1 212 213
210 1 2 1 1 213 214
211 1 2 1 1 214 215
212 1 2 1 1 215 216
213 1 2 1 1 216 217
214 1 2 1 1 217 218
215 1 2 1 1 218 219
216 1 2 1 1 219 220
217 1 2 1 1 220 221
218 1 2 1 1 221 222
219 1 2 1 1 222 223
220 1 2 1 1 223 224
221 1 2 1 1 224 225
222 1 2 1 1 225 226
223 1 2 1 1 226 227
224 1 2 1 1 227 228
225 1 2 1 1 228 229
226 1 2 1 1 229 230
227 1 2 1 1 230 231
228 1 2 1 1 231 232
229 1 2 1 1 232 233
230 1 2 1 1 233 234
231 1 2 1 1 234 235
232 1 2 1 1 235 236
233 1 2 1 1 236 237
234 1 2 1 1 237 238
235 1 2 1 1 238 239
236 1 2 1 1 239 240
237 1 2 1 1 240 241
238 1 2 1 1 241 242
239 1 2 1 1 242 243
240 1 2 1 1 243 244
241 1 2 1 1 244 245
242 1 2 1 1 245 246
243 1 2 1 1 246 247
244 1 2 1 1 247 248
245 1 2 1 1 248 249
246 1 2 1 1 249 250
247 1 2 1 1 250 251
248 1 2 1 1 251 252
249 1 2 1 1 252 253
250 1 2 1 1 253 254
251 1 2 1 1 254 255
252 1 2 1 1 255 256
253 1 2 1 1 256 257
254 1 2 1 1 257 258
255 1 2 1 1 258 259
256 1 2 1 1 259 260
257 1 2 1 1 260 261
258 1 2 1 1 261 262
259 1 2 1 1 262 263
260 1 2 1 1 263 264
261 1 2 1 1 264 265
262 1 2 1 1 265 266
263 1 2 1 1 266 267
264 1 2 1 1 267 268
265 1 2 1 1 268 269
266 1 2 1 1 269 270
267 1 2 1 1 270 271
268 1 2 1 1 271 272
269 1 2 1 1 272 273
270 1 2 1 1 273 274
271 1 2 1 1 274 275
272 1 2 1 1 275 276
273 1 2 1 1 276 277
274 1 2 1 1 277 278
275 1 2 1 1 278 279
276 1 2 1 1 279 280
277 1 2 1 1 280 281
278 1 2 1 1 281 282
279 1 2 1 1 282 283
280 1 2 1 1 283 284
281 1 2 1 1 284 285
282 1 2 1 1 285 286
283 1 2 1 1 286 287
284 1 2 1 1 287 288
285 1 2 1 1 288 289
286 1 2 1 1 289 290
287 1 2 1 1 290 291
288 1 2 1 1 291 292
289 1 2 1 1 292 293
290 1 2 1 1 293 294
291 1 2 1 1 294 295
292 1 2 1 1 295 296
293 1 2 1 1 296 297
294 1 2 1 1 297 298
295 1 2 1 1 298 299
296 1 2 1 1 299 300
297 1 2 1 1 300 301
298 1 2 1 1 301 302
299 1 2 1 1 302 303
300 1 2 1 1 303 2
301 1 2 2 2 3 2
302 1 2 3 3 3 304
303 1 2 3 3 304 305
304 1 2 3 3 305 306
305 1 2 3 3 306 307
306 1 2 3 3 307 308
307 1 2 3 3 308 309
308 1 2 3 3 309 310
309 1 2 3 3 310 311
310 1 2 3 3 311 312
311 1 2 3 3 312 313
312 1 2 3 3 313 314
313 1 2 3 3 314 315
314 1 2 3 3 315 316
315 1 2 3 3 316 317
316 1 2 3 3 317 318
317 1 2 3 3 318 319
318 1 2 3 3 319 320
319 1 2 3 3 320 321
320 1 2 3 3 321 322
321 1 2 3 3 322 323
322 1 2 3 3 323 324
323 1 2 3 3 324 325
324 1 2 3 3 325 326
325 1 2 3 3 326 327
326 1 2 3 3 327 328
327 1 2 3 3 328 329
328 1 2 3 3 329 330
329 1 2 3 3 330 331
330 1 2 3 3 331 332
331 1 2 3 3 332 333
332 1 2 3 3 333 334
333 1 2 3 3 334 335
334 1 2 3 3 335 336
335 1 2 3 3 336 337
336 1 2 3 3 337 338
337 1 2 3 3 338 339
338 1 2 3 3 339 340
339 1 2 3 3 340 341
340 1 2 3 3 341 342
341 1 2 3 3 342 343
342 1 2 3 3 343 344
343 1 2 3 3 344 345
344 1 2 3 3 345 346
345 1 2 3 3 346 347
346 1 2 3 3 347 348
347 1 2 3 3 348 349
348 1 2 3 3 349 350
349 1 2 3 3 350 351
350 1 2 3 3 351 352
351 1 2 3 3 352 353
352 1 2 3 3 353 354
353 1 2 3 3 354 355
354 1 2 3 3 355 356
355 1 2 3 3 356 357
356 1 2 3 3 357 358
357 1 2 3 3 358 359
358 1 2 3 3 359 360
359 1 2 3 3 360 361
360 1 2 3 3 361 362
361 1 2 3 3 362 363
362 1 2 3 3 363 364
363 1 2 3 3 364 365
364 1 2 3 3 365 366
365 1 2 3 3 366 367
366 1 2 3 3 367 368
367 1 2 3 3 368 369
368 1 2 3 3 369 370
369 1 2 3 3 370 371
370 1 2 3 3 371 372
371 1 2 3 3 372 373
372 1 2 3 3 373 374
373 1 2 3 3 374 375
374 1 2 3 3 375 376
375 1 2 3 3 376 377
376 1 2 3 3 377 378
377 1 2 3 3 378 379
378 1 2 3 3 379 380
379 1 2 3 3 380 381
380 1 2 3 3 381 382
381 1 2 3 3 382 383
382 1 2 3 3 383 384
383 1 2 3 3 384 385
384 1 2 3 3 385 386
385 1 2 3 3 386 387
386 1 2 3 3 387 388
387 1 2 3 3 388 389
388 1 2 3 3 389 390
389 1 2 3 3 390 391
390 1 2 3 3 391 392
391 1 2 3 3 392 393
392 1 2 3 3 393 394
393 1 2 3 3 394 395
394 1 2 3 3 395 396
395 1 2 3 3 396 397
396 1 2 3 3 397 398
397 1 2 3 3 398 399
398 1 2 3 3 399 400
399 1 2 3 3 400 401
400 1 2 3 3 401 402
401 1 2 3 3 402 403
402 1 2 3 3 403 404
403 1 2 3 3 404 405
404 1 2 3 3 405 406
405 1 2 3 3 406 407
406 1 2 3 3 407 408
407 1 2 3 3 408 409
408 1 2 3 3 409 410
409 1 2 3 3 410 411
410 1 2 3 3 411 412
411 1 2 3 3 412 413
412 1 2 3 3 413 414
413 1 2 3 3 414 415
414 1 2 3 3 415 416
415 1 2 3 3 416 417
416 1 2 3 3 417 418
417 1 2 3 3 418 419
418 1 2 3 3 419 420
419 1 2 3 3 420 421
420 1 2 3 3 421 422
421 1 2 3 3 422 423
422 1 2 3 3 423 424
423 1 2 3 3 424 425
424 1 2 3 3 425 426
425 1 2 3 3 426 427
426 1 2 3 3 427 428
427 1 2 3 3 428 429
428 1 2 3 3 429 430
429 1 2 3 3 430 431
430 1 2 3 3 431 432
431 1 2 3 3 432 433
432 1 2 3 3 433 434
433 1 2 3 3 434 435
434 1 2 3 3 435 436
435 1 2 3 3 436 437
436 1 2 3 3 437 438
437 1 2 3 3 438 439
438 1 2 3 3 439 440
439 1 2 3 3 440 441
440 1 2 3 3 441 442
441 1 2 3 3 442 443
442 1 2 3 3 443 444
443 1 2 3 3 444 445
444 1 2 3 3 445 446
445 1 2 3 3 446 447
446 1 2 3 3 447 448
447 1 2 3 3 448 449
448 1 2 3 3 449 450
449 1 2 3 3 450 451
450 1 2 3 3 451 452
451 1 2 3 3 452 453
452 1 2 3 3 453 454
453 1 2 3 3 454 455
454 1 2 3 3 455 456
455 1 2 3 3 456 457
456 1 2 3 3 457 458
457 1 2 3 3 458 459
458 1 2 3 3 459 460
459 1 2 3 3 460 461
460 1 2 3 3 461 462
461 1 2 3 3 462 463
462 1 2 3 3 463 464
463 1 2 3 3 464 465
464 1 2 3 3 465 466
465 1 2 3 3 466 467
466 1 2 3 3 467 468
467 1 2 3 3 468 469
468 1 2 3 3 469 470
469 1 2 3 3 470 471
470 1 2 3 3 471 472
471 1 2 3 3 472 473
472 1 2 3 3 473 474
473 1 2 3 3 474 475
474 1 2 3 3 475 476
475 1 2 3 3 476 477
476 1 2 3 3 477 478
477 1 2 3 3 478 479
478 1 2 3 3 479 480
479 1 2 3 3 480 481
480 1 2 3 3 481 482
481 1 2 3 3 482 483
482 1 2 3 3 483 484
483 1 2 3 3 484 485
484 1 2 3 3 485 486
485 1 2 3 3 486 487
486 1 2 3 3 487 488
487 1 2 3 3 488 489
488 1 2 3 3 489 490
489 1 2 3 3 490 491
490 1 2 3 3 491 492
491 1 2 3 3 492 493
492 1 2 3 3 493 494
493 1 2 3 3 494 495
494 1 2 3 3 495 496
495 1 2 3 3 496 497
496 1 2 3 3 497 498
497 1 2 3 3 498 499
498 1 2 3 3 499 500
499 1 2 3 3 500 501
500 1 2 3 3 501 502
501 1 2 3 3 502 503
502 1 2 3 3 503 504
503 1 2 3 3 504 505
504 1 2 3 3 505 506
505 1 2 3 3 506 507
506 1 2 3 3 507 508
507 1 2 3 3 508 509
508 1 2 3 3 509 510
509 1 2 3 3 510 511
510 1 2 3 3 511 512
511 1 2 3 3 512 513
512 1 2 3 3 513 514
513 1 2 3 3 514 515
514 1 2 3 3 515 516
515 1 2 3 3 516 517
516 1 2 3 3 517 518
517 1 2 3 3 518 519
518 1 2 3 3 519 520
519 1 2 3 3 520 521
520 1 2 3 3 521 522
521 1 2 3 3 522 523
522 1 2 3 3 523 524
523 1 2 3 3 524 525
524 1 2 3 3 525 526
525 1 2 3 3 526 527
526 1 2 3 3 527 528
527 1 2 3 3 528 529
528 1 2 3 3 529 530
529 1 2 3 3 530 531
530 1 2 3 3 531 532
531 1 2 3 3 532 533
532 1 2 3 3 533 534
533 1 2 3 3 534 535
534 1 2 3 3 535 536
535 1 2 3 3 536 537
536 1 2 3 3 537 538
537 1 2 3 3 538 539
538 1 2 3 3 539 540
539 1 2 3 3 540 541
540 1 2 3 3 541 542
541 1 2 3 3 542 543
542 1 2 3 3 543 544
543 1 2 3 3 544 545
544 1 2 3 3 545 546
545 1 2 3 3 546 547
546 1 2 3 3 547 548
547 1 2 3 3 548 549
548 1 2 3 3 549 550
549 1 2 3 3 550 551
550 1 2 3 3 551 552
551 1 2 3 3 552 553
552 1 2 3 3 553 554
553 1 2 3 3 554 555
554 1 2 3 3 555 556
555 1 2 3 3 556 557
556 1 2 3 3 557 558
557 1 2 3 3 558 559
558 1 2 3 3 559 560
559 1 2 3 3 560 561
560 1 2 3 3 561 562
561 1 2 3 3 562 563
562 1 2 3 3 563 564
563 1 2 3 3 564 565
564 1 2 3 3 565 566
565 1 2 3 3 566 567
566 1 2 3 3 567 568
567 1 2 3 3 568 569
568 1 2 3 3 569 570
569 1 2 3 3 570 571
570 1 2 3 3 571 572
571 1 2 3 3 572 573
572 1 2 3 3 573 574
573 1 2 3 3 574 575
574 1 2 3 3 575 576
575 1 2 3 3 576 577
576 1 2 3 3 577 578
577 1 2 3 3 578 579
578 1 2 3 3 579 580
579 1 2 3 3 580 581
580 1 2 3 3 581 582
581 1 2 3 3 582 583
582 1 2 3 3 583 584
583 1 2 3 3 584 585
584 1 2 3 3 585 586
585 1 2 3 3 586 587
586 1 2 3 3 587 588
587 1 2 3 3 588 589
588 1 2 3 3 589 590
589 1 2 3 3 590 591
590 1 2 3 3 591 592
591 1 2 3 3 592 593
592 1 2 3 3 593 594
593 1 2 3 3 594 595
594 1 2 3 3 595 596
595 1 2 3 3 596 597
596 1 2 3 3 597 598
597 1 2 3 3 598 599
598 1 2 3 3 599 600
599 1 2 3 3 600 601
600 1 2 3 3 601 602
601 1 2 3 3 602 4
602 1 2 4 4 4 1
603 2 2 5 6 1 5 602
604 2 2 5 6 602 4 1
605 2 2 5 6 5 6 601
606 2 2 5 6 601 602 5
607 2 2 5 6 6 7 600
608 2 2 5 6 600 601 6
609 2 2 5 6 7 8 599
610 2 2 5 6 599 600 7
611 2 2 5 6 8 9 598
612 2 2 5 6 598 599 8
613 2 2 5 6 9 10 597
614 2 2 5 6 597 598 9
615 2 2 5 6 10 11 596
616 2 2 5 6 596 597 10
617 2 2 5 6 11 12 595
618 2 2 5 6 595 596 11
619 2 2 5 6 12 13 594
620 2 2 5 6 594 595 12
621 2 2 5 6 13 14 593
622 2 2 5 6 593 594 13
623 2 2 5 6 14 15 592
624 2 2 5 6 592 593 14
625 2 2 5 6 15 16 591
626 2 2 5 6 591 592 15
627 2 2 5 6 16 17 590
628 2 2 5 6 590 591 16
629 2 2 5 6 17 18 589
630 2 2 5 6 589 590 17
631 2 2 5 6 18 19 588
632 2 2 5 6 588 589 18
633 2 2 5 6 19 20 587
634 2 2 5 6 587 588 19
635 2 2 5 6 20 21 586
636 2 2 5 6 586 587 20
637 2 2 5 6 21 22 585
638 2 2 5 6 585 586 21
639 2 2 5 6 22 23 584
640 2 2 5 6 584 585 22
641 2 2 5 6 23 24 583
642 2 2 5 6 583 584 23
643 2 2 5 6 24 25 582
644 2 2 5 6 582 583 24
645 2 2 5 6 25 26 581
646 2 2 5 6 581 582 25
647 2 2 5 6 26 27 580
648 2 2 5 6 580 581 26
649 2 2 5 6 27 28 579
650 2 2 5 6 579 580 27
651 2 2 5 6 28 29 578
652 2 2 5 6 578 579 28
653 2 2 5 6 29 30 577
654 2 2 5 6 577 578 29
655 2 2 5 6 30 31 576
656 2 2 5 6 576 577 30
657 2 2 5 6 31 32 575
658 2 2 5 6 575 576 31
659 2 2 5 6 32 33 574
660 2 2 5 6 574 575 32
661 2 2 5 6 33 34 573
662 2 2 5 6 573 574 33
663 2 2 5 6 34 35 572
664 2 2 5 6 572 573 34
665 2 2 5 6 35 36 571
666 2 2 5 6 571 572 35
667 2 2 5 6 36 37 570
668 2 2 5 6 570 571 36
669 2 2 5 6 37 38 569
670 2 2 5 6 569 570 37
671 2 2 5 6 38 39 568
672 2 2 5 6 568 569 38
673 2 2 5 6 39 40 567
674 2 2 5 6 567 568 39
675 2 2 5 6 40 41 566
676 2 2 5 6 566 567 40
677 2 2 5 6 41 42 565
678 2 2 5 6 565 566 41
679 2 2 5 6 42 43 564
680 2 2 5 6 564 565 42
681 2 2 5 6 43 44 563
682 2 2 5 6 563 564 43
683 2 2 5 6 44 45 562
684 2 2 5 6 562 563 44
685 2 2 5 6 45 46 561
686 2 2 5 6 561 562 45
687 2 2 5 6 46 47 560
688 2 2 5 6 560 561 46
689 2 2 5 6 47 48 559
690 2 2 5 6 559 560 47
691 2 2 5 6 48 49 558
692 2 2 5 6 558 559 48
693 2 2 5 6 49 50 557
694 2 2 5 6 557 558 49
695 2 2 5 6 50 51 556
696 2 2 5 6 556 557 50
697 2 2 5 6 51 52 555
698 2 2 5 6 555 556 51
699 2 2 5 6 52 53 554
700 2 2 5 6 554 555 52
701 2 2 5 6 53 54 553
702 2 2 5 6 553 554 53
703 2 2 5 6 54 55 552
704 2 2 5 6 552 553 54
705 2 2 5 6 55 56 551
706 2 2 5 6 551 552 55
707 2 2 5 6 56 57 550
708 2 2 5 6 550 551 56
709 2 2 5 6 57 58 549
710 2 2 5 6 549 550 57
711 2 2 5 6 58 59 548
712 2 2 5 6 548 549 58
713 2 2 5 6 59 60 547
714 2 2 5 6 547 548 59
715 2 2 5 6 60 61 546
716 2 2 5 6 546 547 60
717 2 2 5 6 61 62 545
718 2 2 5 6 545 546 61
719 2 2 5 6 62 63 544
720 2 2 5 6 544 545 62
721 2 2 5 6 63 64 543
722 2 2 5 6 543 544 63
723 2 2 5 6 64 65 542
724 2 2 5 6 542 543 64
725 2 2 5 6 65 66 541
726 2 2 5 6 541 542 65
727 2 2 5 6 66 67 540
728 2 2 5 6 540 541 66
729 2 2 5 6 67 68 539
730 2 2 5 6 539 540 67
731 2 2 5 6 68 69 538
732 2 2 5 6 538 539 68
733 2 2 5 6 69 70 537
734 2 2 5 6 537 538 69
735 2 2 5 6 70 71 536
736 2 2 5 6 536 537 70
737 2 2 5 6 71 72 535
738 2 2 5 6 535 536 71
739 2 2 5 6 72 73 534
740 2 2 5 6 534 535 72
741 2 2 5 6 73 74 533
742 2 2 5 6 533 534 73
743 2 2 5 6 74 75 532
744 2 2 5 6 532 533 74
745 2 2 5 6 75 76 531
746 2 2 5 6 531 532 75
747 2 2 5 6 76 77 530
748 2 2 5 6 530 531 76
749 2 2 5 6 77 78 529
750 2 2 5 6 529 530 77
751 2 2 5 6 78 79 528
752 2 2 5 6 528 529 78
753 2 2 5 6 79 80 527
754 2 2 5 6 527 528 79
755 2 2 5 6 80 81 526
756 2 2 5 6 526 527 80
757 2 2 5 6 81 82 525
758 2 2 5 6 525 526 81
759 2 2 5 6 82 83 524
760 2 2 5 6 524 525 82
761 2 2 5 6 83 84 523
762 2 2 5 6 523 524 83
763 2 2 5 6 84 85 522
764 2 2 5 6 522 523 84
765 2 2 5 6 85 86 521
766 2 2 5 6 521 522 85
767 2 2 5 6 86 87 520
768 2 2 5 6 520 521 86
769 2 2 5 6 87 88 519
770 2 2 5 6 519 520 87
771 2 2 5 6 88 89 518
772 2 2 5 6 518 519 88
773 2 2 5 6 89 90 517
774 2 2 5 6 517 518 89
775 2 2 5 6 90 91 516
776 2 2 5 6 516 517 90
777 2 2 5 6 91 92 515
778 2 2 5 6 515 516 91
779 2 2 5 6 92 93 514
780 2 2 5 6 514 515 92
781 2 2 5 6 93 94 513
782 2 2 5 6 513 514 93
783 2 2 5 6 94 95 512
784 2 2 5 6 512 513 94
785 2 2 5 6 95 96 511
786 2 2 5 6 511 512 95
787 2 2 5 6 96 97 510
788 2 2 5 6 510 511 96
789 2 2 5 6 97 98 509
790 2 2 5 6 509 510 97
791 2 2 5 6 98 99 508
792 2 2 5 6 508 509 98
793 2 2 5 6 99 100 507
794 2 2 5 6 507 508 99
795 2 2 5 6 100 101 506
796 2 2 5 6 506 507 100
797 2 2 5 6 101 102 505
798 2 2 5 6 505 506 101
799 2 2 5 6 102 103 504
800 2 2 5 6 504 505 102
801 2 2 5 6 103 104 503
802 2 2 5 6 503 504 103
803 2 2 5 6 104 105 502
804 2 2 5 6 502 503 104
805 2 2 5 6 105 106 501
806 2 2 5 6 501 502 105
807 2 2 5 6 106 107 500
808 2 2 5 6 500 501 106
809 2 2 5 6 107 108 499
810 2 2 5 6 499 500 107
811 2 2 5 6 108 109 498
812 2 2 5 6 498 499 108
813 2 2 5 6 109 110 497
814 2 2 5 6 497 498 109
815 2 2 5 6 110 111 496
816 2 2 5 6 496 497 110
817 2 2 5 6 111 112 495
818 2 2 5 6 495 496 111
819 2 2 5 6 112 113 494
820 2 2 5 6 494 495 112
821 2 2 5 6 113 114 493
822 2 2 5 6 493 494 113
823 2 2 5 6 114 115 492
824 2 2 5 6 492 493 114
825 2 2 5 6 115 116 491
826 2 2 5 6 491 492 115
827 2 2 5 6 116 117 490
828 2 2 5 6 490 491 116
829 2 2 5 6 117 118 489
830 2 2 5 6 489 490 117
831 2 2 5 6 118 119 488
832 2 2 5 6 488 489 118
833 2 2 5 6 119 120 487
834 2 2 5 6 487 488 119
835 2 2 5 6 120 121 486
836 2 2 5 6 486 487 120
837 2 2 5 6 121 122 485
838 2 2 5 6 485 486 121
839 2 2 5 6 122 123 484
840 2 2 5 6 484 485 122
841 2 2 5 6 123 124 483
842 2 2 5 6 483 484 123
843 2 2 5 6 124 125 482
844 2 2 5 6 482 483 124
845 2 2 5 6 125 126 481
846 2 2 5 6 481 482 125
847 2 2 5 6 126 127 480
848 2 2 5 6 480 481 126
849 2 2 5 6 127 128 479
850 2 2 5 6 479 480 127
851 2 2 5 6 128 129 478
852 2 2 5 6 478 479 128
853 2 2 5 6 129 130 477
854 2 2 5 6 477 478 129
855 2 2 5 6 130 131 476
856 2 2 5 6 476 477 130
857 2 2 5 6 131 132 475
858 2 2 5 6 475 476 131
859 2 2 5 6 132 133 474
860 2 2 5 6 474 475 132
861 2 2 5 6 133 134 473
862 2 2 5 6 473 474 133
863 2 2 5 6 134 135 472
864 2 2 5 6 472 473 134
865 2 2 5 6 135 136 471
866 2 2 5 6 471 472 135
867 2 2 5 6 136 137 470
868 2 2 5 6 470 471 136
869 2 2 5 6 137 138 469
870 2 2 5 6 469 470 137
871 2 2 5 6 138 139 468
872 2 2 5 6 468 469 138
873 2 2 5 6 139 140 467
874 2 2 5 6 467 468 139
875 2 2 5 6 140 141 466
876 2 2 5 6 466 467 140
877 2 2 5 6 141 142 465
878 2 2 5 6 465 466 141
879 2 2 5 6 142 143 464
880 2 2 5 6 464 465 142
881 2 2 5 6 143 144 463
882 2 2 5 6 463 464 143
883 2 2 5 6 144 145 462
884 2 2 5 6 462 463 144
885 2 2 5 6 145 146 461
886 2 2 5 6 461 462 145
887 2 2 5 6 146 147 460
888 2 2 5 6 460 461 146
889 2 2 5 6 147 148 459
890 2 2 5 6 459 460 147
891 2 2 5 6 148 149 458
892 2 2 5 6 458 459 148
893 2 2 5 6 149 150 457
894 2 2 5 6 457 458 149
895 2 2 5 6 150 151 456
896 2 2 5 6 456 457 150
897 2 2 5 6 151 152 455
898 2 2 5 6 455 456 151
899 2 2 5 6 152 153 454
900 2 2 5 6 454 455 152
901 2 2 5 6 153 154 453
902 2 2 5 6 453 454 153
903 2 2 5 6 154 155 452
904 2 2 5 6 452 453 154
905 2 2 5 6 155 156 451
906 2 2 5 6 451 452 155
907 2 2 5 6 156 157 450
908 2 2 5 6 450 451 156
909 2 2 5 6 157 158 449
910 2 2 5 6 449 450 157
911 2 2 5 6 158 159 448
912 2 2 5 6 448 449 158
913 2 2 5 6 159 160 447
914 2 2 5 6 447 448 159
915 2 2 5 6 160 161 446
916 2 2 5 6 446 447 160
917 2 2 5 6 161 162 445
918 2 2 5 6 445 446 161
919 2 2 5 6 162 163 444
920 2 2 5 6 444 445 162
921 2 2 5 6 163 164 443
922 2 2 5 6 443 444 163
923 2 2 5 6 164 165 442
924 2 2 5 6 442 443 164
925 2 2 5 6 165 166 441
926 2 2 5 6 441 442 165
927 2 2 5 6 166 167 440
928 2 2 5 6 440 441 166
929 2 2 5 6 167 168 439
930 2 2 5 6 439 440 167
931 2 2 5 6 168 169 438
932 2 2 5 6 438 439 168
933 2 2 5 6 169 170 437
934 2 2 5 6 437 438 169
935 2 2 5 6 170 171 436
936 2 2 5 6 436 437 170
937 2 2 5 6 171 172 435
938 2 2 5 6 435 436 171
939 2 2 5 6 172 173 434
940 2 2 5 6 434 435 172
941 2 2 5 6 173 174 433
942 2 2 5 6 433 434 173
943 2 2 5 6 174 175 432
944 2 2 5 6 432 433 174
945 2 2 5 6 175 176 431
946 2 2 5 6 431 432 175
947 2 2 5 6 176 177 430
948 2 2 5 6 430 431 176
949 2 2 5 6 177 178 429
950 2 2 5 6 429 430 177
951 2 2 5 6 178 179 428
952 2 2 5 6 428 429 178
953 2 2 5 6 179 180 427
954 2 2 5 6 427 428 179
955 2 2 5 6 180 181 426
956 2 2 5 6 426 427 180
957 2 2 5 6 181 182 425
958 2 2 5 6 425 426 181
959 2 2 5 6 182 183 424
960 2 2 5 6 424 425 182
961 2 2 5 6 183 184 423
962 2 2 5 6 423 424 183
963 2 2 5 6 184 185 422
964 2 2 5 6 422 423 184
965 2 2 5 6 185 186 421
966 2 2 5 6 421 422 185
967 2 2 5 6 186 187 420
968 2 2 5 6 420 421 186
969 2 2 5 6 187 188 419
970 2 2 5 6 419 420 187
971 2 2 5 6 188 189 418
972 2 2 5 6 418 419 188
973 2 2 5 6 189 190 417
974 2 2 5 6 417 418 189
975 2 2 5 6 190 191 416
976 2 2 5 6 416 417 190
977 2 2 5 6 191 192 415
978 2 2 5 6 415 416 191
979 2 2 5 6 192 193 414
980 2 2 5 6 414 415 192
981 2 2 5 6 193 194 413
982 2 2 5 6 413 414 193
983 2 2 5 6 194 195 412
984 2 2 5 6 412 413 194
985 2 2 5 6 195 196 411
986 2 2 5 6 411 412 195
987 2 2 5 6 196 197 410
988 2 2 5 6 410 411 196
989 2 2 5 6 197 198 409
990 2 2 5 6 409 410 197
991 2 2 5 6 198 199 408
992 2 2 5 6 408 409 198
993 2 2 5 6 199 200 407
994 2 2 5 6 407 408 199
995 2 2 5 6 200 201 406
996 2 2 5 6 406 407 200
997 2 2 5 6 201 202 405
998 2 2 5 6 405 406 201
999 2 2 5 6 202 203 404
1000 2 2 5 6 404 405 202
1001 2 2 5 6 203 204 403
1002 2 2 5 6 403 404 203
1003 2 2 5 6 204 205 402
1004 2 2 5 6 402 403 204
1005 2 2 5 6 205 206 401
1006 2 2 5 6 401 402 205
1007 2 2 5 6 206 207 400
1008 2 2 5 6 400 401 206
1009 2 2 5 6 207 208 399
1010 2 2 5 6 399 400 207
1011 2 2 5 6 208 209 398
1012 2 2 5 6 398 399 208
1013 2 2 5 6 209 210 397
1014 2 2 5 6 397 398 209
1015 2 2 5 6 210 211 396
1016 2 2 5 6 396 397 210
1017 2 2 5 6 211 212 395
1018 2 2 5 6 395 396 211
1019 2 2 5 6 212 213 394
1020 2 2 5 6 394 395 212
1021 2 2 5 6 213 214 393
1022 2 2 5 6 393 394 213
1023 2 2 5 6 214 215 392
1024 2 2 5 6 392 393 214
1025 2 2 5 6 215 216 391
1026 2 2 5 6 391 392 215
1027 2 2 5 6 216 217 390
1028 2 2 5 6 390 391 216
1029 2 2 5 6 217 218 389
1030 2 2 5 6 389 390 217
1031 2 2 5 6 218 219 388
1032 2 2 5 6 388 389 218
1033 2 2 5 6 219 220 387
1034 2 2 5 6 387 388 219
1035 2 2 5 6 220 221 386
1036 2 2 5 6 386 387 220
1037 2 2 5 6 221 222 385
1038 2 2 5 6 385 386 221
1039 2 2 5 6 222 223 384
1040 2 2 5 6 384 385 222
1041 2 2 5 6 223 224 383
1042 2 2 5 6 383 384 223
1043 2 2 5 6 224 225 382
1044 2 2 5 6 382 383 224
1045 2 2 5 6 225 226 381
1046 2 2 5 6 381 382 225
1047 2 2 5 6 226 227 380
1048 2 2 5 6 380 381 226
1049 2 2 5 6 227 228 379
1050 2 2 5 6 379 380 227
1051 2 2 5 6 228 229 378
1052 2 2 5 6 378 379 228
1053 2 2 5 6 229 230 377
1054 2 2 5 6 377 378 229
1055 2 2 5 6 230 231 376
1056 2 2 5 6 376 377 230
1057 2 2 5 6 231 232 375
1058 2 2 5 6 375 376 231
1059 2 2 5 6 232 233 374
1060 2 2 5 6 374 375 232
1061 2 2 5 6 233 234 373
1062 2 2 5 6 373 374 233
1063 2 2 5 6 234 235 372
1064 2 2 5 6 372 373 234
1065 2 2 5 6 235 236 371
1066 2 2 5 6 371 372 235
1067 2 2 5 6 236 237 370
1068 2 2 5 6 370 371 236
1069 2 2 5 6 237 238 369
1070 2 2 5 6 369 370 237
1071 2 2 5 6 238 239 368
1072 2 2 5 6 368 369 238
1073 2 2 5 6 239 240 367
1074 2 2 5 6 367 368 239
1075 2 2 5 6 240 241 366
1076 2 2 5 6 366 367 240
1077 2 2 5 6 241 242 365
1078 2 2 5 6 365 366 241
1079 2 2 5 6 242 243 364
1080 2 2 5 6 364 365 242
1081 2 2 5 6 243 244 363
1082 2 2 5 6 363 364 243
1083 2 2 5 6 244 245 362
1084 2 2 5 6 362 363 244
1085 2 2 5 6 245 246 361
1086 2 2 5 6 361 362 245
1087 2 2 5 6 246 247 360
1088 2 2 5 6 360 361 246
1089 2 2 5 6 247 248 359
1090 2 2 5 6 359 360 247
1091 2 2 5 6 248 249 358
1092 2 2 5 6 358 359 248
1093 2 2 5 6 249 250 357
1094 2 2 5 6 357 358 249
1095 2 2 5 6 250 251 356
1096 2 2 5 6 356 357 250
1097 2 2 5 6 251 252 355
1098 2 2 5 6 355 356 251
1099 2 2 5 6 252 253 354
1100 2 2 5 6 354 355 252
1101 2 2 5 6 253 254 353
1102 2 2 5 6 353 354 253
1103 2 2 5 6 254 255 352
1104 2 2 5 6 352 353 254
1105 2 2 5 6 255 256 351
1106 2 2 5 6 351 352 255
1107 2 2 5 6 256 257 350
1108 2 2 5 6 350 351 256
1109 2 2 5 6 257 258 349
1110 2 2 5 6 349 350 257
1111 2 2 5 6 258 259 348
1112 2 2 5 6 348 349 258
1113 2 2 5 6 259 260 347
1114 2 2 5 6 347 348 259
1115 2 2 5 6 260 261 346
1116 2 2 5 6 346 347 260
1117 2 2 5 6 261 262 345
1118 2 2 5 6 345 346 261
1119 2 2 5 6 262 263 344
1120 2 2 5 6 344 345 262
1121 2 2 5 6 263 264 343
1122 2 2 5 6 343 344 263
1123 2 2 5 6 264 265 342
1124 2 2 5 6 342 343 264
1125 2 2 5 6 265 266 341
1126 2 2 5 6 341 342 265
1127 2 2 5 6 266 267 340
1128 2 2 5 6 340 341 266
1129 2 2 5 6 267 268 339
1130 2 2 5 6 339 340 267
1131 2 2 5 6 268 269 338
1132 2 2 5 6 338 339 268
1133 2 2 5 6 269 270 337
1134 2 2 5 6 337 338 269
1135 2 2 5 6 270 271 336
1136 2 2 5 6 336 337 270
1137 2 2 5 6 271 272 335
1138 2 2 5 6 335 336 271
1139 2 2 5 6 272 273 334
1140 2 2 5 6 334 335 272
1141 2 2 5 6 273 274 333
1142 2 2 5 6 333 334 273
1143 2 2 5 6 274 275 332
1144 2 2 5 6 332 333 274
1145 2 2 5 6 275 276 331
1146 2 2 5 6 331 332 275
1147 2 2 5 6 276 277 330
1148 2 2 5 6 330 331 276
1149 2 2 5 6 277 278 329
1150 2 2 5 6 329 330 277
1151 2 2 5 6 278 279 328
1152 2 2 5 6 328 329 278
1153 2 2 5 6 279 280 327
1154 2 2 5 6 327 328 279
1155 2 2 5 6 280 281 326
1156 2 2 5 6 326 327 280
1157 2 2 5 6 281 282 325
1158 2 2 5 6 325 326 281
1159 2 2 5 6 282 283 324
1160 2 2 5 6 324 325 282
1161 2 2 5 6 283 284 323
1162 2 2 5 6 323 324 283
1163 2 2 5 6 284 285 322
1164 2 2 5 6 322 323 284
1165 2 2 5 6 285 286 321
1166 2 2 5 6 321 322 285
1167 2 2 5 6 286 287 320
1168 2 2 5 6 320 321 286
1169 2 2 5 6 287 288 319
1170 2 2 5 6 319 320 287
1171 2 2 5 6 288 289 318
1172 2 2 5 6 318 319 288
1173 2 2 5 6 289 290 317
1174 2 2 5 6 317 318 289
1175 2 2 5 6 290 291 316
1176 2 2 5 6 316 317 290
1177 2 2 5 6 291 292 315
1178 2 2 5 6 315 316 291
1179 2 2 5 6 292 293 314
1180 2 2 5 6 314 315 292
1181 2 2 5 6 293 294 313
1182 2 2 5 6 313 314 293
1183 2 2 5 6 294 295 312
1184 2 2 5 6 312 313 294
1185 2 2 5 6 295 296 311
1186 2 2 5 6 311 312 295
1187 2 2 5 6 296 297 310
1188 2 2 5 6 310 311 296
1189 2 2 5 6 297 298 309
1190 2 2 5 6 309 310 297
1191 2 2 5 6 298 299 308
1192 2 2 5 6 308 309 298
1193 2 2 5 6 299 300 307
1194 2 2 5 6 307 308 299
1195 2 2 5 6 300 301 306
1196 2 2 5 6 306 307 300
1197 2 2 5 6 301 302 305
1198 2 2 5 6 305 306 301
1199 2 2 5 6 302 303 304
1200 2 2 5 6 304 305 302
1201 2 2 5 6 303 2 3
1202 2 2 5 6 3 304 303
$EndElements
