$MeshFormat
2.2 0 8
$EndMeshFormat
$PhysicalNames
5
1 1 "bottom wall"
1 2 "right wall"
1 3 "top wall"
1 4 "left wall"
2 5 "air"
$EndPhysicalNames
$Nodes
220
1 0 0 0
2 1.02 0 0
3 1.02 0.0635 0
4 0 0.0635 0
5 0.01961539632764303 0 0
6 0.03923075983434209 0 0
7 0.05884616216387258 0 0
8 0.07846154056728968 0 0
9 0.09807691407728092 0 0
10 0.117692319015984 0 0
11 0.1373076894827299 0 0
12 0.156923072093335 0 0
13 0.1765384722269683 0 0
14 0.1961538355144644 0 0
15 0.2157692302875747 0 0
16 0.2353846215016921 0 0
17 0.2549999852343583 0 0
18 0.2746153901748999 0 0
19 0.2942307676339883 0 0
20 0.3138461415341113 0 0
21 0.3334615469197904 0 0
22 0.3530769154593436 0 0
23 0.3726923015219867 0 0
24 0.3923076997284555 0 0
25 0.4119230634629572 0 0
26 0.4315384586262263 0 0
27 0.4511538488960329 0 0
28 0.4707692152397015 0 0
29 0.4903846204062223 0 0
30 0.5099999999986509 0 0
31 0.5296153795911734 0 0
32 0.5492307847577933 0 0
33 0.5688461511015591 0 0
34 0.5884615413714844 0 0
35 0.608076936534877 0 0
36 0.6276923002694779 0 0
37 0.647307698476066 0 0
38 0.6669230845388073 0 0
39 0.6865384530784618 0 0
40 0.7061538584642517 0 0
41 0.7257692323644878 0 0
42 0.745384609823711 0 0
43 0.7650000147643508 0 0
44 0.7846153784971165 0 0
45 0.8042307697113674 0 0
46 0.8238461644845835 0 0
47 0.8434615277721891 0 0
48 0.8630769279059244 0 0
49 0.882692310516635 0 0
50 0.9023076809834859 0 0
51 0.9219230859222586 0 0
52 0.9415384594323404 0 0
53 0.9611538378358521 0 0
54 0.9807692401654693 0 0
55 1.000384603672255 0 0
56 1.02 0.04762500002955312 0
57 1.02 0.03175000000007829 0
58 1.02 0.01587499997051769 0
59 1.000384603672355 0.0635 0
60 0.9807692401656719 0.0635 0
61 0.9611538378361395 0.0635 0
62 0.9415384594327091 0.0635 0
63 0.9219230859227235 0.0635 0
64 0.9023076809840127 0.0635 0
65 0.8826923105172726 0.0635 0
66 0.8630769279066928 0.0635 0
67 0.8434615277730667 0.0635 0
68 0.8238461644855728 0.0635 0
69 0.8042307697124511 0.0635 0
70 0.7846153784983307 0.0635 0
71 0.7650000147656593 0.0635 0
72 0.7453846098251182 0.0635 0
73 0.7257692323660334 0.0635 0
74 0.70615385846589 0.0635 0
75 0.6865384530802202 0.0635 0
76 0.6669230845406602 0.0635 0
77 0.6473076984780297 0.0635 0
78 0.6276923002715659 0.0635 0
79 0.6080769365370491 0.0635 0
80 0.5884615413737786 0.0635 0
81 0.5688461511039675 0.0635 0
82 0.5492307847603347 0.0635 0
83 0.5296153795937961 0.0635 0
84 0.5100000000013576 0.0635 0
85 0.4903846204088348 0.0635 0
86 0.4707692152422145 0.0635 0
87 0.4511538488984483 0.0635 0
88 0.4315384586285227 0.0635 0
89 0.4119230634651299 0.0635 0
90 0.3923076997305287 0.0635 0
91 0.3726923015239403 0.0635 0
92 0.3530769154611985 0.0635 0
93 0.3334615469215437 0.0635 0
94 0.3138461415357534 0.0635 0
95 0.2942307676355173 0.0635 0
96 0.2746153901762934 0.0635 0
97 0.2549999852356535 0.0635 0
98 0.2353846215028875 0.0635 0
99 0.2157692302886361 0.0635 0
100 0.1961538355154198 0.0635 0
101 0.1765384722278139 0.0635 0
102 0.1569230720940783 0.0635 0
103 0.1373076894833672 0.0635 0
104 0.117692319016516 0.0635 0
105 0.0980769140777431 0.0635 0
106 0.07846154056766086 0.0635 0
107 0.05884616216414906 0.0635 0
108 0.03923075983453139 0.0635 0
109 0.01961539632774567 0.0635 0
110 0 0.04762500002955312 0
111 0 0.03175000000007829 0
112 0 0.01587499997051769 0
113 0.01301915423750534 0.05234024800462034 0
114 0.01453973486046881 0.0396875000148157 0
115 0.01075410222105658 0.02205628972528341 0
116 0.02484668462939308 0.01916924341764058 0
117 0.04860148719396375 0.02522443573503858 0
118 0.0718502493226697 0.02253950120746026 0
119 0.08826922732228529 0.01698741459660968 0
120 0.1078846165466325 0.0169874208370591 0
121 0.1275000010598818 0.02478750978406605 0
122 0.1471153807880324 0.01698741263448258 0
123 0.1667307694000482 0.02478751034549176 0
124 0.1896153828026909 0.02246667885536384 0
125 0.2059615329010195 0.01698741200054812 0
126 0.2255769214607674 0.02478750924587623 0
127 0.2451923033680252 0.01698741916338518 0
128 0.2648076877046289 0.0169874151926459 0
129 0.2844230744707258 0.02478750897452642 0
130 0.3040384545840495 0.0169874141570144 0
131 0.323653844226951 0.01698742119133329 0
132 0.3432692284299055 0.02478750976994866 0
133 0.3628846084906652 0.01698741251833469 0
134 0.3824999974363495 0.02478751019696424 0
135 0.4053846107195017 0.0224666789054388 0
136 0.4217307610445921 0.01698741237125586 0
137 0.4413461496450515 0.02478750908769825 0
138 0.4609615320678667 0.01698741937191829 0
139 0.4805769178229624 0.01698741676534515 0
140 0.5001923065501352 0.02478750865051275 0
141 0.5198076897949131 0.01698741703195196 0
142 0.5394230821744821 0.01698742441460341 0
143 0.5590384658026352 0.02478751023406372 0
144 0.5786538462365224 0.01698741246513224 0
145 0.5982692351633793 0.02478750989041813 0
146 0.6211538481866017 0.02246667896640066 0
147 0.6374999993727715 0.01698741324984021 0
148 0.6571153872701232 0.02478750906207636 0
149 0.6767307688086353 0.01698741757689753 0
150 0.6963461557713556 0.01698741809649203 0
151 0.715961541425541 0.0247875092610064 0
152 0.7355769210940992 0.01698741312973505 0
153 0.7551923122940311 0.01698742311771241 0
154 0.774807694670359 0.02478751012007888 0
155 0.7944230741042422 0.01698741123027213 0
156 0.8140384631088998 0.02478750956907515 0
157 0.8369230761956548 0.02246667903807149 0
158 0.8532692278390576 0.01698741354808903 0
159 0.8728846149734546 0.02478750904548489 0
160 0.8924999957500598 0.01698741614020043 0
161 0.9121153834528738 0.01698741908012097 0
162 0.9317307688867256 0.02478744251023014 0
163 0.9546153821318184 0.0224454627661616 0
164 0.9709615390006604 0.01698742290915872 0
165 0.9910795606617642 0.01914560608319724 0
166 1.009501497164141 0.02287912121077356 0
167 1.006570363258545 0.03860776173832899 0
168 0.9915788702354194 0.04821671331046175 0
169 0.9716435112379856 0.04004390083099552 0
170 0.9487354553671821 0.04346489858514502 0
171 0.9317307726777143 0.0465125854034829 0
172 0.9153846146124489 0.04363333632709891 0
173 0.892967031357443 0.03941546685120434 0
174 0.8729780225189491 0.04754311023850186 0
175 0.8537496061908847 0.04075675538365599 0
176 0.8336538461293179 0.04651257581544467 0
177 0.8140384635083262 0.04896253124662439 0
178 0.7944230762989486 0.04278293279375019 0
179 0.7748076966319956 0.04651258083661539 0
180 0.7584615415471234 0.04363334717059792 0
181 0.7360439577097008 0.03941546836028949 0
182 0.7160549491480444 0.04754311128599162 0
183 0.6996309544502484 0.04380510165175439 0
184 0.6772000279186553 0.03944000483841207 0
185 0.6572092395164534 0.04754801755191693 0
186 0.637980441642836 0.04075745651846908 0
187 0.6178846184043071 0.04651257679904943 0
188 0.5982692355434776 0.04896253151708366 0
189 0.5786538482270162 0.04278293298402527 0
190 0.5590384679321511 0.04651258062808788 0
191 0.5426923116768294 0.04363334724660174 0
192 0.5202747257138012 0.0394154686159587 0
193 0.5002857140999308 0.04754311057037341 0
194 0.4838617176990681 0.04380510133560143 0
195 0.4614307907341567 0.03944000487077579 0
196 0.4414400017906011 0.04754801725338859 0
197 0.422211203841604 0.04075745659624647 0
198 0.4021153815978297 0.04651257855594382 0
199 0.3824999977562434 0.04896253182125467 0
200 0.3628846106192721 0.04278293303255386 0
201 0.3432692311913713 0.04651258242310281 0
202 0.32692307448186 0.04363334718397589 0
203 0.3045054908343945 0.03941546833958789 0
204 0.2845164821645809 0.04754311083928064 0
205 0.2680924871868589 0.04380510131967202 0
206 0.2456615617649404 0.03944000481304358 0
207 0.2256707735838519 0.04754801718696303 0
208 0.2064419757748575 0.040757456599857 0
209 0.1863461538716168 0.04651257891024783 0
210 0.166730769676456 0.0489625318985965 0
211 0.1471153829551254 0.04278293318231785 0
212 0.1275000042499416 0.04651258385979795 0
213 0.1111538470455695 0.04363334742851792 0
214 0.0891928923212094 0.03909432441322511 0
215 0.0659984654281655 0.04339513974109414 0
216 0.04903846099934021 0.04651257709084091 0
217 0.03094063999931219 0.0473887399787329 0
218 1.008764323595773 0.01053924674785803 0
219 1.007706767433264 0.05228989501566877 0
220 0.01069022564367653 0.01042507615485134 0
$EndNodes
$Elements
438
1 1 2 1 1 1 5
2 1 2 1 1 5 6
3 1 2 1 1 6 7
4 1 2 1 1 7 8
5 1 2 1 1 8 9
6 1 2 1 1 9 10
7 1 2 1 1 10 11
8 1 2 1 1 11 12
9 1 2 1 1 12 13
10 1 2 1 1 13 14
11 1 2 1 1 14 15
12 1 2 1 1 15 16
13 1 2 1 1 16 17
14 1 2 1 1 17 18
15 1 2 1 1 18 19
16 1 2 1 1 19 20
17 1 2 1 1 20 21
18 1 2 1 1 21 22
19 1 2 1 1 22 23
20 1 2 1 1 23 24
21 1 2 1 1 24 25
22 1 2 1 1 25 26
23 1 2 1 1 26 27
24 1 2 1 1 27 28
25 1 2 1 1 28 29
26 1 2 1 1 29 30
27 1 2 1 1 30 31
28 1 2 1 1 31 32
29 1 2 1 1 32 33
30 1 2 1 1 33 34
31 1 2 1 1 34 35
32 1 2 1 1 35 36
33 1 2 1 1 36 37
34 1 2 1 1 37 38
35 1 2 1 1 38 39
36 1 2 1 1 39 40
37 1 2 1 1 40 41
38 1 2 1 1 41 42
39 1 2 1 1 42 43
40 1 2 1 1 43 44
41 1 2 1 1 44 45
42 1 2 1 1 45 46
43 1 2 1 1 46 47
44 1 2 1 1 47 48
45 1 2 1 1 48 49
46 1 2 1 1 49 50
47 1 2 1 1 50 51
48 1 2 1 1 51 52
49 1 2 1 1 52 53
50 1 2 1 1 53 54
51 1 2 1 1 54 55
52 1 2 1 1 55 2
53 1 2 2 2 3 56
54 1 2 2 2 56 57
55 1 2 2 2 57 58
56 1 2 2 2 58 2
57 1 2 3 3 3 59
58 1 2 3 3 59 60
59 1 2 3 3 60 61
60 1 2 3 3 61 62
61 1 2 3 3 62 63
62 1 2 3 3 63 64
63 1 2 3 3 64 65
64 1 2 3 3 65 66
65 1 2 3 3 66 67
66 1 2 3 3 67 68
67 1 2 3 3 68 69
68 1 2 3 3 69 70
69 1 2 3 3 70 71
70 1 2 3 3 71 72
71 1 2 3 3 72 73
72 1 2 3 3 73 74
73 1 2 3 3 74 75
74 1 2 3 3 75 76
75 1 2 3 3 76 77
76 1 2 3 3 77 78
77 1 2 3 3 78 79
78 1 2 3 3 79 80
79 1 2 3 3 80 81
80 1 2 3 3 81 82
81 1 2 3 3 82 83
82 1 2 3 3 83 84
83 1 2 3 3 84 85
84 1 2 3 3 85 86
85 1 2 3 3 86 87
86 1 2 3 3 87 88
87 1 2 3 3 88 89
88 1 2 3 3 89 90
89 1 2 3 3 90 91
90 1 2 3 3 91 92
91 1 2 3 3 92 93
92 1 2 3 3 93 94
93 1 2 3 3 94 95
94 1 2 3 3 95 96
95 1 2 3 3 96 97
96 1 2 3 3 97 98
97 1 2 3 3 98 99
98 1 2 3 3 99 100
99 1 2 3 3 100 101
100 1 2 3 3 101 102
101 1 2 3 3 102 103
102 1 2 3 3 103 104
103 1 2 3 3 104 105
104 1 2 3 3 105 106
105 1 2 3 3 106 107
106 1 2 3 3 107 108
107 1 2 3 3 108 109
108 1 2 3 3 109 4
109 1 2 4 4 4 110
110 1 2 4 4 110 111
111 1 2 4 4 111 112
112 1 2 4 4 112 1
113 2 2 5 6 6 7 117
114 2 2 5 6 60 61 169
115 2 2 5 6 7 8 118
116 2 2 5 6 61 62 170
117 2 2 5 6 42 43 153
118 2 2 5 6 96 97 205
119 2 2 5 6 85 86 194
120 2 2 5 6 31 32 142
121 2 2 5 6 20 21 131
122 2 2 5 6 74 75 183
123 2 2 5 6 107 108 216
124 2 2 5 6 53 54 164
125 2 2 5 6 63 64 172
126 2 2 5 6 9 10 120
127 2 2 5 6 93 94 202
128 2 2 5 6 39 40 150
129 2 2 5 6 12 13 123
130 2 2 5 6 66 67 175
131 2 2 5 6 50 51 161
132 2 2 5 6 104 105 213
133 2 2 5 6 71 72 180
134 2 2 5 6 17 18 128
135 2 2 5 6 23 24 134
136 2 2 5 6 77 78 186
137 2 2 5 6 82 83 191
138 2 2 5 6 28 29 139
139 2 2 5 6 88 89 197
140 2 2 5 6 34 35 145
141 2 2 5 6 99 100 208
142 2 2 5 6 45 46 156
143 2 2 5 6 69 70 178
144 2 2 5 6 15 16 126
145 2 2 5 6 80 81 189
146 2 2 5 6 26 27 137
147 2 2 5 6 47 48 158
148 2 2 5 6 101 102 210
149 2 2 5 6 37 38 148
150 2 2 5 6 91 92 200
151 2 2 5 6 48 49 159
152 2 2 5 6 102 103 211
153 2 2 5 6 90 91 199
154 2 2 5 6 36 37 147
155 2 2 5 6 18 19 129
156 2 2 5 6 72 73 181
157 2 2 5 6 40 41 151
158 2 2 5 6 94 95 203
159 2 2 5 6 83 84 192
160 2 2 5 6 29 30 140
161 2 2 5 6 21 22 132
162 2 2 5 6 75 76 184
163 2 2 5 6 105 106 214
164 2 2 5 6 51 52 162
165 2 2 5 6 32 33 143
166 2 2 5 6 86 87 195
167 2 2 5 6 64 65 173
168 2 2 5 6 10 11 121
169 2 2 5 6 43 44 154
170 2 2 5 6 97 98 206
171 2 2 5 6 54 55 165
172 2 2 5 6 25 26 136
173 2 2 5 6 79 80 188
174 2 2 5 6 68 69 177
175 2 2 5 6 14 15 125
176 2 2 5 6 13 14 124
177 2 2 5 6 67 68 176
178 2 2 5 6 24 25 135
179 2 2 5 6 78 79 187
180 2 2 5 6 35 36 146
181 2 2 5 6 89 90 198
182 2 2 5 6 46 47 157
183 2 2 5 6 100 101 209
184 2 2 5 6 98 99 207
185 2 2 5 6 44 45 155
186 2 2 5 6 87 88 196
187 2 2 5 6 33 34 144
188 2 2 5 6 16 17 127
189 2 2 5 6 70 71 179
190 2 2 5 6 81 82 190
191 2 2 5 6 27 28 138
192 2 2 5 6 22 23 133
193 2 2 5 6 76 77 185
194 2 2 5 6 38 39 149
195 2 2 5 6 92 93 201
196 2 2 5 6 11 12 122
197 2 2 5 6 65 66 174
198 2 2 5 6 103 104 212
199 2 2 5 6 49 50 160
200 2 2 5 6 84 85 193
201 2 2 5 6 30 31 141
202 2 2 5 6 52 53 163
203 2 2 5 6 106 107 215
204 2 2 5 6 8 9 119
205 2 2 5 6 62 63 171
206 2 2 5 6 41 42 152
207 2 2 5 6 95 96 204
208 2 2 5 6 73 74 182
209 2 2 5 6 19 20 130
210 2 2 5 6 109 113 217
211 2 2 5 6 108 109 217
212 2 2 5 6 7 118 117
213 2 2 5 6 61 170 169
214 2 2 5 6 113 114 217
215 2 2 5 6 8 119 118
216 2 2 5 6 62 171 170
217 2 2 5 6 32 143 142
218 2 2 5 6 86 195 194
219 2 2 5 6 43 154 153
220 2 2 5 6 97 206 205
221 2 2 5 6 21 132 131
222 2 2 5 6 75 184 183
223 2 2 5 6 64 173 172
224 2 2 5 6 10 121 120
225 2 2 5 6 105 214 213
226 2 2 5 6 51 162 161
227 2 2 5 6 40 151 150
228 2 2 5 6 94 203 202
229 2 2 5 6 54 165 164
230 2 2 5 6 83 192 191
231 2 2 5 6 29 140 139
232 2 2 5 6 13 124 123
233 2 2 5 6 67 176 175
234 2 2 5 6 18 129 128
235 2 2 5 6 72 181 180
236 2 2 5 6 24 135 134
237 2 2 5 6 78 187 186
238 2 2 5 6 35 146 145
239 2 2 5 6 89 198 197
240 2 2 5 6 100 209 208
241 2 2 5 6 46 157 156
242 2 2 5 6 85 194 193
243 2 2 5 6 31 142 141
244 2 2 5 6 82 191 190
245 2 2 5 6 28 139 138
246 2 2 5 6 70 179 178
247 2 2 5 6 16 127 126
248 2 2 5 6 93 202 201
249 2 2 5 6 39 150 149
250 2 2 5 6 71 180 179
251 2 2 5 6 17 128 127
252 2 2 5 6 48 159 158
253 2 2 5 6 102 211 210
254 2 2 5 6 81 190 189
255 2 2 5 6 27 138 137
256 2 2 5 6 50 161 160
257 2 2 5 6 104 213 212
258 2 2 5 6 20 131 130
259 2 2 5 6 74 183 182
260 2 2 5 6 9 120 119
261 2 2 5 6 63 172 171
262 2 2 5 6 42 153 152
263 2 2 5 6 96 205 204
264 2 2 5 6 37 148 147
265 2 2 5 6 91 200 199
266 2 2 5 6 47 158 157
267 2 2 5 6 101 210 209
268 2 2 5 6 107 216 215
269 2 2 5 6 53 164 163
270 2 2 5 6 90 199 198
271 2 2 5 6 36 147 146
272 2 2 5 6 12 123 122
273 2 2 5 6 66 175 174
274 2 2 5 6 38 149 148
275 2 2 5 6 92 201 200
276 2 2 5 6 23 134 133
277 2 2 5 6 77 186 185
278 2 2 5 6 68 177 176
279 2 2 5 6 14 125 124
280 2 2 5 6 79 188 187
281 2 2 5 6 25 136 135
282 2 2 5 6 33 144 143
283 2 2 5 6 87 196 195
284 2 2 5 6 80 189 188
285 2 2 5 6 26 137 136
286 2 2 5 6 98 207 206
287 2 2 5 6 44 155 154
288 2 2 5 6 69 178 177
289 2 2 5 6 15 126 125
290 2 2 5 6 88 197 196
291 2 2 5 6 34 145 144
292 2 2 5 6 99 208 207
293 2 2 5 6 45 156 155
294 2 2 5 6 103 212 211
295 2 2 5 6 49 160 159
296 2 2 5 6 22 133 132
297 2 2 5 6 76 185 184
298 2 2 5 6 84 193 192
299 2 2 5 6 30 141 140
300 2 2 5 6 11 122 121
301 2 2 5 6 65 174 173
302 2 2 5 6 73 182 181
303 2 2 5 6 19 130 129
304 2 2 5 6 106 215 214
305 2 2 5 6 52 163 162
306 2 2 5 6 41 152 151
307 2 2 5 6 95 204 203
308 2 2 5 6 4 113 109
309 2 2 5 6 2 218 55
310 2 2 5 6 3 59 219
311 2 2 5 6 1 5 220
312 2 2 5 6 110 111 114
313 2 2 5 6 57 166 58
314 2 2 5 6 60 169 168
315 2 2 5 6 6 117 116
316 2 2 5 6 55 218 165
317 2 2 5 6 59 60 168
318 2 2 5 6 5 6 116
319 2 2 5 6 111 112 115
320 2 2 5 6 56 167 57
321 2 2 5 6 108 217 216
322 2 2 5 6 165 218 166
323 2 2 5 6 167 219 168
324 2 2 5 6 115 220 116
325 2 2 5 6 59 168 219
326 2 2 5 6 5 116 220
327 2 2 5 6 111 115 114
328 2 2 5 6 57 167 166
329 2 2 5 6 110 114 113
330 2 2 5 6 2 58 218
331 2 2 5 6 4 110 113
332 2 2 5 6 1 220 112
333 2 2 5 6 3 219 56
334 2 2 5 6 58 166 218
335 2 2 5 6 112 220 115
336 2 2 5 6 56 219 167
337 2 2 5 6 114 115 116
338 2 2 5 6 114 116 217
339 2 2 5 6 116 117 217
340 2 2 5 6 117 118 215
341 2 2 5 6 117 215 216
342 2 2 5 6 117 216 217
343 2 2 5 6 118 119 214
344 2 2 5 6 118 214 215
345 2 2 5 6 119 120 214
346 2 2 5 6 120 121 213
347 2 2 5 6 120 213 214
348 2 2 5 6 121 122 211
349 2 2 5 6 121 211 212
350 2 2 5 6 121 212 213
351 2 2 5 6 122 123 211
352 2 2 5 6 123 124 209
353 2 2 5 6 123 209 210
354 2 2 5 6 123 210 211
355 2 2 5 6 124 125 208
356 2 2 5 6 124 208 209
357 2 2 5 6 125 126 208
358 2 2 5 6 126 127 206
359 2 2 5 6 126 206 207
360 2 2 5 6 126 207 208
361 2 2 5 6 127 128 206
362 2 2 5 6 128 129 205
363 2 2 5 6 128 205 206
364 2 2 5 6 129 130 203
365 2 2 5 6 129 203 204
366 2 2 5 6 129 204 205
367 2 2 5 6 130 131 203
368 2 2 5 6 131 132 202
369 2 2 5 6 131 202 203
370 2 2 5 6 132 133 200
371 2 2 5 6 132 200 201
372 2 2 5 6 132 201 202
373 2 2 5 6 133 134 200
374 2 2 5 6 134 135 198
375 2 2 5 6 134 198 199
376 2 2 5 6 134 199 200
377 2 2 5 6 135 136 197
378 2 2 5 6 135 197 198
379 2 2 5 6 136 137 197
380 2 2 5 6 137 138 195
381 2 2 5 6 137 195 196
382 2 2 5 6 137 196 197
383 2 2 5 6 138 139 195
384 2 2 5 6 139 140 194
385 2 2 5 6 139 194 195
386 2 2 5 6 140 141 192
387 2 2 5 6 140 192 193
388 2 2 5 6 140 193 194
389 2 2 5 6 141 142 192
390 2 2 5 6 142 143 191
391 2 2 5 6 142 191 192
392 2 2 5 6 143 144 189
393 2 2 5 6 143 189 190
394 2 2 5 6 143 190 191
395 2 2 5 6 144 145 189
396 2 2 5 6 145 146 187
397 2 2 5 6 145 187 188
398 2 2 5 6 145 188 189
399 2 2 5 6 146 147 186
400 2 2 5 6 146 186 187
401 2 2 5 6 147 148 186
402 2 2 5 6 148 149 184
403 2 2 5 6 148 184 185
404 2 2 5 6 148 185 186
405 2 2 5 6 149 150 184
406 2 2 5 6 150 151 183
407 2 2 5 6 150 183 184
408 2 2 5 6 151 152 181
409 2 2 5 6 151 181 182
410 2 2 5 6 151 182 183
411 2 2 5 6 152 153 181
412 2 2 5 6 153 154 180
413 2 2 5 6 153 180 181
414 2 2 5 6 154 155 178
415 2 2 5 6 154 178 179
416 2 2 5 6 154 179 180
417 2 2 5 6 155 156 178
418 2 2 5 6 156 157 176
419 2 2 5 6 156 176 177
420 2 2 5 6 156 177 178
421 2 2 5 6 157 158 175
422 2 2 5 6 157 175 176
423 2 2 5 6 158 159 175
424 2 2 5 6 159 160 173
425 2 2 5 6 159 173 174
426 2 2 5 6 159 174 175
427 2 2 5 6 160 161 173
428 2 2 5 6 161 162 172
429 2 2 5 6 161 172 173
430 2 2 5 6 162 163 170
431 2 2 5 6 162 170 171
432 2 2 5 6 162 171 172
433 2 2 5 6 163 164 169
434 2 2 5 6 163 169 170
435 2 2 5 6 164 165 169
436 2 2 5 6 165 166 167
437 2 2 5 6 165 167 168
438 2 2 5 6 165 168 169
$EndElements
