Freq(kHz),Re(z),Im(z),|beta|,phase(beta)(deg)
0.000000e+00,9.852295e+00,-6.537677e-15,8.157072e-01,-7.798275e-15
1.001001e-02,9.799100e+00,-7.256051e-01,8.157258e-01,-8.701499e-01
2.002002e-02,9.642658e+00,-1.428963e+00,8.157815e-01,-1.741033e+00
3.003003e-02,9.391955e+00,-2.089952e+00,8.158735e-01,-2.613380e+00
4.004004e-02,9.060583e+00,-2.692285e+00,8.160010e-01,-3.487922e+00
5.005005e-02,8.665030e+00,-3.224536e+00,8.161624e-01,-4.365385e+00
6.006006e-02,8.222857e+00,-3.680389e+00,8.163560e-01,-5.246492e+00
7.007007e-02,7.751099e+00,-4.058229e+00,8.165794e-01,-6.131960e+00
8.008008e-02,7.265084e+00,-4.360290e+00,8.168302e-01,-7.022501e+00
9.009009e-02,6.777740e+00,-4.591617e+00,8.171052e-01,-7.918820e+00
1.001001e-01,6.299328e+00,-4.759030e+00,8.174010e-01,-8.821613e+00
1.101101e-01,5.837504e+00,-4.870235e+00,8.177140e-01,-9.731571e+00
1.201201e-01,5.397595e+00,-4.933136e+00,8.180399e-01,-1.064937e+01
1.301301e-01,4.982962e+00,-4.955349e+00,8.183742e-01,-1.157568e+01
1.401401e-01,4.595402e+00,-4.943908e+00,8.187121e-01,-1.251117e+01
1.501502e-01,4.235517e+00,-4.905099e+00,8.190483e-01,-1.345647e+01
1.601602e-01,3.903039e+00,-4.844413e+00,8.193773e-01,-1.441224e+01
1.701702e-01,3.597099e+00,-4.766549e+00,8.196933e-01,-1.537908e+01
1.801802e-01,3.316431e+00,-4.675476e+00,8.199901e-01,-1.635762e+01
1.901902e-01,3.059535e+00,-4.574498e+00,8.202611e-01,-1.734846e+01
2.002002e-01,2.824792e+00,-4.466343e+00,8.204996e-01,-1.835217e+01
2.102102e-01,2.610550e+00,-4.353240e+00,8.206986e-01,-1.936935e+01
2.202202e-01,2.415178e+00,-4.236994e+00,8.208508e-01,-2.040054e+01
2.302302e-01,2.237106e+00,-4.119059e+00,8.209486e-01,-2.144631e+01
2.402402e-01,2.074847e+00,-4.000592e+00,8.209842e-01,-2.250718e+01
2.502503e-01,1.927008e+00,-3.882509e+00,8.209497e-01,-2.358367e+01
2.602603e-01,1.792301e+00,-3.765526e+00,8.208368e-01,-2.467631e+01
2.702703e-01,1.669539e+00,-3.650194e+00,8.206372e-01,-2.578559e+01
2.802803e-01,1.557635e+00,-3.536934e+00,8.203424e-01,-2.691199e+01
2.902903e-01,1.455596e+00,-3.426058e+00,8.199436e-01,-2.805599e+01
3.003003e-01,1.362520e+00,-3.317791e+00,8.194321e-01,-2.921805e+01
3.103103e-01,1.277588e+00,-3.212288e+00,8.187990e-01,-3.039863e+01
3.203203e-01,1.200057e+00,-3.109648e+00,8.180353e-01,-3.159816e+01
3.303303e-01,1.129254e+00,-3.009926e+00,8.171320e-01,-3.281708e+01
3.403403e-01,1.064570e+00,-2.913139e+00,8.160801e-01,-3.405581e+01
3.503504e-01,1.005454e+00,-2.819279e+00,8.148704e-01,-3.531477e+01
3.603604e-01,9.514072e-01,-2.728314e+00,8.134941e-01,-3.659434e+01
3.703704e-01,9.019789e-01,-2.640195e+00,8.119420e-01,-3.789494e+01
3.803804e-01,8.567606e-01,-2.554863e+00,8.102054e-01,-3.921694e+01
3.903904e-01,8.153827e-01,-2.472245e+00,8.082755e-01,-4.056073e+01
4.004004e-01,7.775102e-01,-2.392265e+00,8.061437e-01,-4.192668e+01
4.104104e-01,7.428399e-01,-2.314839e+00,8.038016e-01,-4.331516e+01
4.204204e-01,7.110966e-01,-2.239883e+00,8.012409e-01,-4.472654e+01
4.304304e-01,6.820307e-01,-2.167308e+00,7.984539e-01,-4.616117e+01
4.404404e-01,6.554159e-01,-2.097027e+00,7.954328e-01,-4.761942e+01
4.504505e-01,6.310463e-01,-2.028951e+00,7.921704e-01,-4.910164e+01
4.604605e-01,6.087350e-01,-1.962994e+00,7.886599e-01,-5.060818e+01
4.704705e-01,5.883119e-01,-1.899070e+00,7.848947e-01,-5.213940e+01
4.804805e-01,5.696225e-01,-1.837096e+00,7.808690e-01,-5.369566e+01
4.904905e-01,5.525258e-01,-1.776988e+00,7.765773e-01,-5.527731e+01
5.005005e-01,5.368936e-01,-1.718669e+00,7.720147e-01,-5.688473e+01
5.105105e-01,5.226089e-01,-1.662061e+00,7.671770e-01,-5.851827e+01
5.205205e-01,5.095651e-01,-1.607090e+00,7.620606e-01,-6.017831e+01
5.305305e-01,4.976648e-01,-1.553683e+00,7.566627e-01,-6.186525e+01
5.405405e-01,4.868192e-01,-1.501773e+00,7.509813e-01,-6.357947e+01
5.505506e-01,4.769471e-01,-1.451292e+00,7.450149e-01,-6.532139e+01
5.605606e-01,4.679745e-01,-1.402176e+00,7.387633e-01,-6.709144e+01
5.705706e-01,4.598335e-01,-1.354365e+00,7.322270e-01,-6.889007e+01
5.805806e-01,4.524621e-01,-1.307799e+00,7.254074e-01,-7.071773e+01
5.905906e-01,4.458037e-01,-1.262423e+00,7.183069e-01,-7.257491e+01
6.006006e-01,4.398063e-01,-1.218182e+00,7.109291e-01,-7.446214e+01
6.106106e-01,4.344224e-01,-1.175025e+00,7.032786e-01,-7.637996e+01
6.206206e-01,4.296086e-01,-1.132903e+00,6.953610e-01,-7.832895e+01
6.306306e-01,4.253250e-01,-1.091767e+00,6.871832e-01,-8.030973e+01
6.406406e-01,4.215352e-01,-1.051574e+00,6.787531e-01,-8.232294e+01
6.506507e-01,4.182058e-01,-1.012279e+00,6.700801e-01,-8.436929e+01
6.606607e-01,4.153061e-01,-9.738421e-01,6.611744e-01,-8.644953e+01
6.706707e-01,4.128083e-01,-9.362230e-01,6.520478e-01,-8.856445e+01
6.806807e-01,4.106865e-01,-8.993841e-01,6.427132e-01,-9.071489e+01
6.906907e-01,4.089175e-01,-8.632892e-01,6.331848e-01,-9.290177e+01
7.007007e-01,4.074796e-01,-8.279037e-01,6.234780e-01,-9.512605e+01
7.107107e-01,4.063534e-01,-7.931945e-01,6.136094e-01,-9.738875e+01
7.207207e-01,4.055208e-01,-7.591300e-01,6.035971e-01,-9.969096e+01
7.307307e-01,4.049654e-01,-7.256798e-01,5.934602e-01,-1.020338e+02
7.407407e-01,4.046724e-01,-6.928150e-01,5.832191e-01,-1.044186e+02
7.507508e-01,4.046282e-01,-6.605076e-01,5.728954e-01,-1.068464e+02
7.607608e-01,4.048202e-01,-6.287311e-01,5.625118e-01,-1.093187e+02
7.707708e-01,4.052374e-01,-5.974599e-01,5.520923e-01,-1.118368e+02
7.807808e-01,4.058695e-01,-5.666696e-01,5.416619e-01,-1.144021e+02
7.907908e-01,4.067073e-01,-5.363366e-01,5.312465e-01,-1.170160e+02
8.008008e-01,4.077426e-01,-5.064384e-01,5.208732e-01,-1.196800e+02
8.108108e-01,4.089678e-01,-4.769535e-01,5.105699e-01,-1.223954e+02
8.208208e-01,4.103763e-01,-4.478609e-01,5.003653e-01,-1.251637e+02
8.308308e-01,4.119623e-01,-4.191408e-01,4.902890e-01,-1.279860e+02
8.408408e-01,4.137203e-01,-3.907740e-01,4.803710e-01,-1.308637e+02
8.508509e-01,4.156460e-01,-3.627420e-01,4.706419e-01,-1.337976e+02
8.608609e-01,4.177352e-01,-3.350271e-01,4.611328e-01,-1.367887e+02
8.708709e-01,4.199846e-01,-3.076121e-01,4.518748e-01,-1.398375e+02
8.808809e-01,4.223913e-01,-2.804806e-01,4.428991e-01,-1.429443e+02
8.908909e-01,4.249528e-01,-2.536167e-01,4.342366e-01,-1.461088e+02
9.009009e-01,4.276674e-01,-2.270051e-01,4.259178e-01,-1.493305e+02
9.109109e-01,4.305335e-01,-2.006310e-01,4.179725e-01,-1.526083e+02
9.209209e-01,4.335502e-01,-1.744802e-01,4.104293e-01,-1.559405e+02
9.309309e-01,4.367169e-01,-1.485388e-01,4.033156e-01,-1.593246e+02
9.409409e-01,4.400333e-01,-1.227936e-01,3.966570e-01,-1.627576e+02
9.509510e-01,4.434996e-01,-9.723172e-02,3.904770e-01,-1.662358e+02
9.609610e-01,4.471164e-01,-7.184064e-02,3.847968e-01,-1.697545e+02
9.709710e-01,4.508846e-01,-4.660830e-02,3.796345e-01,-1.733085e+02
9.809810e-01,4.548053e-01,-2.152302e-02,3.750053e-01,-1.768917e+02
9.909910e-01,4.588802e-01,3.426561e-03,3.709209e-01,1.795026e+02
1.001001e+00,4.631110e-01,2.825143e-02,3.673894e-01,1.758816e+02
1.011011e+00,4.675001e-01,5.296227e-02,3.644150e-01,1.722531e+02
1.021021e+00,4.720499e-01,7.756946e-02,3.619978e-01,1.686252e+02
1.031031e+00,4.767633e-01,1.020831e-01,3.601341e-01,1.650060e+02
1.041041e+00,4.816432e-01,1.265129e-01,3.588163e-01,1.614038e+02
1.051051e+00,4.866932e-01,1.508686e-01,3.580330e-01,1.578266e+02
1.061061e+00,4.919169e-01,1.751593e-01,3.577694e-01,1.542824e+02
1.071071e+00,4.973183e-01,1.993942e-01,3.580076e-01,1.507784e+02
1.081081e+00,5.029018e-01,2.235820e-01,3.587270e-01,1.473213e+02
1.091091e+00,5.086719e-01,2.477315e-01,3.599044e-01,1.439174e+02
1.101101e+00,5.146335e-01,2.718509e-01,3.615150e-01,1.405718e+02
1.111111e+00,5.207919e-01,2.959486e-01,3.635324e-01,1.372892e+02
1.121121e+00,5.271524e-01,3.200325e-01,3.659295e-01,1.340734e+02
1.131131e+00,5.337210e-01,3.441105e-01,3.686782e-01,1.309273e+02
1.141141e+00,5.405038e-01,3.681904e-01,3.717506e-01,1.278532e+02
1.151151e+00,5.475073e-01,3.922795e-01,3.751189e-01,1.248526e+02
1.161161e+00,5.547383e-01,4.163854e-01,3.787556e-01,1.219265e+02
1.171171e+00,5.622039e-01,4.405152e-01,3.826340e-01,1.190751e+02
1.181181e+00,5.699117e-01,4.646760e-01,3.867285e-01,1.162981e+02
1.191191e+00,5.778696e-01,4.888747e-01,3.910144e-01,1.135951e+02
1.201201e+00,5.860858e-01,5.131182e-01,3.954681e-01,1.109649e+02
1.211211e+00,5.945690e-01,5.374131e-01,4.000676e-01,1.084061e+02
1.221221e+00,6.033284e-01,5.617661e-01,4.047918e-01,1.059173e+02
1.231231e+00,6.123734e-01,5.861835e-01,4.096215e-01,1.034966e+02
1.241241e+00,6.217141e-01,6.106716e-01,4.145382e-01,1.011422e+02
1.251251e+00,6.313609e-01,6.352368e-01,4.195253e-01,9.885187e+01
1.261261e+00,6.413247e-01,6.598849e-01,4.245671e-01,9.662364e+01
1.271271e+00,6.516171e-01,6.846221e-01,4.296494e-01,9.445533e+01
1.281281e+00,6.622501e-01,7.094541e-01,4.347590e-01,9.234477e+01
1.291291e+00,6.732363e-01,7.343866e-01,4.398840e-01,9.028980e+01
1.301301e+00,6.845890e-01,7.594253e-01,4.450136e-01,8.828830e+01
1.311311e+00,6.963219e-01,7.845755e-01,4.501378e-01,8.633816e+01
1.321321e+00,7.084497e-01,8.098427e-01,4.552476e-01,8.443733e+01
1.331331e+00,7.209876e-01,8.352318e-01,4.603352e-01,8.258381e+01
1.341341e+00,7.339516e-01,8.607480e-01,4.653932e-01,8.077566e+01
1.351351e+00,7.473587e-01,8.863960e-01,4.704153e-01,7.901099e+01
1.361361e+00,7.612264e-01,9.121804e-01,4.753956e-01,7.728801e+01
1.371371e+00,7.755734e-01,9.381057e-01,4.803292e-01,7.560495e+01
1.381381e+00,7.904192e-01,9.641759e-01,4.852114e-01,7.396015e+01
1.391391e+00,8.057845e-01,9.903950e-01,4.900385e-01,7.235199e+01
1.401401e+00,8.216909e-01,1.016766e+00,4.948069e-01,7.077893e+01
1.411411e+00,8.381611e-01,1.043294e+00,4.995138e-01,6.923947e+01
1.421421e+00,8.552193e-01,1.069979e+00,5.041564e-01,6.773221e+01
1.431431e+00,8.728908e-01,1.096826e+00,5.087328e-01,6.625578e+01
1.441441e+00,8.912024e-01,1.123836e+00,5.132410e-01,6.480888e+01
1.451451e+00,9.101821e-01,1.151010e+00,5.176795e-01,6.339026e+01
1.461461e+00,9.298598e-01,1.178349e+00,5.220472e-01,6.199873e+01
1.471471e+00,9.502669e-01,1.205853e+00,5.263430e-01,6.063314e+01
1.481481e+00,9.714366e-01,1.233522e+00,5.305661e-01,5.929240e+01
1.491491e+00,9.934038e-01,1.261354e+00,5.347161e-01,5.797546e+01
1.501502e+00,1.016206e+00,1.289347e+00,5.387925e-01,5.668131e+01
1.511512e+00,1.039881e+00,1.317496e+00,5.427951e-01,5.540899e+01
1.521522e+00,1.064472e+00,1.345797e+00,5.467238e-01,5.415756e+01
1.531532e+00,1.090022e+00,1.374243e+00,5.505788e-01,5.292615e+01
1.541542e+00,1.116577e+00,1.402826e+00,5.543600e-01,5.171390e+01
1.551552e+00,1.144186e+00,1.431536e+00,5.580678e-01,5.051999e+01
1.561562e+00,1.172901e+00,1.460362e+00,5.617023e-01,4.934362e+01
1.571572e+00,1.202776e+00,1.489287e+00,5.652641e-01,4.818405e+01
1.581582e+00,1.233868e+00,1.518296e+00,5.687535e-01,4.704054e+01
1.591592e+00,1.266240e+00,1.547368e+00,5.721709e-01,4.591239e+01
1.601602e+00,1.299955e+00,1.576478e+00,5.755168e-01,4.479891e+01
1.611612e+00,1.335080e+00,1.605601e+00,5.787916e-01,4.369947e+01
1.621622e+00,1.371688e+00,1.634704e+00,5.819960e-01,4.261342e+01
1.631632e+00,1.409852e+00,1.663749e+00,5.851303e-01,4.154016e+01
1.641642e+00,1.449653e+00,1.692696e+00,5.881951e-01,4.047909e+01
1.651652e+00,1.491173e+00,1.721495e+00,5.911908e-01,3.942966e+01
1.661662e+00,1.534499e+00,1.750091e+00,5.941179e-01,3.839131e+01
1.671672e+00,1.579721e+00,1.778422e+00,5.969768e-01,3.736352e+01
1.681682e+00,1.626934e+00,1.806415e+00,5.997680e-01,3.634576e+01
1.691692e+00,1.676236e+00,1.833988e+00,6.024917e-01,3.533754e+01
1.701702e+00,1.727728e+00,1.861051e+00,6.051484e-01,3.433838e+01
1.711712e+00,1.781515e+00,1.887498e+00,6.077384e-01,3.334781e+01
1.721722e+00,1.837705e+00,1.913213e+00,6.102619e-01,3.236538e+01
1.731732e+00,1.896406e+00,1.938062e+00,6.127191e-01,3.139065e+01
1.741742e+00,1.957729e+00,1.961897e+00,6.151102e-01,3.042320e+01
1.751752e+00,2.021785e+00,1.984550e+00,6.174353e-01,2.946262e+01
1.761762e+00,2.088682e+00,2.005837e+00,6.196945e-01,2.850849e+01
1.771772e+00,2.158526e+00,2.025547e+00,6.218878e-01,2.756044e+01
1.781782e+00,2.231419e+00,2.043449e+00,6.240151e-01,2.661809e+01
1.791792e+00,2.307453e+00,2.059287e+00,6.260765e-01,2.568108e+01
1.801802e+00,2.386712e+00,2.072773e+00,6.280717e-01,2.474903e+01
1.811812e+00,2.469264e+00,2.083596e+00,6.300006e-01,2.382163e+01
1.821822e+00,2.555160e+00,2.091409e+00,6.318629e-01,2.289852e+01
1.831832e+00,2.644425e+00,2.095835e+00,6.336583e-01,2.197938e+01
1.841842e+00,2.737058e+00,2.096465e+00,6.353865e-01,2.106389e+01
1.851852e+00,2.833022e+00,2.092856e+00,6.370472e-01,2.015176e+01
1.861862e+00,2.932234e+00,2.084531e+00,6.386398e-01,1.924267e+01
1.871872e+00,3.034565e+00,2.070984e+00,6.401638e-01,1.833634e+01
1.881882e+00,3.139821e+00,2.051681e+00,6.416188e-01,1.743249e+01
1.891892e+00,3.247743e+00,2.026066e+00,6.430041e-01,1.653084e+01
1.901902e+00,3.357992e+00,1.993566e+00,6.443190e-01,1.563112e+01
1.911912e+00,3.470139e+00,1.953603e+00,6.455631e-01,1.473308e+01
1.921922e+00,3.583659e+00,1.905602e+00,6.467354e-01,1.383646e+01
1.931932e+00,3.697921e+00,1.849011e+00,6.478352e-01,1.294102e+01
1.941942e+00,3.812182e+00,1.783314e+00,6.488619e-01,1.204651e+01
1.951952e+00,3.925585e+00,1.708057e+00,6.498144e-01,1.115271e+01
1.961962e+00,4.037158e+00,1.622864e+00,6.506920e-01,1.025939e+01
1.971972e+00,4.145818e+00,1.527473e+00,6.514937e-01,9.366324e+00
1.981982e+00,4.250386e+00,1.421751e+00,6.522187e-01,8.473301e+00
1.991992e+00,4.349601e+00,1.305731e+00,6.528659e-01,7.580111e+00
2.002002e+00,4.442145e+00,1.179629e+00,6.534344e-01,6.686549e+00
2.012012e+00,4.526677e+00,1.043868e+00,6.539232e-01,5.792417e+00
2.022022e+00,4.601869e+00,8.990912e-01,6.543312e-01,4.897519e+00
2.032032e+00,4.666450e+00,7.461696e-01,6.546574e-01,4.001667e+00
2.042042e+00,4.719253e+00,5.861968e-01,6.549007e-01,3.104674e+00
2.052052e+00,4.759261e+00,4.204744e-01,6.550600e-01,2.206359e+00
2.062062e+00,4.785652e+00,2.504855e-01,6.551343e-01,1.306546e+00
2.072072e+00,4.797840e+00,7.785663e-02,6.551225e-01,4.050593e-01
2.082082e+00,4.795498e+00,-9.568925e-02,6.550234e-01,-4.982698e-01
2.092092e+00,4.778583e+00,-2.683867e-01,6.548359e-01,-1.403609e+00
2.102102e+00,4.747335e+00,-4.384849e-01,6.545589e-01,-2.311121e+00
2.112112e+00,4.702269e+00,-6.043041e-01,6.541912e-01,-3.220968e+00
2.122122e+00,4.644154e+00,-7.642879e-01,6.537319e-01,-4.133308e+00
2.132132e+00,4.573975e+00,-9.170479e-01,6.531796e-01,-5.048298e+00
2.142142e+00,4.492896e+00,-1.061397e+00,6.525335e-01,-5.966090e+00
2.152152e+00,4.402209e+00,-1.196374e+00,6.517922e-01,-6.886839e+00
2.162162e+00,4.303289e+00,-1.321251e+00,6.509548e-01,-7.810693e+00
2.172172e+00,4.197540e+00,-1.435537e+00,6.500201e-01,-8.737803e+00
2.182182e+00,4.086360e+00,-1.538961e+00,6.489872e-01,-9.668317e+00
2.192192e+00,3.971097e+00,-1.631462e+00,6.478550e-01,-1.060238e+01
2.202202e+00,3.853022e+00,-1.713158e+00,6.466223e-01,-1.154014e+01
2.212212e+00,3.733308e+00,-1.784319e+00,6.452884e-01,-1.248175e+01
2.222222e+00,3.613012e+00,-1.845344e+00,6.438521e-01,-1.342735e+01
2.232232e+00,3.493068e+00,-1.896727e+00,6.423125e-01,-1.437708e+01
2.242242e+00,3.374285e+00,-1.939033e+00,6.406687e-01,-1.533110e+01
2.252252e+00,3.257346e+00,-1.972872e+00,6.389198e-01,-1.628956e+01
2.262262e+00,3.142821e+00,-1.998883e+00,6.370650e-01,-1.725259e+01
2.272272e+00,3.031165e+00,-2.017709e+00,6.351034e-01,-1.822036e+01
2.282282e+00,2.922737e+00,-2.029990e+00,6.330342e-01,-1.919302e+01
2.292292e+00,2.817806e+00,-2.036346e+00,6.308567e-01,-2.017071e+01
2.302302e+00,2.716563e+00,-2.037374e+00,6.285703e-01,-2.115361e+01
2.312312e+00,2.619131e+00,-2.033637e+00,6.261741e-01,-2.214187e+01
2.322322e+00,2.525577e+00,-2.025665e+00,6.236677e-01,-2.313565e+01
2.332332e+00,2.435919e+00,-2.013947e+00,6.210504e-01,-2.413512e+01
2.342342e+00,2.350135e+00,-1.998937e+00,6.183217e-01,-2.514046e+01
2.352352e+00,2.268173e+00,-1.981049e+00,6.154812e-01,-2.615183e+01
2.362362e+00,2.189954e+00,-1.960659e+00,6.125284e-01,-2.716943e+01
2.372372e+00,2.115381e+00,-1.938110e+00,6.094630e-01,-2.819344e+01
2.382382e+00,2.044341e+00,-1.913710e+00,6.062847e-01,-2.922405e+01
2.392392e+00,1.976711e+00,-1.887734e+00,6.029932e-01,-3.026146e+01
2.402402e+00,1.912361e+00,-1.860429e+00,5.995884e-01,-3.130588e+01
2.412412e+00,1.851156e+00,-1.832016e+00,5.960701e-01,-3.235753e+01
2.422422e+00,1.792959e+00,-1.802689e+00,5.924383e-01,-3.341663e+01
2.432432e+00,1.737635e+00,-1.772623e+00,5.886931e-01,-3.448341e+01
2.442442e+00,1.685046e+00,-1.741969e+00,5.848344e-01,-3.555812e+01
2.452452e+00,1.635061e+00,-1.710862e+00,5.808625e-01,-3.664100e+01
2.462462e+00,1.587550e+00,-1.679420e+00,5.767777e-01,-3.773233e+01
2.472472e+00,1.542388e+00,-1.647746e+00,5.725801e-01,-3.883237e+01
2.482482e+00,1.499452e+00,-1.615930e+00,5.682703e-01,-3.994143e+01
2.492492e+00,1.458627e+00,-1.584050e+00,5.638488e-01,-4.105981e+01
2.502503e+00,1.419802e+00,-1.552174e+00,5.593160e-01,-4.218783e+01
2.512513e+00,1.382869e+00,-1.520360e+00,5.546727e-01,-4.332582e+01
2.522523e+00,1.347729e+00,-1.488657e+00,5.499196e-01,-4.447414e+01
2.532533e+00,1.314284e+00,-1.457110e+00,5.450576e-01,-4.563316e+01
2.542543e+00,1.282444e+00,-1.425753e+00,5.400876e-01,-4.680328e+01
2.552553e+00,1.252122e+00,-1.394618e+00,5.350108e-01,-4.798491e+01
2.562563e+00,1.223236e+00,-1.363730e+00,5.298282e-01,-4.917850e+01
2.572573e+00,1.195709e+00,-1.333110e+00,5.245412e-01,-5.038451e+01
2.582583e+00,1.169468e+00,-1.302775e+00,5.191511e-01,-5.160343e+01
2.592593e+00,1.144445e+00,-1.272739e+00,5.136595e-01,-5.283578e+01
2.602603e+00,1.120573e+00,-1.243012e+00,5.080681e-01,-5.408212e+01
2.612613e+00,1.097793e+00,-1.213603e+00,5.023787e-01,-5.534303e+01
2.622623e+00,1.076046e+00,-1.184517e+00,4.965931e-01,-5.661913e+01
2.632633e+00,1.055278e+00,-1.155758e+00,4.907135e-01,-5.791109e+01
2.642643e+00,1.035437e+00,-1.127328e+00,4.847422e-01,-5.921961e+01
2.652653e+00,1.016477e+00,-1.099228e+00,4.786815e-01,-6.054543e+01
2.662663e+00,9.983500e-01,-1.071455e+00,4.725340e-01,-6.188935e+01
2.672673e+00,9.810150e-01,-1.044010e+00,4.663026e-01,-6.325223e+01
2.682683e+00,9.644312e-01,-1.016887e+00,4.599902e-01,-6.463495e+01
2.692693e+00,9.485607e-01,-9.900847e-01,4.535999e-01,-6.603848e+01
2.702703e+00,9.333678e-01,-9.635971e-01,4.471353e-01,-6.746386e+01
2.712713e+00,9.188188e-01,-9.374192e-01,4.405999e-01,-6.891216e+01
2.722723e+00,9.048822e-01,-9.115455e-01,4.339976e-01,-7.038457e+01
2.732733e+00,8.915279e-01,-8.859697e-01,4.273326e-01,-7.188232e+01
2.742743e+00,8.787280e-01,-8.606853e-01,4.206095e-01,-7.340675e+01
2.752753e+00,8.664558e-01,-8.356855e-01,4.138329e-01,-7.495928e+01
2.762763e+00,8.546865e-01,-8.109631e-01,4.070080e-01,-7.654142e+01
2.772773e+00,8.433963e-01,-7.865109e-01,4.001402e-01,-7.815480e+01
2.782783e+00,8.325631e-01,-7.623215e-01,3.932355e-01,-7.980114e+01
2.792793e+00,8.221658e-01,-7.383872e-01,3.863001e-01,-8.148228e+01
2.802803e+00,8.121848e-01,-7.147004e-01,3.793408e-01,-8.320019e+01
2.812813e+00,8.026013e-01,-6.912533e-01,3.723648e-01,-8.495697e+01
2.822823e+00,7.933978e-01,-6.680382e-01,3.653799e-01,-8.675483e+01
2.832833e+00,7.845574e-01,-6.450472e-01,3.583944e-01,-8.859614e+01
2.842843e+00,7.760646e-01,-6.222726e-01,3.514173e-01,-9.048341e+01
2.852853e+00,7.679045e-01,-5.997065e-01,3.444582e-01,-9.241929e+01
2.862863e+00,7.600631e-01,-5.773411e-01,3.375274e-01,-9.440658e+01
2.872873e+00,7.525272e-01,-5.551687e-01,3.306363e-01,-9.644822e+01
2.882883e+00,7.452842e-01,-5.331816e-01,3.237966e-01,-9.854729e+01
2.892893e+00,7.383223e-01,-5.113720e-01,3.170213e-01,-1.007070e+02
2.902903e+00,7.316304e-01,-4.897323e-01,3.103243e-01,-1.029307e+02
2.912913e+00,7.251979e-01,-4.682550e-01,3.037205e-01,-1.052217e+02
2.922923e+00,7.190148e-01,-4.469325e-01,2.972257e-01,-1.075836e+02
2.932933e+00,7.130718e-01,-4.257572e-01,2.908570e-01,-1.100198e+02
2.942943e+00,7.073600e-01,-4.047219e-01,2.846329e-01,-1.125338e+02
2.952953e+00,7.018709e-01,-3.838190e-01,2.785726e-01,-1.151289e+02
2.962963e+00,6.965967e-01,-3.630413e-01,2.726971e-01,-1.178083e+02
2.972973e+00,6.915299e-01,-3.423814e-01,2.670281e-01,-1.205748e+02
2.982983e+00,6.866634e-01,-3.218322e-01,2.615888e-01,-1.234309e+02
2.992993e+00,6.819906e-01,-3.013863e-01,2.564033e-01,-1.263786e+02
3.003003e+00,6.775051e-01,-2.810367e-01,2.514969e-01,-1.294190e+02
3.013013e+00,6.732012e-01,-2.607763e-01,2.468954e-01,-1.325526e+02
3.023023e+00,6.690733e-01,-2.405978e-01,2.426253e-01,-1.357785e+02
3.033033e+00,6.651161e-01,-2.204943e-01,2.387132e-01,-1.390951e+02
3.043043e+00,6.613248e-01,-2.004587e-01,2.351857e-01,-1.424989e+02
3.053053e+00,6.576948e-01,-1.804840e-01,2.320684e-01,-1.459854e+02
3.063063e+00,6.542217e-01,-1.605631e-01,2.293862e-01,-1.495482e+02
3.073073e+00,6.509017e-01,-1.406889e-01,2.271620e-01,-1.531793e+02
3.083083e+00,6.477308e-01,-1.208545e-01,2.254166e-01,-1.568693e+02
3.093093e+00,6.447058e-01,-1.010528e-01,2.241679e-01,-1.606073e+02
3.103103e+00,6.418234e-01,-8.127674e-02,2.234304e-01,-1.643810e+02
3.113113e+00,6.390805e-01,-6.151920e-02,2.232150e-01,-1.681774e+02
3.123123e+00,6.364746e-01,-4.177305e-02,2.235284e-01,-1.719826e+02
3.133133e+00,6.340030e-01,-2.203113e-02,2.243730e-01,-1.757828e+02
3.143143e+00,6.316636e-01,-2.286217e-03,2.257470e-01,-1.795641e+02
3.153153e+00,6.294543e-01,1.746897e-02,2.276443e-01,1.766866e+02
3.163163e+00,6.273733e-01,3.724179e-02,2.300548e-01,1.729816e+02
3.173173e+00,6.254190e-01,5.703966e-02,2.329651e-01,1.693319e+02
3.183183e+00,6.235901e-01,7.687011e-02,2.363583e-01,1.657471e+02
3.193193e+00,6.218854e-01,9.674074e-02,2.402153e-01,1.622352e+02
3.203203e+00,6.203039e-01,1.166593e-01,2.445146e-01,1.588027e+02
3.213213e+00,6.188449e-01,1.366336e-01,2.492335e-01,1.554542e+02
3.223223e+00,6.175078e-01,1.566716e-01,2.543481e-01,1.521932e+02
3.233233e+00,6.162925e-01,1.767814e-01,2.598342e-01,1.490217e+02
3.243243e+00,6.151988e-01,1.969713e-01,2.656672e-01,1.459403e+02
3.253253e+00,6.142267e-01,2.172498e-01,2.718229e-01,1.429487e+02
3.263263e+00,6.133768e-01,2.376254e-01,2.782774e-01,1.400458e+02
3.273273e+00,6.126495e-01,2.581071e-01,2.850076e-01,1.372297e+02
3.283283e+00,6.120458e-01,2.787037e-01,2.919913e-01,1.344980e+02
3.293293e+00,6.115665e-01,2.994246e-01,2.992071e-01,1.318477e+02
3.303303e+00,6.112131e-01,3.202793e-01,3.066346e-01,1.292758e+02
3.313313e+00,6.109871e-01,3.412775e-01,3.142545e-01,1.267789e+02
3.323323e+00,6.108904e-01,3.624294e-01,3.220486e-01,1.243535e+02
3.333333e+00,6.109249e-01,3.837452e-01,3.299994e-01,1.219962e+02
3.343343e+00,6.110932e-01,4.052356e-01,3.380909e-01,1.197034e+02
3.353353e+00,6.113979e-01,4.269118e-01,3.463075e-01,1.174718e+02
3.363363e+00,6.118420e-01,4.487849e-01,3.546350e-01,1.152980e+02
3.373373e+00,6.124288e-01,4.708669e-01,3.630596e-01,1.131788e+02
3.383383e+00,6.131620e-01,4.931700e-01,3.715687e-01,1.111111e+02
3.393393e+00,6.140456e-01,5.157068e-01,3.801502e-01,1.090918e+02
3.403403e+00,6.150842e-01,5.384905e-01,3.887928e-01,1.071183e+02
3.413413e+00,6.162826e-01,5.615347e-01,3.974857e-01,1.051878e+02
3.423423e+00,6.176461e-01,5.848536e-01,4.062189e-01,1.032978e+02
3.433433e+00,6.191804e-01,6.084620e-01,4.149828e-01,1.014459e+02
3.443443e+00,6.208919e-01,6.323754e-01,4.237684e-01,9.962986e+01
3.453453e+00,6.227874e-01,6.566098e-01,4.325671e-01,9.784756e+01
3.463463e+00,6.248743e-01,6.811820e-01,4.413707e-01,9.609703e+01
3.473473e+00,6.271607e-01,7.061095e-01,4.501715e-01,9.437639e+01
3.483483e+00,6.296552e-01,7.314108e-01,4.589622e-01,9.268389e+01
3.493493e+00,6.323673e-01,7.571049e-01,4.677356e-01,9.101789e+01
3.503504e+00,6.353073e-01,7.832122e-01,4.764851e-01,8.937686e+01
3.513514e+00,6.384863e-01,8.097537e-01,4.852043e-01,8.775935e+01
3.523524e+00,6.419162e-01,8.367516e-01,4.938869e-01,8.616401e+01
3.533534e+00,6.456102e-01,8.642293e-01,5.025271e-01,8.458957e+01
3.543544e+00,6.495822e-01,8.922113e-01,5.111192e-01,8.303484e+01
3.553554e+00,6.538477e-01,9.207234e-01,5.196577e-01,8.149871e+01
3.563564e+00,6.584233e-01,9.497929e-01,5.281374e-01,7.998012e+01
3.573574e+00,6.633269e-01,9.794485e-01,5.365531e-01,7.847810e+01
3.583584e+00,6.685782e-01,1.009720e+00,5.448999e-01,7.699171e+01
3.593594e+00,6.741986e-01,1.040641e+00,5.531733e-01,7.552010e+01
3.603604e+00,6.802111e-01,1.072244e+00,5.613684e-01,7.406244e+01
3.613614e+00,6.866411e-01,1.104564e+00,5.694810e-01,7.261796e+01
3.623624e+00,6.935162e-01,1.137641e+00,5.775067e-01,7.118594e+01
3.633634e+00,7.008663e-01,1.171515e+00,5.854414e-01,6.976569e+01
3.643644e+00,7.087243e-01,1.206227e+00,5.932810e-01,6.835658e+01
3.653654e+00,7.171262e-01,1.241823e+00,6.010216e-01,6.695799e+01
3.663664e+00,7.261113e-01,1.278352e+00,6.086594e-01,6.556935e+01
3.673674e+00,7.357228e-01,1.315865e+00,6.161907e-01,6.419011e+01
3.683684e+00,7.460080e-01,1.354415e+00,6.236119e-01,6.281977e+01
3.693694e+00,7.570190e-01,1.394062e+00,6.309195e-01,6.145783e+01
3.703704e+00,7.688134e-01,1.434866e+00,6.381102e-01,6.010383e+01
3.713714e+00,7.814543e-01,1.476893e+00,6.451806e-01,5.875734e+01
3.723724e+00,7.950117e-01,1.520214e+00,6.521276e-01,5.741793e+01
3.733734e+00,8.095631e-01,1.564903e+00,6.589479e-01,5.608522e+01
3.743744e+00,8.251942e-01,1.611041e+00,6.656386e-01,5.475883e+01
3.753754e+00,8.420004e-01,1.658712e+00,6.721968e-01,5.343839e+01
3.763764e+00,8.600877e-01,1.708007e+00,6.786195e-01,5.212357e+01
3.773774e+00,8.795743e-01,1.759023e+00,6.849040e-01,5.081404e+01
3.783784e+00,9.005923e-01,1.811864e+00,6.910476e-01,4.950949e+01
3.793794e+00,9.232895e-01,1.866641e+00,6.970476e-01,4.820962e+01
3.803804e+00,9.478316e-01,1.923470e+00,7.029016e-01,4.691414e+01
3.813814e+00,9.744052e-01,1.982478e+00,7.086070e-01,4.562278e+01
3.823824e+00,1.003220e+00,2.043797e+00,7.141614e-01,4.433528e+01
3.833834e+00,1.034513e+00,2.107568e+00,7.195626e-01,4.305139e+01
3.843844e+00,1.068554e+00,2.173939e+00,7.248083e-01,4.177085e+01
3.853854e+00,1.105645e+00,2.243069e+00,7.298963e-01,4.049344e+01
3.863864e+00,1.146135e+00,2.315120e+00,7.348245e-01,3.921893e+01
3.873874e+00,1.190417e+00,2.390264e+00,7.395910e-01,3.794710e+01
3.883884e+00,1.238944e+00,2.468675e+00,7.441936e-01,3.667774e+01
3.893894e+00,1.292231e+00,2.550530e+00,7.486307e-01,3.541065e+01
3.903904e+00,1.350874e+00,2.636007e+00,7.529003e-01,3.414562e+01
3.913914e+00,1.415557e+00,2.725276e+00,7.570008e-01,3.288246e+01
3.923924e+00,1.487068e+00,2.818494e+00,7.609304e-01,3.162098e+01
3.933934e+00,1.566320e+00,2.915796e+00,7.646876e-01,3.036101e+01
3.943944e+00,1.654370e+00,3.017280e+00,7.682709e-01,2.910235e+01
3.953954e+00,1.752445e+00,3.122985e+00,7.716788e-01,2.784484e+01
3.963964e+00,1.861968e+00,3.232870e+00,7.749100e-01,2.658830e+01
3.973974e+00,1.984593e+00,3.346773e+00,7.779632e-01,2.533257e+01
3.983984e+00,2.122240e+00,3.464364e+00,7.808371e-01,2.407747e+01
3.993994e+00,2.277132e+00,3.585073e+00,7.835306e-01,2.282285e+01
4.004004e+00,2.451834e+00,3.708004e+00,7.860426e-01,2.156854e+01
4.014014e+00,2.649287e+00,3.831804e+00,7.883722e-01,2.031439e+01
4.024024e+00,2.872824e+00,3.954502e+00,7.905183e-01,1.906024e+01
4.034034e+00,3.126168e+00,4.073290e+00,7.924802e-01,1.780592e+01
4.044044e+00,3.413364e+00,4.184236e+00,7.942570e-01,1.655130e+01
4.054054e+00,3.738639e+00,4.281938e+00,7.958481e-01,1.529620e+01
4.064064e+00,4.106105e+00,4.359091e+00,7.972528e-01,1.404048e+01
4.074074e+00,4.519245e+00,4.406026e+00,7.984706e-01,1.278398e+01
4.084084e+00,4.980083e+00,4.410265e+00,7.995010e-01,1.152656e+01
4.094094e+00,5.487928e+00,4.356264e+00,8.003435e-01,1.026805e+01
4.104104e+00,6.037639e+00,4.225588e+00,8.009980e-01,9.008295e+00
4.114114e+00,6.617481e+00,3.997950e+00,8.014642e-01,7.747148e+00
4.124124e+00,7.206970e+00,3.653561e+00,8.017418e-01,6.484448e+00
4.134134e+00,7.775520e+00,3.177181e+00,8.018308e-01,5.220037e+00
4.144144e+00,8.283198e+00,2.563627e+00,8.017312e-01,3.953756e+00
4.154154e+00,8.684909e+00,1.823460e+00,8.014431e-01,2.685441e+00
4.164164e+00,8.938355e+00,9.863657e-01,8.009666e-01,1.414928e+00
4.174174e+00,9.014011e+00,9.949579e-02,8.003020e-01,1.420512e-01
4.184184e+00,8.903312e+00,-7.802364e-01,7.994496e-01,-1.133360e+00
4.194194e+00,8.621125e+00,-1.597695e+00,7.984098e-01,-2.411477e+00
4.204204e+00,8.201223e+00,-2.310280e+00,7.971830e-01,-3.692478e+00
4.214214e+00,7.687146e+00,-2.893818e+00,7.957700e-01,-4.976542e+00
4.224224e+00,7.122603e+00,-3.342462e+00,7.941712e-01,-6.263853e+00
4.234234e+00,6.544676e+00,-3.664378e+00,7.923876e-01,-7.554600e+00
4.244244e+00,5.980800e+00,-3.876007e+00,7.904198e-01,-8.848976e+00
4.254254e+00,5.448763e+00,-3.997007e+00,7.882689e-01,-1.014718e+01
4.264264e+00,4.958355e+00,-4.046796e+00,7.859359e-01,-1.144941e+01
4.274274e+00,4.513514e+00,-4.042650e+00,7.834218e-01,-1.275589e+01
4.284284e+00,4.114315e+00,-3.998967e+00,7.807278e-01,-1.406682e+01
4.294294e+00,3.758521e+00,-3.927229e+00,7.778553e-01,-1.538244e+01
4.304304e+00,3.442688e+00,-3.836313e+00,7.748057e-01,-1.670296e+01
4.314314e+00,3.162877e+00,-3.732921e+00,7.715803e-01,-1.802863e+01
4.324324e+00,2.915101e+00,-3.622025e+00,7.681809e-01,-1.935969e+01
4.334334e+00,2.695562e+00,-3.507251e+00,7.646090e-01,-2.069640e+01
4.344344e+00,2.500783e+00,-3.391208e+00,7.608666e-01,-2.203902e+01
4.354354e+00,2.327646e+00,-3.275739e+00,7.569553e-01,-2.338783e+01
4.364364e+00,2.173403e+00,-3.162119e+00,7.528774e-01,-2.474310e+01
4.374374e+00,2.035654e+00,-3.051207e+00,7.486348e-01,-2.610513e+01
4.384384e+00,1.912313e+00,-2.943557e+00,7.442297e-01,-2.747423e+01
4.394394e+00,1.801576e+00,-2.839502e+00,7.396646e-01,-2.885071e+01
4.404404e+00,1.701884e+00,-2.739215e+00,7.349418e-01,-3.023491e+01
4.414414e+00,1.611891e+00,-2.642759e+00,7.300639e-01,-3.162716e+01
4.424424e+00,1.530436e+00,-2.550114e+00,7.250335e-01,-3.302784e+01
4.434434e+00,1.456515e+00,-2.461207e+00,7.198536e-01,-3.443730e+01
4.444444e+00,1.389257e+00,-2.375929e+00,7.145270e-01,-3.585594e+01
4.454454e+00,1.327908e+00,-2.294147e+00,7.090568e-01,-3.728417e+01
4.464464e+00,1.271814e+00,-2.215711e+00,7.034462e-01,-3.872241e+01
4.474474e+00,1.220403e+00,-2.140469e+00,6.976986e-01,-4.017110e+01
4.484484e+00,1.173177e+00,-2.068262e+00,6.918174e-01,-4.163071e+01
4.494494e+00,1.129700e+00,-1.998933e+00,6.858064e-01,-4.310172e+01
4.504505e+00,1.089589e+00,-1.932331e+00,6.796692e-01,-4.458463e+01
4.514515e+00,1.052507e+00,-1.868306e+00,6.734100e-01,-4.607998e+01
4.524525e+00,1.018158e+00,-1.806716e+00,6.670327e-01,-4.758831e+01
4.534535e+00,9.862798e-01,-1.747427e+00,6.605418e-01,-4.911020e+01
4.544545e+00,9.566401e-01,-1.690308e+00,6.539418e-01,-5.064626e+01
4.554555e+00,9.290326e-01,-1.635238e+00,6.472373e-01,-5.219712e+01
4.564565e+00,9.032740e-01,-1.582101e+00,6.404332e-01,-5.376343e+01
4.574575e+00,8.792007e-01,-1.530790e+00,6.335346e-01,-5.534590e+01
4.584585e+00,8.566663e-01,-1.481201e+00,6.265469e-01,-5.694524e+01
4.594595e+00,8.355400e-01,-1.433240e+00,6.194756e-01,-5.856220e+01
4.604605e+00,8.157041e-01,-1.386814e+00,6.123264e-01,-6.019759e+01
4.614615e+00,7.970529e-01,-1.341841e+00,6.051055e-01,-6.185221e+01
4.624625e+00,7.794912e-01,-1.298240e+00,5.978192e-01,-6.352693e+01
4.634635e+00,7.629329e-01,-1.255937e+00,5.904740e-01,-6.522266e+01
4.644645e+00,7.473002e-01,-1.214861e+00,5.830767e-01,-6.694031e+01
4.654655e+00,7.325227e-01,-1.174947e+00,5.756347e-01,-6.868087e+01
4.664665e+00,7.185363e-01,-1.136132e+00,5.681554e-01,-7.044536e+01
4.674675e+00,7.052829e-01,-1.098359e+00,5.606466e-01,-7.223481e+01
4.684685e+00,6.927095e-01,-1.061574e+00,5.531165e-01,-7.405032e+01
4.694695e+00,6.807678e-01,-1.025724e+00,5.455737e-01,-7.589302e+01
4.704705e+00,6.694136e-01,-9.907604e-01,5.380271e-01,-7.776407e+01
4.714715e+00,6.586066e-01,-9.566386e-01,5.304861e-01,-7.966467e+01
4.724725e+00,6.483098e-01,-9.233152e-01,5.229605e-01,-8.159605e+01
4.734735e+00,6.384892e-01,-8.907496e-01,5.154606e-01,-8.355947e+01
4.744745e+00,6.291136e-01,-8.589033e-01,5.079968e-01,-8.555621e+01
4.754755e+00,6.201544e-01,-8.277401e-01,5.005806e-01,-8.758756e+01
4.764765e+00,6.115851e-01,-7.972257e-01,4.932234e-01,-8.965485e+01
4.774775e+00,6.033813e-01,-7.673277e-01,4.859374e-01,-9.175937e+01
4.784785e+00,5.955206e-01,-7.380153e-01,4.787353e-01,-9.390243e+01
4.794795e+00,5.879821e-01,-7.092594e-01,4.716303e-01,-9.608531e+01
4.804805e+00,5.807466e-01,-6.810322e-01,4.646360e-01,-9.830926e+01
4.814815e+00,5.737963e-01,-6.533074e-01,4.577668e-01,-1.005755e+02
4.824825e+00,5.671146e-01,-6.260601e-01,4.510373e-01,-1.028850e+02
4.834835e+00,5.606861e-01,-5.992664e-01,4.444628e-01,-1.052390e+02
4.844845e+00,5.544966e-01,-5.729037e-01,4.380590e-01,-1.076383e+02
4.854855e+00,5.485328e-01,-5.469502e-01,4.318420e-01,-1.100837e+02
4.864865e+00,5.427824e-01,-5.213854e-01,4.258285e-01,-1.125757e+02
4.874875e+00,5.372338e-01,-4.961895e-01,4.200354e-01,-1.151148e+02
4.884885e+00,5.318762e-01,-4.713436e-01,4.144797e-01,-1.177010e+02
4.894895e+00,5.266998e-01,-4.468296e-01,4.091789e-01,-1.203343e+02
4.904905e+00,5.216950e-01,-4.226301e-01,4.041504e-01,-1.230143e+02
4.914915e+00,5.168532e-01,-3.987286e-01,3.994115e-01,-1.257401e+02
4.924925e+00,5.121662e-01,-3.751090e-01,3.949795e-01,-1.285107e+02
4.934935e+00,5.076263e-01,-3.517559e-01,3.908713e-01,-1.313245e+02
4.944945e+00,5.032263e-01,-3.286544e-01,3.871033e-01,-1.341796e+02
4.954955e+00,4.989595e-01,-3.057902e-01,3.836912e-01,-1.370736e+02
4.964965e+00,4.948196e-01,-2.831496e-01,3.806499e-01,-1.400038e+02
4.974975e+00,4.908007e-01,-2.607192e-01,3.779932e-01,-1.429669e+02
4.984985e+00,4.868972e-01,-2.384859e-01,3.757338e-01,-1.459592e+02
4.994995e+00,4.831040e-01,-2.164373e-01,3.738829e-01,-1.489769e+02
5.005005e+00,4.794161e-01,-1.945611e-01,3.724501e-01,-1.520154e+02
5.015015e+00,4.758290e-01,-1.728455e-01,3.714434e-01,-1.550701e+02
5.025025e+00,4.723383e-01,-1.512790e-01,3.708689e-01,-1.581362e+02
5.035035e+00,4.689400e-01,-1.298503e-01,3.707306e-01,-1.612084e+02
5.045045e+00,4.656303e-01,-1.085483e-01,3.710306e-01,-1.642818e+02
5.055055e+00,4.624057e-01,-8.736241e-02,3.717691e-01,-1.673510e+02
5.065065e+00,4.592627e-01,-6.628194e-02,3.729440e-01,-1.704110e+02
5.075075e+00,4.561983e-01,-4.529658e-02,3.745514e-01,-1.734568e+02
5.085085e+00,4.532095e-01,-2.439615e-02,3.765853e-01,-1.764836e+02
5.095095e+00,4.502935e-01,-3.570612e-03,3.790380e-01,-1.794868e+02
5.105105e+00,4.474478e-01,1.718992e-02,3.819002e-01,1.775377e+02
5.115115e+00,4.446699e-01,3.789523e-02,3.851608e-01,1.745937e+02
5.125125e+00,4.419576e-01,5.855499e-02,3.888076e-01,1.716845e+02
5.135135e+00,4.393087e-01,7.917881e-02,3.928271e-01,1.688133e+02
5.145145e+00,4.367214e-01,9.977623e-02,3.972049e-01,1.659825e+02
5.155155e+00,4.341938e-01,1.203567e-01,4.019257e-01,1.631942e+02
5.165165e+00,4.317243e-01,1.409298e-01,4.069736e-01,1.604502e+02
5.175175e+00,4.293113e-01,1.615049e-01,4.123322e-01,1.577517e+02
5.185185e+00,4.269533e-01,1.820915e-01,4.179850e-01,1.550997e+02
5.195195e+00,4.246492e-01,2.026990e-01,4.239152e-01,1.524947e+02
5.205205e+00,4.223978e-01,2.233371e-01,4.301057e-01,1.499370e+02
5.215215e+00,4.201979e-01,2.440152e-01,4.365400e-01,1.474265e+02
5.225225e+00,4.180488e-01,2.647432e-01,4.432015e-01,1.449630e+02
5.235235e+00,4.159496e-01,2.855307e-01,4.500737e-01,1.425459e+02
5.245245e+00,4.138996e-01,3.063876e-01,4.571407e-01,1.401746e+02
5.255255e+00,4.118983e-01,3.273240e-01,4.643868e-01,1.378482e+02
5.265265e+00,4.099452e-01,3.483499e-01,4.717968e-01,1.355658e+02
5.275275e+00,4.080400e-01,3.694759e-01,4.793561e-01,1.333262e+02
5.285285e+00,4.061826e-01,3.907124e-01,4.870501e-01,1.311283e+02
5.295295e+00,4.043727e-01,4.120701e-01,4.948652e-01,1.289708e+02
5.305305e+00,4.026106e-01,4.335600e-01,5.027880e-01,1.268526e+02
5.315315e+00,4.008964e-01,4.551935e-01,5.108056e-01,1.247722e+02
5.325325e+00,3.992303e-01,4.769821e-01,5.189057e-01,1.227285e+02
5.335335e+00,3.976129e-01,4.989375e-01,5.270764e-01,1.207200e+02
5.345345e+00,3.960448e-01,5.210721e-01,5.353062e-01,1.187455e+02
5.355355e+00,3.945267e-01,5.433984e-01,5.435842e-01,1.168036e+02
5.365365e+00,3.930595e-01,5.659293e-01,5.518999e-01,1.148932e+02
5.375375e+00,3.916444e-01,5.886783e-01,5.602432e-01,1.130130e+02
5.385385e+00,3.902826e-01,6.116592e-01,5.686043e-01,1.111617e+02
5.395395e+00,3.889755e-01,6.348864e-01,5.769741e-01,1.093381e+02
5.405405e+00,3.877248e-01,6.583748e-01,5.853434e-01,1.075413e+02
5.415415e+00,3.865324e-01,6.821399e-01,5.937039e-01,1.057699e+02
5.425425e+00,3.854004e-01,7.061979e-01,6.020472e-01,1.040230e+02
5.435435e+00,3.843310e-01,7.305655e-01,6.103654e-01,1.022995e+02
5.445445e+00,3.833270e-01,7.552602e-01,6.186510e-01,1.005984e+02
5.455455e+00,3.823912e-01,7.803004e-01,6.268967e-01,9.891880e+01
5.465465e+00,3.815268e-01,8.057051e-01,6.350955e-01,9.725977e+01
5.475475e+00,3.807373e-01,8.314945e-01,6.432406e-01,9.562042e+01
5.485485e+00,3.800266e-01,8.576896e-01,6.513256e-01,9.399991e+01
5.495495e+00,3.793990e-01,8.843123e-01,6.593441e-01,9.239744e+01
5.505506e+00,3.788592e-01,9.113858e-01,6.672903e-01,9.081223e+01
5.515516e+00,3.784123e-01,9.389346e-01,6.751583e-01,8.924355e+01
5.525526e+00,3.780641e-01,9.669843e-01,6.829425e-01,8.769069e+01
5.535536e+00,3.778207e-01,9.955619e-01,6.906376e-01,8.615297e+01
5.545546e+00,3.776891e-01,1.024696e+00,6.982384e-01,8.462974e+01
5.555556e+00,3.776766e-01,1.054417e+00,7.057399e-01,8.312040e+01
5.565566e+00,3.777917e-01,1.084757e+00,7.131373e-01,8.162435e+01
5.575576e+00,3.780432e-01,1.115749e+00,7.204260e-01,8.014102e+01
5.585586e+00,3.784412e-01,1.147430e+00,7.276014e-01,7.866987e+01
5.595596e+00,3.789967e-01,1.179837e+00,7.346592e-01,7.721039e+01
5.605606e+00,3.797216e-01,1.213012e+00,7.415953e-01,7.576208e+01
5.615616e+00,3.806293e-01,1.246997e+00,7.484057e-01,7.432447e+01
5.625626e+00,3.817344e-01,1.281839e+00,7.550863e-01,7.289710e+01
5.635636e+00,3.830530e-01,1.317586e+00,7.616336e-01,7.147955e+01
5.645646e+00,3.846030e-01,1.354291e+00,7.680438e-01,7.007138e+01
5.655656e+00,3.864041e-01,1.392010e+00,7.743134e-01,6.867221e+01
5.665666e+00,3.884782e-01,1.430803e+00,7.804392e-01,6.728165e+01
5.675676e+00,3.908494e-01,1.470735e+00,7.864178e-01,6.589934e+01
5.685686e+00,3.935448e-01,1.511874e+00,7.922460e-01,6.452492e+01
5.695696e+00,3.965941e-01,1.554295e+00,7.979209e-01,6.315805e+01
5.705706e+00,4.000308e-01,1.598078e+00,8.034396e-01,6.179841e+01
5.715716e+00,4.038919e-01,1.643310e+00,8.087992e-01,6.044568e+01
5.725726e+00,4.082192e-01,1.690083e+00,8.139970e-01,5.909956e+01
5.735736e+00,4.130590e-01,1.738498e+00,8.190305e-01,5.775977e+01
5.745746e+00,4.184636e-01,1.788664e+00,8.238971e-01,5.642602e+01
5.755756e+00,4.244917e-01,1.840699e+00,8.285944e-01,5.509804e+01
5.765766e+00,4.312095e-01,1.894731e+00,8.331201e-01,5.377558e+01
5.775776e+00,4.386916e-01,1.950901e+00,8.374720e-01,5.245837e+01
5.785786e+00,4.470226e-01,2.009359e+00,8.416481e-01,5.114618e+01
5.795796e+00,4.562983e-01,2.070271e+00,8.456461e-01,4.983877e+01
5.805806e+00,4.666278e-01,2.133817e+00,8.494644e-01,4.853591e+01
5.815816e+00,4.781355e-01,2.200197e+00,8.531009e-01,4.723739e+01
5.825826e+00,4.909638e-01,2.269625e+00,8.565539e-01,4.594297e+01
5.835836e+00,5.052759e-01,2.342339e+00,8.598218e-01,4.465247e+01
5.845846e+00,5.212596e-01,2.418601e+00,8.629029e-01,4.336566e+01
5.855856e+00,5.391318e-01,2.498697e+00,8.657958e-01,4.208237e+01
5.865866e+00,5.591434e-01,2.582942e+00,8.684991e-01,4.080238e+01
5.875876e+00,5.815865e-01,2.671687e+00,8.710114e-01,3.952551e+01
5.885886e+00,6.068014e-01,2.765314e+00,8.733315e-01,3.825159e+01
5.895896e+00,6.351869e-01,2.864248e+00,8.754583e-01,3.698042e+01
5.905906e+00,6.672116e-01,2.968958e+00,8.773905e-01,3.571183e+01
5.915916e+00,7.034289e-01,3.079963e+00,8.791273e-01,3.444565e+01
5.925926e+00,7.444949e-01,3.197835e+00,8.806677e-01,3.318171e+01
5.935936e+00,7.911910e-01,3.323203e+00,8.820109e-01,3.191984e+01
5.945946e+00,8.444523e-01,3.456762e+00,8.831560e-01,3.065987e+01
5.955956e+00,9.054029e-01,3.599270e+00,8.841025e-01,2.940164e+01
5.965966e+00,9.754011e-01,3.751552e+00,8.848497e-01,2.814498e+01
5.975976e+00,1.056096e+00,3.914499e+00,8.853972e-01,2.688975e+01
5.985986e+00,1.149501e+00,4.089052e+00,8.857443e-01,2.563578e+01
5.995996e+00,1.258084e+00,4.276189e+00,8.858908e-01,2.438291e+01
6.006006e+00,1.384886e+00,4.476882e+00,8.858364e-01,2.313099e+01
6.016016e+00,1.533671e+00,4.692035e+00,8.855809e-01,2.187986e+01
6.026026e+00,1.709111e+00,4.922374e+00,8.851241e-01,2.062936e+01
6.036036e+00,1.917027e+00,5.168269e+00,8.844660e-01,1.937935e+01
6.046046e+00,2.164665e+00,5.429453e+00,8.836065e-01,1.812965e+01
6.056056e+00,2.461032e+00,5.704568e+00,8.825458e-01,1.688012e+01
6.066066e+00,2.817246e+00,5.990463e+00,8.812841e-01,1.563061e+01
6.076076e+00,3.246832e+00,6.281111e+00,8.798216e-01,1.438094e+01
6.086086e+00,3.765806e+00,6.565978e+00,8.781586e-01,1.313097e+01
6.096096e+00,4.392203e+00,6.827673e+00,8.762955e-01,1.188053e+01
6.106106e+00,5.144420e+00,7.038773e+00,8.742328e-01,1.062946e+01
6.116116e+00,6.037316e+00,7.158080e+00,8.719710e-01,9.377593e+00
6.126126e+00,7.074618e+00,7.127498e+00,8.695108e-01,8.124763e+00
6.136136e+00,8.236429e+00,6.872519e+00,8.668529e-01,6.870800e+00
6.146146e+00,9.462998e+00,6.311808e+00,8.639981e-01,5.615530e+00
6.156156e+00,1.064199e+01,5.381941e+00,8.609472e-01,4.358778e+00
6.166166e+00,1.161475e+01,4.076403e+00,8.577012e-01,3.100364e+00
6.176176e+00,1.221644e+01,2.480067e+00,8.542612e-01,1.840102e+00
6.186186e+00,1.234155e+01,7.659515e-01,8.506281e-01,5.778035e-01
6.196196e+00,1.199294e+01,-8.604328e-01,8.468031e-01,-6.867243e-01
6.206206e+00,1.127469e+01,-2.236339e+00,8.427877e-01,-1.953681e+00
6.216216e+00,1.033758e+01,-3.284788e+00,8.385830e-01,-3.223271e+00
6.226226e+00,9.321577e+00,-4.008300e+00,8.341905e-01,-4.495705e+00
6.236236e+00,8.326029e+00,-4.456081e+00,8.296117e-01,-5.771201e+00
6.246246e+00,7.407181e+00,-4.692289e+00,8.248482e-01,-7.049984e+00
6.256256e+00,6.588868e+00,-4.776993e+00,8.199017e-01,-8.332286e+00
6.266266e+00,5.874997e+00,-4.758674e+00,8.147738e-01,-9.618348e+00
6.276276e+00,5.259104e+00,-4.673381e+00,8.094666e-01,-1.090842e+01
6.286286e+00,4.730364e+00,-4.546627e+00,8.039818e-01,-1.220276e+01
6.296296e+00,4.276907e+00,-4.395898e+00,7.983215e-01,-1.350164e+01
6.306306e+00,3.887447e+00,-4.232908e+00,7.924878e-01,-1.480533e+01
6.316316e+00,3.551947e+00,-4.065352e+00,7.864829e-01,-1.611414e+01
6.326326e+00,3.261797e+00,-3.898180e+00,7.803091e-01,-1.742836e+01
6.336336e+00,3.009753e+00,-3.734491e+00,7.739687e-01,-1.874832e+01
6.346346e+00,2.789784e+00,-3.576146e+00,7.674644e-01,-2.007434e+01
6.356356e+00,2.596894e+00,-3.424187e+00,7.607985e-01,-2.140677e+01
6.366366e+00,2.426950e+00,-3.279115e+00,7.539740e-01,-2.274598e+01
6.376376e+00,2.276530e+00,-3.141082e+00,7.469934e-01,-2.409235e+01
6.386386e+00,2.142798e+00,-3.010014e+00,7.398598e-01,-2.544628e+01
6.396396e+00,2.023391e+00,-2.885701e+00,7.325761e-01,-2.680818e+01
6.406406e+00,1.916336e+00,-2.767851e+00,7.251455e-01,-2.817851e+01
6.416416e+00,1.819980e+00,-2.656130e+00,7.175712e-01,-2.955773e+01
6.426426e+00,1.732930e+00,-2.550180e+00,7.098567e-01,-3.094632e+01
6.436436e+00,1.654009e+00,-2.449646e+00,7.020053e-01,-3.234481e+01
6.446446e+00,1.582216e+00,-2.354176e+00,6.940208e-01,-3.375373e+01
6.456456e+00,1.516699e+00,-2.263435e+00,6.859070e-01,-3.517367e+01
6.466466e+00,1.456727e+00,-2.177101e+00,6.776677e-01,-3.660522e+01
6.476476e+00,1.401672e+00,-2.094875e+00,6.693072e-01,-3.804903e+01
6.486486e+00,1.350992e+00,-2.016476e+00,6.608295e-01,-3.950579e+01
6.496496e+00,1.304218e+00,-1.941641e+00,6.522392e-01,-4.097620e+01
6.506507e+00,1.260941e+00,-1.870128e+00,6.435409e-01,-4.246103e+01
6.516517e+00,1.220804e+00,-1.801713e+00,6.347394e-01,-4.396108e+01
6.526527e+00,1.183496e+00,-1.736187e+00,6.258396e-01,-4.547722e+01
6.536537e+00,1.148741e+00,-1.673358e+00,6.168469e-01,-4.701034e+01
6.546547e+00,1.116299e+00,-1.613049e+00,6.077666e-01,-4.856142e+01
6.556557e+00,1.085956e+00,-1.555095e+00,5.986045e-01,-5.013147e+01
6.566567e+00,1.057522e+00,-1.499345e+00,5.893666e-01,-5.172158e+01
6.576577e+00,1.030829e+00,-1.445660e+00,5.800591e-01,-5.333291e+01
6.586587e+00,1.005727e+00,-1.393908e+00,5.706885e-01,-5.496669e+01
6.596597e+00,9.820809e-01,-1.343971e+00,5.612619e-01,-5.662422e+01
6.606607e+00,9.597715e-01,-1.295738e+00,5.517863e-01,-5.830689e+01
6.616617e+00,9.386905e-01,-1.249104e+00,5.422694e-01,-6.001617e+01
6.626627e+00,9.187408e-01,-1.203976e+00,5.327192e-01,-6.175363e+01
6.636637e+00,8.998347e-01,-1.160263e+00,5.231442e-01,-6.352095e+01
6.646647e+00,8.818928e-01,-1.117884e+00,5.135534e-01,-6.531987e+01
6.656657e+00,8.648436e-01,-1.076761e+00,5.039560e-01,-6.715229e+01
6.666667e+00,8.486216e-01,-1.036822e+00,4.943622e-01,-6.902019e+01
6.676677e+00,8.331678e-01,-9.980024e-01,4.847825e-01,-7.092567e+01
6.686687e+00,8.184280e-01,-9.602381e-01,4.752281e-01,-7.287095e+01
6.696697e+00,8.043530e-01,-9.234710e-01,4.657109e-01,-7.485839e+01
6.706707e+00,7.908978e-01,-8.876468e-01,4.562437e-01,-7.689044e+01
6.716717e+00,7.780210e-01,-8.527143e-01,4.468397e-01,-7.896969e+01
6.726727e+00,7.656847e-01,-8.186255e-01,4.375135e-01,-8.109884e+01
6.736737e+00,7.538543e-01,-7.853354e-01,4.282800e-01,-8.328070e+01
6.746747e+00,7.424976e-01,-7.528017e-01,4.191557e-01,-8.551817e+01
6.756757e+00,7.315853e-01,-7.209847e-01,4.101577e-01,-8.781424e+01
6.766767e+00,7.210900e-01,-6.898468e-01,4.013043e-01,-9.017195e+01
6.776777e+00,7.109866e-01,-6.593527e-01,3.926150e-01,-9.259436e+01
6.786787e+00,7.012520e-01,-6.294690e-01,3.841105e-01,-9.508452e+01
6.796797e+00,6.918645e-01,-6.001642e-01,3.758126e-01,-9.764542e+01
6.806807e+00,6.828041e-01,-5.714084e-01,3.677444e-01,-1.002799e+02
6.816817e+00,6.740523e-01,-5.431734e-01,3.599304e-01,-1.029906e+02
6.826827e+00,6.655918e-01,-5.154324e-01,3.523959e-01,-1.057800e+02
6.836837e+00,6.574066e-01,-4.881600e-01,3.451677e-01,-1.086500e+02
6.846847e+00,6.494817e-01,-4.613319e-01,3.382732e-01,-1.116020e+02
6.856857e+00,6.418032e-01,-4.349253e-01,3.317411e-01,-1.146370e+02
6.866867e+00,6.343579e-01,-4.089182e-01,3.256003e-01,-1.177550e+02
6.876877e+00,6.271338e-01,-3.832897e-01,3.198803e-01,-1.209552e+02
6.886887e+00,6.201195e-01,-3.580199e-01,3.146103e-01,-1.242358e+02
6.896897e+00,6.133042e-01,-3.330897e-01,3.098192e-01,-1.275936e+02
6.906907e+00,6.066780e-01,-3.084810e-01,3.055351e-01,-1.310246e+02
6.916917e+00,6.002315e-01,-2.841761e-01,3.017842e-01,-1.345230e+02
6.926927e+00,5.939559e-01,-2.601585e-01,2.985911e-01,-1.380819e+02
6.936937e+00,5.878429e-01,-2.364119e-01,2.959775e-01,-1.416931e+02
6.946947e+00,5.818848e-01,-2.129209e-01,2.939620e-01,-1.453471e+02
6.956957e+00,5.760743e-01,-1.896705e-01,2.925593e-01,-1.490334e+02
6.966967e+00,5.704045e-01,-1.666464e-01,2.917802e-01,-1.527406e+02
6.976977e+00,5.648688e-01,-1.438348e-01,2.916308e-01,-1.564569e+02
6.986987e+00,5.594612e-01,-1.212220e-01,2.921127e-01,-1.601700e+02
6.996997e+00,5.541759e-01,-9.879523e-02,2.932227e-01,-1.638678e+02
7.007007e+00,5.490075e-01,-7.654177e-02,2.949529e-01,-1.675388e+02
7.017017e+00,5.439509e-01,-5.444936e-02,2.972910e-01,-1.711717e+02
7.027027e+00,5.390011e-01,-3.250609e-02,3.002210e-01,-1.747566e+02
7.037037e+00,5.341537e-01,-1.070035e-02,3.037231e-01,-1.782845e+02
7.047047e+00,5.294042e-01,1.097922e-02,3.077746e-01,1.782522e+02
7.057057e+00,5.247487e-01,3.254369e-02,3.123504e-01,1.748600e+02
7.067067e+00,5.201832e-01,5.400391e-02,3.174236e-01,1.715438e+02
7.077077e+00,5.157041e-01,7.537053e-02,3.229660e-01,1.683073e+02
7.087087e+00,5.113079e-01,9.665400e-02,3.289488e-01,1.651531e+02
7.097097e+00,5.069914e-01,1.178646e-01,3.353428e-01,1.620824e+02
7.107107e+00,5.027514e-01,1.390125e-01,3.421187e-01,1.590958e+02
7.117117e+00,4.985852e-01,1.601076e-01,3.492481e-01,1.561928e+02
7.127127e+00,4.944898e-01,1.811600e-01,3.567029e-01,1.533722e+02
7.137137e+00,4.904628e-01,2.021794e-01,3.644560e-01,1.506324e+02
7.147147e+00,4.865017e-01,2.231755e-01,3.724815e-01,1.479711e+02
7.157157e+00,4.826041e-01,2.441581e-01,3.807544e-01,1.453858e+02
7.167167e+00,4.787680e-01,2.651368e-01,3.892510e-01,1.428739e+02
7.177177e+00,4.749913e-01,2.861213e-01,3.979489e-01,1.404323e+02
7.187187e+00,4.712720e-01,3.071212e-01,4.068267e-01,1.380582e+02
7.197197e+00,4.676084e-01,3.281461e-01,4.158645e-01,1.357483e+02
7.207207e+00,4.639989e-01,3.492058e-01,4.250433e-01,1.334997e+02
7.217217e+00,4.604419e-01,3.703101e-01,4.343452e-01,1.313093e+02
7.227227e+00,4.569360e-01,3.914687e-01,4.437537e-01,1.291742e+02
7.237237e+00,4.534799e-01,4.126916e-01,4.532529e-01,1.270916e+02
7.247247e+00,4.500724e-01,4.339888e-01,4.628280e-01,1.250586e+02
7.257257e+00,4.467125e-01,4.553704e-01,4.724651e-01,1.230727e+02
7.267267e+00,4.433991e-01,4.768469e-01,4.821513e-01,1.211312e+02
7.277277e+00,4.401314e-01,4.984286e-01,4.918740e-01,1.192319e+02
7.287287e+00,4.369087e-01,5.201262e-01,5.016219e-01,1.173724e+02
7.297297e+00,4.337303e-01,5.419506e-01,5.113839e-01,1.155505e+02
7.307307e+00,4.305959e-01,5.639129e-01,5.211497e-01,1.137642e+02
7.317317e+00,4.275049e-01,5.860245e-01,5.309095e-01,1.120116e+02
7.327327e+00,4.244572e-01,6.082970e-01,5.406543e-01,1.102908e+02
7.337337e+00,4.214526e-01,6.307424e-01,5.503751e-01,1.086002e+02
7.347347e+00,4.184911e-01,6.533730e-01,5.600638e-01,1.069381e+02
7.357357e+00,4.155729e-01,6.762014e-01,5.697126e-01,1.053030e+02
7.367367e+00,4.126982e-01,6.992407e-01,5.793138e-01,1.036934e+02
7.377377e+00,4.098675e-01,7.225043e-01,5.888605e-01,1.021081e+02
7.387387e+00,4.070815e-01,7.460062e-01,5.983459e-01,1.005457e+02
7.397397e+00,4.043408e-01,7.697608e-01,6.077635e-01,9.900511e+01
7.407407e+00,4.016465e-01,7.937829e-01,6.171071e-01,9.748516e+01
7.417417e+00,3.989996e-01,8.180882e-01,6.263709e-01,9.598483e+01
7.427427e+00,3.964015e-01,8.426928e-01,6.355492e-01,9.450311e+01
7.437437e+00,3.938538e-01,8.676134e-01,6.446366e-01,9.303908e+01
7.447447e+00,3.913583e-01,8.928675e-01,6.536280e-01,9.159187e+01
7.457457e+00,3.889170e-01,9.184733e-01,6.625183e-01,9.016064e+01
7.467467e+00,3.865323e-01,9.444500e-01,6.713029e-01,8.874463e+01
7.477477e+00,3.842068e-01,9.708174e-01,6.799770e-01,8.734311e+01
7.487487e+00,3.819433e-01,9.975964e-01,6.885363e-01,8.595537e+01
7.497497e+00,3.797452e-01,1.024809e+00,6.969765e-01,8.458078e+01
7.507508e+00,3.776162e-01,1.052478e+00,7.052936e-01,8.321871e+01
7.517518e+00,3.755604e-01,1.080627e+00,7.134836e-01,8.186860e+01
7.527528e+00,3.735822e-01,1.109283e+00,7.215426e-01,8.052987e+01
7.537538e+00,3.716866e-01,1.138471e+00,7.294671e-01,7.920203e+01
7.547548e+00,3.698794e-01,1.168219e+00,7.372535e-01,7.788458e+01
7.557558e+00,3.681665e-01,1.198558e+00,7.448984e-01,7.657704e+01
7.567568e+00,3.665549e-01,1.229519e+00,7.523984e-01,7.527899e+01
7.577578e+00,3.650520e-01,1.261136e+00,7.597504e-01,7.399000e+01
7.587588e+00,3.636663e-01,1.293442e+00,7.669513e-01,7.270968e+01
7.597598e+00,3.624069e-01,1.326476e+00,7.739981e-01,7.143764e+01
7.607608e+00,3.612841e-01,1.360277e+00,7.808881e-01,7.017354e+01
7.617618e+00,3.603091e-01,1.394887e+00,7.876183e-01,6.891703e+01
7.627628e+00,3.594945e-01,1.430350e+00,7.941862e-01,6.766778e+01
7.637638e+00,3.588541e-01,1.466716e+00,8.005891e-01,6.642549e+01
7.647648e+00,3.584033e-01,1.504033e+00,8.068246e-01,6.518987e+01
7.657658e+00,3.581591e-01,1.542356e+00,8.128903e-01,6.396062e+01
7.667668e+00,3.581405e-01,1.581743e+00,8.187838e-01,6.273750e+01
7.677678e+00,3.583685e-01,1.622256e+00,8.245030e-01,6.152023e+01
7.687688e+00,3.588665e-01,1.663962e+00,8.300456e-01,6.030858e+01
7.697698e+00,3.596607e-01,1.706930e+00,8.354097e-01,5.910231e+01
7.707708e+00,3.607801e-01,1.751238e+00,8.405931e-01,5.790120e+01
7.717718e+00,3.622572e-01,1.796968e+00,8.455942e-01,5.670503e+01
7.727728e+00,3.641284e-01,1.844207e+00,8.504109e-01,5.551359e+01
7.737738e+00,3.664346e-01,1.893051e+00,8.550415e-01,5.432669e+01
7.747748e+00,3.692214e-01,1.943603e+00,8.594844e-01,5.314415e+01
7.757758e+00,3.725402e-01,1.995972e+00,8.637379e-01,5.196576e+01
7.767768e+00,3.764491e-01,2.050281e+00,8.678006e-01,5.079137e+01
7.777778e+00,3.810134e-01,2.106657e+00,8.716708e-01,4.962080e+01
7.787788e+00,3.863070e-01,2.165242e+00,8.753474e-01,4.845389e+01
7.797798e+00,3.924136e-01,2.226190e+00,8.788289e-01,4.729047e+01
7.807808e+00,3.994285e-01,2.289666e+00,8.821140e-01,4.613040e+01
7.817818e+00,4.074598e-01,2.355851e+00,8.852017e-01,4.497353e+01
7.827828e+00,4.166312e-01,2.424944e+00,8.880907e-01,4.381971e+01
7.837838e+00,4.270840e-01,2.497159e+00,8.907800e-01,4.266882e+01
7.847848e+00,4.389801e-01,2.572733e+00,8.932687e-01,4.152070e+01
7.857858e+00,4.525061e-01,2.651923e+00,8.955558e-01,4.037524e+01
7.867868e+00,4.678770e-01,2.735012e+00,8.976405e-01,3.923230e+01
7.877878e+00,4.853414e-01,2.822308e+00,8.995220e-01,3.809176e+01
7.887888e+00,5.051880e-01,2.914152e+00,9.011995e-01,3.695350e+01
7.897898e+00,5.277529e-01,3.010915e+00,9.026725e-01,3.581740e+01
7.907908e+00,5.534286e-01,3.113006e+00,9.039403e-01,3.468335e+01
7.917918e+00,5.826753e-01,3.220874e+00,9.050024e-01,3.355123e+01
7.927928e+00,6.160345e-01,3.335010e+00,9.058583e-01,3.242093e+01
7.937938e+00,6.541456e-01,3.455952e+00,9.065077e-01,3.129234e+01
7.947948e+00,6.977667e-01,3.584287e+00,9.069502e-01,3.016536e+01
7.957958e+00,7.478002e-01,3.720653e+00,9.071855e-01,2.903988e+01
7.967968e+00,8.053244e-01,3.865742e+00,9.072135e-01,2.791579e+01
7.977978e+00,8.716328e-01,4.020292e+00,9.070339e-01,2.679299e+01
7.987988e+00,9.482842e-01,4.185085e+00,9.066467e-01,2.567138e+01
7.997998e+00,1.037163e+00,4.360934e+00,9.060519e-01,2.455087e+01
8.008008e+00,1.140558e+00,4.548656e+00,9.052495e-01,2.343134e+01
8.018018e+00,1.261255e+00,4.749031e+00,9.042396e-01,2.231269e+01
8.028028e+00,1.402658e+00,4.962743e+00,9.030223e-01,2.119484e+01
8.038038e+00,1.568932e+00,5.190270e+00,9.015980e-01,2.007767e+01
8.048048e+00,1.765173e+00,5.431727e+00,8.999668e-01,1.896109e+01
8.058058e+00,1.997615e+00,5.686623e+00,8.981291e-01,1.784501e+01
8.068068e+00,2.273843e+00,5.953490e+00,8.960853e-01,1.672931e+01
8.078078e+00,2.602999e+00,6.229331e+00,8.938359e-01,1.561390e+01
8.088088e+00,2.995928e+00,6.508816e+00,8.913813e-01,1.449867e+01
8.098098e+00,3.465122e+00,6.783125e+00,8.887223e-01,1.338353e+01
8.108108e+00,4.024268e+00,7.038379e+00,8.858594e-01,1.226837e+01
8.118118e+00,4.687006e+00,7.253632e+00,8.827933e-01,1.115309e+01
8.128128e+00,5.464343e+00,7.398648e+00,8.795247e-01,1.003757e+01
8.138138e+00,6.360016e+00,7.432125e+00,8.760546e-01,8.921718e+00
8.148148e+00,7.363266e+00,7.301914e+00,8.723838e-01,7.805416e+00
8.158158e+00,8.439562e+00,6.949773e+00,8.685132e-01,6.688553e+00
8.168168e+00,9.522278e+00,6.323623e+00,8.644438e-01,5.571014e+00
8.178178e+00,1.051193e+01,5.397938e+00,8.601767e-01,4.452682e+00
8.188188e+00,1.129084e+01,4.196336e+00,8.557129e-01,3.333435e+00
8.198198e+00,1.175493e+01,2.802457e+00,8.510537e-01,2.213151e+00
8.208208e+00,1.185003e+01,1.345686e+00,8.462003e-01,1.091702e+00
8.218218e+00,1.159070e+01,-3.612416e-02,8.411540e-01,-3.104355e-02
8.228228e+00,1.104943e+01,-1.236309e+00,8.359162e-01,-1.155221e+00
8.238238e+00,1.032566e+01,-2.199868e+00,8.304881e-01,-2.280970e+00
8.248248e+00,9.514842e+00,-2.920148e+00,8.248714e-01,-3.408436e+00
8.258258e+00,8.690669e+00,-3.422183e+00,8.190675e-01,-4.537769e+00
8.268268e+00,7.901071e+00,-3.745036e+00,8.130780e-01,-5.669126e+00
8.278278e+00,7.172170e+00,-3.929448e+00,8.069046e-01,-6.802669e+00
8.288288e+00,6.514734e+00,-4.011459e+00,8.005490e-01,-7.938567e+00
8.298298e+00,5.930042e+00,-4.020230e+00,7.940128e-01,-9.076996e+00
8.308308e+00,5.414174e+00,-3.978118e+00,7.872981e-01,-1.021814e+01
8.318318e+00,4.960795e+00,-3.901692e+00,7.804065e-01,-1.136220e+01
8.328328e+00,4.562790e+00,-3.802956e+00,7.733401e-01,-1.250937e+01
8.338338e+00,4.213160e+00,-3.690469e+00,7.661010e-01,-1.365986e+01
8.348348e+00,3.905446e+00,-3.570259e+00,7.586910e-01,-1.481390e+01
8.358358e+00,3.633903e+00,-3.446521e+00,7.511125e-01,-1.597172e+01
8.368368e+00,3.393526e+00,-3.322135e+00,7.433675e-01,-1.713357e+01
8.378378e+00,3.180012e+00,-3.199051e+00,7.354584e-01,-1.829971e+01
8.388388e+00,2.989685e+00,-3.078555e+00,7.273874e-01,-1.947041e+01
8.398398e+00,2.819417e+00,-2.961468e+00,7.191570e-01,-2.064597e+01
8.408408e+00,2.666550e+00,-2.848282e+00,7.107696e-01,-2.182670e+01
8.418418e+00,2.528824e+00,-2.739260e+00,7.022277e-01,-2.301292e+01
8.428428e+00,2.404316e+00,-2.634507e+00,6.935340e-01,-2.420498e+01
8.438438e+00,2.291386e+00,-2.534019e+00,6.846911e-01,-2.540325e+01
8.448448e+00,2.188631e+00,-2.437719e+00,6.757018e-01,-2.660812e+01
8.458458e+00,2.094849e+00,-2.345481e+00,6.665689e-01,-2.782001e+01
8.468468e+00,2.009005e+00,-2.257152e+00,6.572953e-01,-2.903938e+01
8.478478e+00,1.930207e+00,-2.172558e+00,6.478840e-01,-3.026669e+01
8.488488e+00,1.857683e+00,-2.091519e+00,6.383381e-01,-3.150247e+01
8.498498e+00,1.790762e+00,-2.013850e+00,6.286608e-01,-3.274726e+01
8.508509e+00,1.728859e+00,-1.939372e+00,6.188554e-01,-3.400165e+01
8.518519e+00,1.671465e+00,-1.867906e+00,6.089252e-01,-3.526627e+01
8.528529e+00,1.618131e+00,-1.799282e+00,5.988737e-01,-3.654182e+01
8.538539e+00,1.568465e+00,-1.733338e+00,5.887046e-01,-3.782901e+01
8.548549e+00,1.522118e+00,-1.669917e+00,5.784215e-01,-3.912866e+01
8.558559e+00,1.478786e+00,-1.608874e+00,5.680284e-01,-4.044162e+01
8.568569e+00,1.438194e+00,-1.550069e+00,5.575292e-01,-4.176881e+01
8.578579e+00,1.400102e+00,-1.493374e+00,5.469281e-01,-4.311125e+01
8.588589e+00,1.364294e+00,-1.438666e+00,5.362295e-01,-4.447004e+01
8.598599e+00,1.330577e+00,-1.385831e+00,5.254377e-01,-4.584636e+01
8.608609e+00,1.298779e+00,-1.334760e+00,5.145577e-01,-4.724153e+01
8.618619e+00,1.268744e+00,-1.285355e+00,5.035941e-01,-4.865695e+01
8.628629e+00,1.240333e+00,-1.237519e+00,4.925524e-01,-5.009418e+01
8.638639e+00,1.213421e+00,-1.191167e+00,4.814378e-01,-5.155493e+01
8.648649e+00,1.187892e+00,-1.146214e+00,4.702561e-01,-5.304105e+01
8.658659e+00,1.163646e+00,-1.102583e+00,4.590134e-01,-5.455460e+01
8.668669e+00,1.140587e+00,-1.060203e+00,4.477161e-01,-5.609784e+01
8.678679e+00,1.118632e+00,-1.019005e+00,4.363711e-01,-5.767326e+01
8.688689e+00,1.097702e+00,-9.789252e-01,4.249856e-01,-5.928361e+01
8.698699e+00,1.077727e+00,-9.399041e-01,4.135675e-01,-6.093194e+01
8.708709e+00,1.058643e+00,-9.018855e-01,4.021252e-01,-6.262162e+01
8.718719e+00,1.040390e+00,-8.648165e-01,3.906678e-01,-6.435641e+01
8.728729e+00,1.022915e+00,-8.286474e-01,3.792053e-01,-6.614048e+01
8.738739e+00,1.006167e+00,-7.933314e-01,3.677484e-01,-6.797847e+01
8.748749e+00,9.901009e-01,-7.588245e-01,3.563089e-01,-6.987557e+01
8.758759e+00,9.746743e-01,-7.250851e-01,3.448997e-01,-7.183757e+01
8.768769e+00,9.598483e-01,-6.920740e-01,3.335352e-01,-7.387091e+01
8.778779e+00,9.455871e-01,-6.597540e-01,3.222313e-01,-7.598283e+01
8.788789e+00,9.318574e-01,-6.280902e-01,3.110057e-01,-7.818139e+01
8.798799e+00,9.186285e-01,-5.970493e-01,2.998782e-01,-8.047561e+01
8.808809e+00,9.058719e-01,-5.666000e-01,2.888709e-01,-8.287551e+01
8.818819e+00,8.935609e-01,-5.367124e-01,2.780091e-01,-8.539228e+01
8.828829e+00,8.816711e-01,-5.073583e-01,2.673210e-01,-8.803825e+01
8.838839e+00,8.701796e-01,-4.785108e-01,2.568389e-01,-9.082702e+01
8.848849e+00,8.590649e-01,-4.501444e-01,2.465990e-01,-9.377341e+01
8.858859e+00,8.483073e-01,-4.222347e-01,2.366429e-01,-9.689335e+01
8.868869e+00,8.378881e-01,-3.947585e-01,2.270176e-01,-1.002037e+02
8.878879e+00,8.277901e-01,-3.676938e-01,2.177761e-01,-1.037218e+02
8.888889e+00,8.179970e-01,-3.410194e-01,2.089782e-01,-1.074649e+02
8.898899e+00,8.084936e-01,-3.147152e-01,2.006907e-01,-1.114490e+02
8.908909e+00,7.992657e-01,-2.887617e-01,1.929870e-01,-1.156877e+02
8.918919e+00,7.903000e-01,-2.631406e-01,1.859469e-01,-1.201902e+02
8.928929e+00,7.815840e-01,-2.378341e-01,1.796548e-01,-1.249592e+02
8.938939e+00,7.731059e-01,-2.128250e-01,1.741974e-01,-1.299881e+02
8.948949e+00,7.648548e-01,-1.880971e-01,1.696599e-01,-1.352594e+02
8.958959e+00,7.568202e-01,-1.636345e-01,1.661214e-01,-1.407423e+02
8.968969e+00,7.489923e-01,-1.394220e-01,1.636494e-01,-1.463923e+02
8.978979e+00,7.413621e-01,-1.154450e-01,1.622942e-01,-1.521531e+02
8.988989e+00,7.339208e-01,-9.168925e-02,1.620843e-01,-1.579594e+02
8.998999e+00,7.266602e-01,-6.814103e-02,1.630234e-01,-1.637421e+02
9.009009e+00,7.195728e-01,-4.478706e-02,1.650904e-01,-1.694340e+02
9.019019e+00,7.126511e-01,-2.161443e-02,1.682407e-01,-1.749752e+02
9.029029e+00,7.058884e-01,1.389393e-03,1.724115e-01,1.796827e+02
9.039039e+00,6.992783e-01,2.423660e-02,1.775260e-01,1.745751e+02
9.049049e+00,6.928145e-01,4.693909e-02,1.835001e-01,1.697239e+02
9.059059e+00,6.864914e-01,6.950844e-02,1.902466e-01,1.651390e+02
9.069069e+00,6.803034e-01,9.195600e-02,1.976796e-01,1.608205e+02
9.079079e+00,6.742455e-01,1.142929e-01,2.057173e-01,1.567610e+02
9.089089e+00,6.683128e-01,1.365299e-01,2.142838e-01,1.529483e+02
9.099099e+00,6.625007e-01,1.586779e-01,2.233100e-01,1.493670e+02
9.109109e+00,6.568049e-01,1.807472e-01,2.327336e-01,1.460000e+02
9.119119e+00,6.512213e-01,2.027482e-01,2.424993e-01,1.428301e+02
9.129129e+00,6.457460e-01,2.246912e-01,2.525579e-01,1.398400e+02
9.139139e+00,6.403754e-01,2.465863e-01,2.628664e-01,1.370136e+02
9.149149e+00,6.351061e-01,2.684434e-01,2.733867e-01,1.343356e+02
9.159159e+00,6.299348e-01,2.902726e-01,2.840852e-01,1.317921e+02
9.169169e+00,6.248586e-01,3.120836e-01,2.949324e-01,1.293703e+02
9.179179e+00,6.198747e-01,3.338863e-01,3.059023e-01,1.270587e+02
9.189189e+00,6.149802e-01,3.556904e-01,3.169717e-01,1.248467e+02
9.199199e+00,6.101729e-01,3.775059e-01,3.281201e-01,1.227252e+02
9.209209e+00,6.054504e-01,3.993423e-01,3.393292e-01,1.206857e+02
9.219219e+00,6.008105e-01,4.212097e-01,3.505826e-01,1.187208e+02
9.229229e+00,5.962513e-01,4.431178e-01,3.618656e-01,1.168237e+02
9.239239e+00,5.917710e-01,4.650766e-01,3.731648e-01,1.149885e+02
9.249249e+00,5.873678e-01,4.870960e-01,3.844681e-01,1.132098e+02
9.259259e+00,5.830404e-01,5.091861e-01,3.957645e-01,1.114828e+02
9.269269e+00,5.787874e-01,5.313572e-01,4.070440e-01,1.098031e+02
9.279279e+00,5.746076e-01,5.536195e-01,4.182973e-01,1.081668e+02
9.289289e+00,5.704999e-01,5.759836e-01,4.295157e-01,1.065706e+02
9.299299e+00,5.664635e-01,5.984602e-01,4.406915e-01,1.050112e+02
9.309309e+00,5.624977e-01,6.210600e-01,4.518172e-01,1.034858e+02
9.319319e+00,5.586019e-01,6.437941e-01,4.628859e-01,1.019918e+02
9.329329e+00,5.547757e-01,6.666739e-01,4.738913e-01,1.005269e+02
9.339339e+00,5.510190e-01,6.897108e-01,4.848271e-01,9.908905e+01
9.349349e+00,5.473316e-01,7.129167e-01,4.956877e-01,9.767623e+01
9.359359e+00,5.437137e-01,7.363038e-01,5.064677e-01,9.628673e+01
9.369369e+00,5.401656e-01,7.598844e-01,5.171619e-01,9.491896e+01
9.379379e+00,5.366878e-01,7.836715e-01,5.277655e-01,9.357146e+01
9.389389e+00,5.332810e-01,8.076782e-01,5.382738e-01,9.224291e+01
9.399399e+00,5.299461e-01,8.319182e-01,5.486824e-01,9.093207e+01
9.409409e+00,5.266843e-01,8.564054e-01,5.589869e-01,8.963784e+01
9.419419e+00,5.234970e-01,8.811545e-01,5.691834e-01,8.835918e+01
9.429429e+00,5.203857e-01,9.061806e-01,5.792678e-01,8.709514e+01
9.439439e+00,5.173524e-01,9.314991e-01,5.892364e-01,8.584484e+01
9.449449e+00,5.143991e-01,9.571265e-01,5.990855e-01,8.460750e+01
9.459459e+00,5.115285e-01,9.830794e-01,6.088118e-01,8.338234e+01
9.469469e+00,5.087432e-01,1.009375e+00,6.184116e-01,8.216869e+01
9.479479e+00,5.060464e-01,1.036033e+00,6.278819e-01,8.096591e+01
9.489489e+00,5.034416e-01,1.063071e+00,6.372193e-01,7.977339e+01
9.499499e+00,5.009327e-01,1.090509e+00,6.464209e-01,7.859059e+01
9.509510e+00,4.985240e-01,1.118368e+00,6.554836e-01,7.741699e+01
9.519520e+00,4.962203e-01,1.146670e+00,6.644046e-01,7.625212e+01
9.529530e+00,4.940270e-01,1.175438e+00,6.731811e-01,7.509552e+01
9.539540e+00,4.919498e-01,1.204695e+00,6.818103e-01,7.394679e+01
9.549550e+00,4.899953e-01,1.234466e+00,6.902895e-01,7.280552e+01
9.559560e+00,4.881705e-01,1.264778e+00,6.986164e-01,7.167135e+01
9.569570e+00,4.864834e-01,1.295659e+00,7.067883e-01,7.054394e+01
9.579580e+00,4.849423e-01,1.327137e+00,7.148028e-01,6.942297e+01
9.589590e+00,4.835570e-01,1.359243e+00,7.226576e-01,6.830814e+01
9.599600e+00,4.823377e-01,1.392010e+00,7.303504e-01,6.719917e+01
9.609610e+00,4.812959e-01,1.425472e+00,7.378790e-01,6.609578e+01
9.619620e+00,4.804442e-01,1.459664e+00,7.452413e-01,6.499772e+01
9.629630e+00,4.797963e-01,1.494626e+00,7.524352e-01,6.390477e+01
9.639640e+00,4.793676e-01,1.530397e+00,7.594586e-01,6.281669e+01
9.649650e+00,4.791748e-01,1.567020e+00,7.663096e-01,6.173328e+01
9.659660e+00,4.792364e-01,1.604540e+00,7.729863e-01,6.065433e+01
9.669670e+00,4.795726e-01,1.643007e+00,7.794869e-01,5.957965e+01
9.679680e+00,4.802060e-01,1.682471e+00,7.858095e-01,5.850907e+01
9.689690e+00,4.811613e-01,1.722986e+00,7.919526e-01,5.744242e+01
9.699700e+00,4.824659e-01,1.764612e+00,7.979143e-01,5.637954e+01
9.709710e+00,4.841500e-01,1.807408e+00,8.036931e-01,5.532027e+01
9.719720e+00,4.862472e-01,1.851443e+00,8.092875e-01,5.426447e+01
9.729730e+00,4.887947e-01,1.896785e+00,8.146960e-01,5.321199e+01
9.739740e+00,4.918338e-01,1.943511e+00,8.199171e-01,5.216272e+01
9.749750e+00,4.954103e-01,1.991701e+00,8.249494e-01,5.111652e+01
9.759760e+00,4.995753e-01,2.041441e+00,8.297916e-01,5.007327e+01
9.769770e+00,5.043858e-01,2.092824e+00,8.344425e-01,4.903286e+01
9.779780e+00,5.099051e-01,2.145947e+00,8.389009e-01,4.799518e+01
9.789790e+00,5.162045e-01,2.200919e+00,8.431655e-01,4.696012e+01
9.799800e+00,5.233634e-01,2.257853e+00,8.472353e-01,4.592759e+01
9.809810e+00,5.314712e-01,2.316871e+00,8.511092e-01,4.489750e+01
9.819820e+00,5.406280e-01,2.378105e+00,8.547863e-01,4.386974e+01
9.829830e+00,5.509471e-01,2.441697e+00,8.582655e-01,4.284423e+01
9.839840e+00,5.625556e-01,2.507800e+00,8.615460e-01,4.182088e+01
9.849850e+00,5.755979e-01,2.576578e+00,8.646270e-01,4.079962e+01
9.859860e+00,5.902370e-01,2.648208e+00,8.675076e-01,3.978037e+01
9.869870e+00,6.066583e-01,2.722881e+00,8.701872e-01,3.876305e+01
9.879880e+00,6.250725e-01,2.800800e+00,8.726651e-01,3.774758e+01
9.889890e+00,6.457200e-01,2.882188e+00,8.749406e-01,3.673390e+01
9.899900e+00,6.688756e-01,2.967279e+00,8.770131e-01,3.572195e+01
9.909910e+00,6.948540e-01,3.056328e+00,8.788823e-01,3.471165e+01
9.919920e+00,7.240167e-01,3.149607e+00,8.805475e-01,3.370294e+01
9.929930e+00,7.567799e-01,3.247405e+00,8.820084e-01,3.269575e+01
9.939940e+00,7.936238e-01,3.350030e+00,8.832646e-01,3.169004e+01
9.949950e+00,8.351042e-01,3.457807e+00,8.843159e-01,3.068574e+01
9.959960e+00,8.818655e-01,3.571075e+00,8.851618e-01,2.968280e+01
9.969970e+00,9.346571e-01,3.690187e+00,8.858024e-01,2.868115e+01
9.979980e+00,9.943522e-01,3.815502e+00,8.862374e-01,2.768075e+01
9.989990e+00,1.061970e+00,3.947378e+00,8.864666e-01,2.668155e+01
1.000000e+01,1.138705e+00,4.086161e+00,8.864901e-01,2.568349e+01
