Figure 14 of Primus2013 – 120dB,,,,,
Frequency (Hz),Normalized Resistance (rad),Lower bound (rad),Upper bound (rad),Whole Delta,Uncertainty (%)
993.143,0.626446,0.0350223,1.24725,1.2122277,193.5087302018
1239.78,0.957767,0.523828,1.4279,0.904072,94.3937304167
1592.19,0.687966,0.536336,0.844486,0.30815,44.7914577174
1991.7,0.63897,0.587016,0.69907,0.112054,17.5366605631
2247.92,0.684987,0.63524,0.724375,0.089135,13.0126557146
2488.18,0.596829,0.545951,0.655462,0.109511,18.3488067772
2822.63,0.552887,0.459151,0.645061,0.18591,33.6253158421
3136.72,0.524217,0.359631,0.662689,0.303058,57.8115551384
Frequency (Hz),Normalized Reactance (rad),Lower bound (rad),Upper bound (rad),Whole Delta,Uncertainty (%)
992.142,-3.6248,-4.28243,-3.09824,1.18419,32.6691127786
1240.27,-3.14287,-3.64005,-2.74514,0.89491,28.4742926052
1591.83,-1.87745,-2.08085,-1.73282,0.34803,18.5373778263
1992.48,-0.980735,-1.04628,-0.892598,0.153682,15.6700841716
2248.4,-0.392639,-0.424283,-0.322588,0.101695,25.9003817756
2489.54,-0.0304314,-0.0575527,0.0803113,0.137864,NaN
2824.49,0.471253,0.349223,0.554873,0.20565,43.6389794866
3137.08,0.776479,0.620545,0.934674,0.314129,40.4555693071
